<?xml version="1.0" encoding="utf-8" standalone="no"?>
<!DOCTYPE svg PUBLIC "-//W3C//DTD SVG 1.1//EN"
  "http://www.w3.org/Graphics/SVG/1.1/DTD/svg11.dtd">
<svg xmlns:xlink="http://www.w3.org/1999/xlink" width="453.6pt" height="302.625pt" viewBox="0 0 453.6 302.625" xmlns="http://www.w3.org/2000/svg" version="1.1">
 <metadata>
  <rdf:RDF xmlns:dc="http://purl.org/dc/elements/1.1/" xmlns:cc="http://creativecommons.org/ns#" xmlns:rdf="http://www.w3.org/1999/02/22-rdf-syntax-ns#">
   <cc:Work>
    <dc:type rdf:resource="http://purl.org/dc/dcmitype/StillImage"/>
    <dc:date>2024-01-11T18:01:07.531392</dc:date>
    <dc:format>image/svg+xml</dc:format>
    <dc:creator>
     <cc:Agent>
      <dc:title>Matplotlib v3.8.2, https://matplotlib.org/</dc:title>
     </cc:Agent>
    </dc:creator>
   </cc:Work>
  </rdf:RDF>
 </metadata>
 <defs>
  <style type="text/css">*{stroke-linejoin: round; stroke-linecap: butt}</style>
 </defs>
 <g id="figure_1">
  <g id="patch_1">
   <path d="M 0 302.625 
L 453.6 302.625 
L 453.6 0 
L 0 0 
z
" style="fill: #ffffff"/>
  </g>
  <g id="axes_1">
   <g id="patch_2">
    <path d="M 7.2 295.425 
L 446.4 295.425 
L 446.4 7.2 
L 7.2 7.2 
z
" style="fill: #ffffff"/>
   </g>
   <g id="PathCollection_1">
    <defs>
     <path id="C0_0_ac3f981377" d="M 0 1.581139 
C 0.419323 1.581139 0.821528 1.41454 1.118034 1.118034 
C 1.41454 0.821528 1.581139 0.419323 1.581139 -0 
C 1.581139 -0.419323 1.41454 -0.821528 1.118034 -1.118034 
C 0.821528 -1.41454 0.419323 -1.581139 0 -1.581139 
C -0.419323 -1.581139 -0.821528 -1.41454 -1.118034 -1.118034 
C -1.41454 -0.821528 -1.581139 -0.419323 -1.581139 0 
C -1.581139 0.419323 -1.41454 0.821528 -1.118034 1.118034 
C -0.821528 1.41454 -0.419323 1.581139 0 1.581139 
z
"/>
    </defs>
    <g clip-path="url(#p5518e43c7b)">
     <use xlink:href="#C0_0_ac3f981377" x="134.420192" y="237.09375" style="fill: #0000ff"/>
    </g>
    <g clip-path="url(#p5518e43c7b)">
     <use xlink:href="#C0_0_ac3f981377" x="385.165385" y="118.319712" style="fill: #0000ff"/>
    </g>
    <g clip-path="url(#p5518e43c7b)">
     <use xlink:href="#C0_0_ac3f981377" x="108.025962" y="52.334135" style="fill: #0000ff"/>
    </g>
    <g clip-path="url(#p5518e43c7b)">
     <use xlink:href="#C0_0_ac3f981377" x="121.223077" y="39.137019" style="fill: #0000ff"/>
    </g>
    <g clip-path="url(#p5518e43c7b)">
     <use xlink:href="#C0_0_ac3f981377" x="305.982692" y="144.713942" style="fill: #0000ff"/>
    </g>
    <g clip-path="url(#p5518e43c7b)">
     <use xlink:href="#C0_0_ac3f981377" x="226.8" y="144.713942" style="fill: #0000ff"/>
    </g>
    <g clip-path="url(#p5518e43c7b)">
     <use xlink:href="#C0_0_ac3f981377" x="279.588462" y="144.713942" style="fill: #0000ff"/>
    </g>
    <g clip-path="url(#p5518e43c7b)">
     <use xlink:href="#C0_0_ac3f981377" x="345.574038" y="105.122596" style="fill: #0000ff"/>
    </g>
    <g clip-path="url(#p5518e43c7b)">
     <use xlink:href="#C0_0_ac3f981377" x="279.588462" y="223.896635" style="fill: #0000ff"/>
    </g>
    <g clip-path="url(#p5518e43c7b)">
     <use xlink:href="#C0_0_ac3f981377" x="108.025962" y="263.487981" style="fill: #0000ff"/>
    </g>
    <g clip-path="url(#p5518e43c7b)">
     <use xlink:href="#C0_0_ac3f981377" x="239.997115" y="131.516827" style="fill: #0000ff"/>
    </g>
    <g clip-path="url(#p5518e43c7b)">
     <use xlink:href="#C0_0_ac3f981377" x="253.194231" y="91.925481" style="fill: #0000ff"/>
    </g>
    <g clip-path="url(#p5518e43c7b)">
     <use xlink:href="#C0_0_ac3f981377" x="332.376923" y="144.713942" style="fill: #0000ff"/>
    </g>
    <g clip-path="url(#p5518e43c7b)">
     <use xlink:href="#C0_0_ac3f981377" x="332.376923" y="223.896635" style="fill: #0000ff"/>
    </g>
    <g clip-path="url(#p5518e43c7b)">
     <use xlink:href="#C0_0_ac3f981377" x="319.179808" y="184.305288" style="fill: #0000ff"/>
    </g>
    <g clip-path="url(#p5518e43c7b)">
     <use xlink:href="#C0_0_ac3f981377" x="160.814423" y="78.728365" style="fill: #0000ff"/>
    </g>
    <g clip-path="url(#p5518e43c7b)">
     <use xlink:href="#C0_0_ac3f981377" x="42.040385" y="118.319712" style="fill: #0000ff"/>
    </g>
    <g clip-path="url(#p5518e43c7b)">
     <use xlink:href="#C0_0_ac3f981377" x="55.2375" y="78.728365" style="fill: #0000ff"/>
    </g>
    <g clip-path="url(#p5518e43c7b)">
     <use xlink:href="#C0_0_ac3f981377" x="279.588462" y="91.925481" style="fill: #0000ff"/>
    </g>
    <g clip-path="url(#p5518e43c7b)">
     <use xlink:href="#C0_0_ac3f981377" x="94.828846" y="39.137019" style="fill: #0000ff"/>
    </g>
    <g clip-path="url(#p5518e43c7b)">
     <use xlink:href="#C0_0_ac3f981377" x="42.040385" y="250.290865" style="fill: #0000ff"/>
    </g>
    <g clip-path="url(#p5518e43c7b)">
     <use xlink:href="#C0_0_ac3f981377" x="134.420192" y="210.699519" style="fill: #0000ff"/>
    </g>
    <g clip-path="url(#p5518e43c7b)">
     <use xlink:href="#C0_0_ac3f981377" x="371.968269" y="184.305288" style="fill: #0000ff"/>
    </g>
    <g clip-path="url(#p5518e43c7b)">
     <use xlink:href="#C0_0_ac3f981377" x="239.997115" y="78.728365" style="fill: #0000ff"/>
    </g>
    <g clip-path="url(#p5518e43c7b)">
     <use xlink:href="#C0_0_ac3f981377" x="94.828846" y="118.319712" style="fill: #0000ff"/>
    </g>
    <g clip-path="url(#p5518e43c7b)">
     <use xlink:href="#C0_0_ac3f981377" x="174.011538" y="197.502404" style="fill: #0000ff"/>
    </g>
    <g clip-path="url(#p5518e43c7b)">
     <use xlink:href="#C0_0_ac3f981377" x="121.223077" y="197.502404" style="fill: #0000ff"/>
    </g>
    <g clip-path="url(#p5518e43c7b)">
     <use xlink:href="#C0_0_ac3f981377" x="81.631731" y="78.728365" style="fill: #0000ff"/>
    </g>
    <g clip-path="url(#p5518e43c7b)">
     <use xlink:href="#C0_0_ac3f981377" x="305.982692" y="91.925481" style="fill: #0000ff"/>
    </g>
    <g clip-path="url(#p5518e43c7b)">
     <use xlink:href="#C0_0_ac3f981377" x="81.631731" y="157.911058" style="fill: #0000ff"/>
    </g>
    <g clip-path="url(#p5518e43c7b)">
     <use xlink:href="#C0_0_ac3f981377" x="42.040385" y="65.53125" style="fill: #0000ff"/>
    </g>
    <g clip-path="url(#p5518e43c7b)">
     <use xlink:href="#C0_0_ac3f981377" x="187.208654" y="210.699519" style="fill: #0000ff"/>
    </g>
    <g clip-path="url(#p5518e43c7b)">
     <use xlink:href="#C0_0_ac3f981377" x="160.814423" y="210.699519" style="fill: #0000ff"/>
    </g>
    <g clip-path="url(#p5518e43c7b)">
     <use xlink:href="#C0_0_ac3f981377" x="424.756731" y="184.305288" style="fill: #0000ff"/>
    </g>
    <g clip-path="url(#p5518e43c7b)">
     <use xlink:href="#C0_0_ac3f981377" x="226.8" y="197.502404" style="fill: #0000ff"/>
    </g>
    <g clip-path="url(#p5518e43c7b)">
     <use xlink:href="#C0_0_ac3f981377" x="239.997115" y="105.122596" style="fill: #0000ff"/>
    </g>
    <g clip-path="url(#p5518e43c7b)">
     <use xlink:href="#C0_0_ac3f981377" x="134.420192" y="78.728365" style="fill: #0000ff"/>
    </g>
    <g clip-path="url(#p5518e43c7b)">
     <use xlink:href="#C0_0_ac3f981377" x="108.025962" y="78.728365" style="fill: #0000ff"/>
    </g>
    <g clip-path="url(#p5518e43c7b)">
     <use xlink:href="#C0_0_ac3f981377" x="28.843269" y="105.122596" style="fill: #0000ff"/>
    </g>
    <g clip-path="url(#p5518e43c7b)">
     <use xlink:href="#C0_0_ac3f981377" x="332.376923" y="118.319712" style="fill: #0000ff"/>
    </g>
    <g clip-path="url(#p5518e43c7b)">
     <use xlink:href="#C0_0_ac3f981377" x="239.997115" y="157.911058" style="fill: #0000ff"/>
    </g>
    <g clip-path="url(#p5518e43c7b)">
     <use xlink:href="#C0_0_ac3f981377" x="134.420192" y="157.911058" style="fill: #0000ff"/>
    </g>
    <g clip-path="url(#p5518e43c7b)">
     <use xlink:href="#C0_0_ac3f981377" x="213.602885" y="210.699519" style="fill: #0000ff"/>
    </g>
    <g clip-path="url(#p5518e43c7b)">
     <use xlink:href="#C0_0_ac3f981377" x="28.843269" y="184.305288" style="fill: #0000ff"/>
    </g>
    <g clip-path="url(#p5518e43c7b)">
     <use xlink:href="#C0_0_ac3f981377" x="266.391346" y="105.122596" style="fill: #0000ff"/>
    </g>
    <g clip-path="url(#p5518e43c7b)">
     <use xlink:href="#C0_0_ac3f981377" x="213.602885" y="105.122596" style="fill: #0000ff"/>
    </g>
    <g clip-path="url(#p5518e43c7b)">
     <use xlink:href="#C0_0_ac3f981377" x="187.208654" y="105.122596" style="fill: #0000ff"/>
    </g>
    <g clip-path="url(#p5518e43c7b)">
     <use xlink:href="#C0_0_ac3f981377" x="81.631731" y="105.122596" style="fill: #0000ff"/>
    </g>
    <g clip-path="url(#p5518e43c7b)">
     <use xlink:href="#C0_0_ac3f981377" x="358.771154" y="118.319712" style="fill: #0000ff"/>
    </g>
    <g clip-path="url(#p5518e43c7b)">
     <use xlink:href="#C0_0_ac3f981377" x="121.223077" y="276.685096" style="fill: #0000ff"/>
    </g>
    <g clip-path="url(#p5518e43c7b)">
     <use xlink:href="#C0_0_ac3f981377" x="55.2375" y="184.305288" style="fill: #0000ff"/>
    </g>
    <g clip-path="url(#p5518e43c7b)">
     <use xlink:href="#C0_0_ac3f981377" x="81.631731" y="184.305288" style="fill: #0000ff"/>
    </g>
    <g clip-path="url(#p5518e43c7b)">
     <use xlink:href="#C0_0_ac3f981377" x="68.434615" y="144.713942" style="fill: #0000ff"/>
    </g>
    <g clip-path="url(#p5518e43c7b)">
     <use xlink:href="#C0_0_ac3f981377" x="319.179808" y="105.122596" style="fill: #0000ff"/>
    </g>
    <g clip-path="url(#p5518e43c7b)">
     <use xlink:href="#C0_0_ac3f981377" x="42.040385" y="144.713942" style="fill: #0000ff"/>
    </g>
    <g clip-path="url(#p5518e43c7b)">
     <use xlink:href="#C0_0_ac3f981377" x="253.194231" y="65.53125" style="fill: #0000ff"/>
    </g>
    <g clip-path="url(#p5518e43c7b)">
     <use xlink:href="#C0_0_ac3f981377" x="108.025962" y="105.122596" style="fill: #0000ff"/>
    </g>
    <g clip-path="url(#p5518e43c7b)">
     <use xlink:href="#C0_0_ac3f981377" x="81.631731" y="263.487981" style="fill: #0000ff"/>
    </g>
    <g clip-path="url(#p5518e43c7b)">
     <use xlink:href="#C0_0_ac3f981377" x="200.405769" y="171.108173" style="fill: #0000ff"/>
    </g>
    <g clip-path="url(#p5518e43c7b)">
     <use xlink:href="#C0_0_ac3f981377" x="68.434615" y="223.896635" style="fill: #0000ff"/>
    </g>
    <g clip-path="url(#p5518e43c7b)">
     <use xlink:href="#C0_0_ac3f981377" x="147.617308" y="171.108173" style="fill: #0000ff"/>
    </g>
    <g clip-path="url(#p5518e43c7b)">
     <use xlink:href="#C0_0_ac3f981377" x="411.559615" y="118.319712" style="fill: #0000ff"/>
    </g>
    <g clip-path="url(#p5518e43c7b)">
     <use xlink:href="#C0_0_ac3f981377" x="28.843269" y="131.516827" style="fill: #0000ff"/>
    </g>
    <g clip-path="url(#p5518e43c7b)">
     <use xlink:href="#C0_0_ac3f981377" x="174.011538" y="276.685096" style="fill: #0000ff"/>
    </g>
    <g clip-path="url(#p5518e43c7b)">
     <use xlink:href="#C0_0_ac3f981377" x="147.617308" y="276.685096" style="fill: #0000ff"/>
    </g>
    <g clip-path="url(#p5518e43c7b)">
     <use xlink:href="#C0_0_ac3f981377" x="160.814423" y="237.09375" style="fill: #0000ff"/>
    </g>
    <g clip-path="url(#p5518e43c7b)">
     <use xlink:href="#C0_0_ac3f981377" x="398.3625" y="157.911058" style="fill: #0000ff"/>
    </g>
    <g clip-path="url(#p5518e43c7b)">
     <use xlink:href="#C0_0_ac3f981377" x="121.223077" y="144.713942" style="fill: #0000ff"/>
    </g>
    <g clip-path="url(#p5518e43c7b)">
     <use xlink:href="#C0_0_ac3f981377" x="94.828846" y="144.713942" style="fill: #0000ff"/>
    </g>
    <g clip-path="url(#p5518e43c7b)">
     <use xlink:href="#C0_0_ac3f981377" x="121.223077" y="223.896635" style="fill: #0000ff"/>
    </g>
    <g clip-path="url(#p5518e43c7b)">
     <use xlink:href="#C0_0_ac3f981377" x="226.8" y="171.108173" style="fill: #0000ff"/>
    </g>
    <g clip-path="url(#p5518e43c7b)">
     <use xlink:href="#C0_0_ac3f981377" x="332.376923" y="197.502404" style="fill: #0000ff"/>
    </g>
    <g clip-path="url(#p5518e43c7b)">
     <use xlink:href="#C0_0_ac3f981377" x="174.011538" y="91.925481" style="fill: #0000ff"/>
    </g>
    <g clip-path="url(#p5518e43c7b)">
     <use xlink:href="#C0_0_ac3f981377" x="68.434615" y="91.925481" style="fill: #0000ff"/>
    </g>
    <g clip-path="url(#p5518e43c7b)">
     <use xlink:href="#C0_0_ac3f981377" x="213.602885" y="237.09375" style="fill: #0000ff"/>
    </g>
    <g clip-path="url(#p5518e43c7b)">
     <use xlink:href="#C0_0_ac3f981377" x="42.040385" y="91.925481" style="fill: #0000ff"/>
    </g>
    <g clip-path="url(#p5518e43c7b)">
     <use xlink:href="#C0_0_ac3f981377" x="187.208654" y="237.09375" style="fill: #0000ff"/>
    </g>
    <g clip-path="url(#p5518e43c7b)">
     <use xlink:href="#C0_0_ac3f981377" x="160.814423" y="52.334135" style="fill: #0000ff"/>
    </g>
    <g clip-path="url(#p5518e43c7b)">
     <use xlink:href="#C0_0_ac3f981377" x="187.208654" y="131.516827" style="fill: #0000ff"/>
    </g>
    <g clip-path="url(#p5518e43c7b)">
     <use xlink:href="#C0_0_ac3f981377" x="345.574038" y="184.305288" style="fill: #0000ff"/>
    </g>
    <g clip-path="url(#p5518e43c7b)">
     <use xlink:href="#C0_0_ac3f981377" x="266.391346" y="184.305288" style="fill: #0000ff"/>
    </g>
    <g clip-path="url(#p5518e43c7b)">
     <use xlink:href="#C0_0_ac3f981377" x="279.588462" y="171.108173" style="fill: #0000ff"/>
    </g>
    <g clip-path="url(#p5518e43c7b)">
     <use xlink:href="#C0_0_ac3f981377" x="147.617308" y="223.896635" style="fill: #0000ff"/>
    </g>
    <g clip-path="url(#p5518e43c7b)">
     <use xlink:href="#C0_0_ac3f981377" x="398.3625" y="105.122596" style="fill: #0000ff"/>
    </g>
    <g clip-path="url(#p5518e43c7b)">
     <use xlink:href="#C0_0_ac3f981377" x="94.828846" y="91.925481" style="fill: #0000ff"/>
    </g>
    <g clip-path="url(#p5518e43c7b)">
     <use xlink:href="#C0_0_ac3f981377" x="239.997115" y="237.09375" style="fill: #0000ff"/>
    </g>
    <g clip-path="url(#p5518e43c7b)">
     <use xlink:href="#C0_0_ac3f981377" x="134.420192" y="263.487981" style="fill: #0000ff"/>
    </g>
    <g clip-path="url(#p5518e43c7b)">
     <use xlink:href="#C0_0_ac3f981377" x="292.785577" y="131.516827" style="fill: #0000ff"/>
    </g>
    <g clip-path="url(#p5518e43c7b)">
     <use xlink:href="#C0_0_ac3f981377" x="213.602885" y="131.516827" style="fill: #0000ff"/>
    </g>
    <g clip-path="url(#p5518e43c7b)">
     <use xlink:href="#C0_0_ac3f981377" x="213.602885" y="52.334135" style="fill: #0000ff"/>
    </g>
    <g clip-path="url(#p5518e43c7b)">
     <use xlink:href="#C0_0_ac3f981377" x="226.8" y="91.925481" style="fill: #0000ff"/>
    </g>
    <g clip-path="url(#p5518e43c7b)">
     <use xlink:href="#C0_0_ac3f981377" x="108.025962" y="210.699519" style="fill: #0000ff"/>
    </g>
    <g clip-path="url(#p5518e43c7b)">
     <use xlink:href="#C0_0_ac3f981377" x="398.3625" y="184.305288" style="fill: #0000ff"/>
    </g>
    <g clip-path="url(#p5518e43c7b)">
     <use xlink:href="#C0_0_ac3f981377" x="81.631731" y="131.516827" style="fill: #0000ff"/>
    </g>
    <g clip-path="url(#p5518e43c7b)">
     <use xlink:href="#C0_0_ac3f981377" x="385.165385" y="144.713942" style="fill: #0000ff"/>
    </g>
    <g clip-path="url(#p5518e43c7b)">
     <use xlink:href="#C0_0_ac3f981377" x="187.208654" y="52.334135" style="fill: #0000ff"/>
    </g>
    <g clip-path="url(#p5518e43c7b)">
     <use xlink:href="#C0_0_ac3f981377" x="187.208654" y="184.305288" style="fill: #0000ff"/>
    </g>
    <g clip-path="url(#p5518e43c7b)">
     <use xlink:href="#C0_0_ac3f981377" x="305.982692" y="223.896635" style="fill: #0000ff"/>
    </g>
    <g clip-path="url(#p5518e43c7b)">
     <use xlink:href="#C0_0_ac3f981377" x="108.025962" y="157.911058" style="fill: #0000ff"/>
    </g>
    <g clip-path="url(#p5518e43c7b)">
     <use xlink:href="#C0_0_ac3f981377" x="187.208654" y="263.487981" style="fill: #0000ff"/>
    </g>
    <g clip-path="url(#p5518e43c7b)">
     <use xlink:href="#C0_0_ac3f981377" x="345.574038" y="131.516827" style="fill: #0000ff"/>
    </g>
    <g clip-path="url(#p5518e43c7b)">
     <use xlink:href="#C0_0_ac3f981377" x="319.179808" y="131.516827" style="fill: #0000ff"/>
    </g>
    <g clip-path="url(#p5518e43c7b)">
     <use xlink:href="#C0_0_ac3f981377" x="332.376923" y="91.925481" style="fill: #0000ff"/>
    </g>
    <g clip-path="url(#p5518e43c7b)">
     <use xlink:href="#C0_0_ac3f981377" x="134.420192" y="131.516827" style="fill: #0000ff"/>
    </g>
    <g clip-path="url(#p5518e43c7b)">
     <use xlink:href="#C0_0_ac3f981377" x="411.559615" y="144.713942" style="fill: #0000ff"/>
    </g>
    <g clip-path="url(#p5518e43c7b)">
     <use xlink:href="#C0_0_ac3f981377" x="55.2375" y="105.122596" style="fill: #0000ff"/>
    </g>
    <g clip-path="url(#p5518e43c7b)">
     <use xlink:href="#C0_0_ac3f981377" x="147.617308" y="118.319712" style="fill: #0000ff"/>
    </g>
    <g clip-path="url(#p5518e43c7b)">
     <use xlink:href="#C0_0_ac3f981377" x="371.968269" y="131.516827" style="fill: #0000ff"/>
    </g>
    <g clip-path="url(#p5518e43c7b)">
     <use xlink:href="#C0_0_ac3f981377" x="121.223077" y="118.319712" style="fill: #0000ff"/>
    </g>
    <g clip-path="url(#p5518e43c7b)">
     <use xlink:href="#C0_0_ac3f981377" x="358.771154" y="91.925481" style="fill: #0000ff"/>
    </g>
    <g clip-path="url(#p5518e43c7b)">
     <use xlink:href="#C0_0_ac3f981377" x="121.223077" y="250.290865" style="fill: #0000ff"/>
    </g>
    <g clip-path="url(#p5518e43c7b)">
     <use xlink:href="#C0_0_ac3f981377" x="68.434615" y="250.290865" style="fill: #0000ff"/>
    </g>
    <g clip-path="url(#p5518e43c7b)">
     <use xlink:href="#C0_0_ac3f981377" x="94.828846" y="65.53125" style="fill: #0000ff"/>
    </g>
    <g clip-path="url(#p5518e43c7b)">
     <use xlink:href="#C0_0_ac3f981377" x="239.997115" y="210.699519" style="fill: #0000ff"/>
    </g>
    <g clip-path="url(#p5518e43c7b)">
     <use xlink:href="#C0_0_ac3f981377" x="68.434615" y="65.53125" style="fill: #0000ff"/>
    </g>
    <g clip-path="url(#p5518e43c7b)">
     <use xlink:href="#C0_0_ac3f981377" x="174.011538" y="118.319712" style="fill: #0000ff"/>
    </g>
    <g clip-path="url(#p5518e43c7b)">
     <use xlink:href="#C0_0_ac3f981377" x="187.208654" y="78.728365" style="fill: #0000ff"/>
    </g>
    <g clip-path="url(#p5518e43c7b)">
     <use xlink:href="#C0_0_ac3f981377" x="68.434615" y="197.502404" style="fill: #0000ff"/>
    </g>
    <g clip-path="url(#p5518e43c7b)">
     <use xlink:href="#C0_0_ac3f981377" x="81.631731" y="237.09375" style="fill: #0000ff"/>
    </g>
    <g clip-path="url(#p5518e43c7b)">
     <use xlink:href="#C0_0_ac3f981377" x="174.011538" y="250.290865" style="fill: #0000ff"/>
    </g>
    <g clip-path="url(#p5518e43c7b)">
     <use xlink:href="#C0_0_ac3f981377" x="187.208654" y="157.911058" style="fill: #0000ff"/>
    </g>
    <g clip-path="url(#p5518e43c7b)">
     <use xlink:href="#C0_0_ac3f981377" x="398.3625" y="131.516827" style="fill: #0000ff"/>
    </g>
    <g clip-path="url(#p5518e43c7b)">
     <use xlink:href="#C0_0_ac3f981377" x="121.223077" y="65.53125" style="fill: #0000ff"/>
    </g>
    <g clip-path="url(#p5518e43c7b)">
     <use xlink:href="#C0_0_ac3f981377" x="266.391346" y="210.699519" style="fill: #0000ff"/>
    </g>
    <g clip-path="url(#p5518e43c7b)">
     <use xlink:href="#C0_0_ac3f981377" x="134.420192" y="25.939904" style="fill: #0000ff"/>
    </g>
    <g clip-path="url(#p5518e43c7b)">
     <use xlink:href="#C0_0_ac3f981377" x="305.982692" y="197.502404" style="fill: #0000ff"/>
    </g>
    <g clip-path="url(#p5518e43c7b)">
     <use xlink:href="#C0_0_ac3f981377" x="213.602885" y="78.728365" style="fill: #0000ff"/>
    </g>
    <g clip-path="url(#p5518e43c7b)">
     <use xlink:href="#C0_0_ac3f981377" x="424.756731" y="157.911058" style="fill: #0000ff"/>
    </g>
    <g clip-path="url(#p5518e43c7b)">
     <use xlink:href="#C0_0_ac3f981377" x="213.602885" y="157.911058" style="fill: #0000ff"/>
    </g>
    <g clip-path="url(#p5518e43c7b)">
     <use xlink:href="#C0_0_ac3f981377" x="160.814423" y="157.911058" style="fill: #0000ff"/>
    </g>
    <g clip-path="url(#p5518e43c7b)">
     <use xlink:href="#C0_0_ac3f981377" x="174.011538" y="65.53125" style="fill: #0000ff"/>
    </g>
    <g clip-path="url(#p5518e43c7b)">
     <use xlink:href="#C0_0_ac3f981377" x="319.179808" y="210.699519" style="fill: #0000ff"/>
    </g>
    <g clip-path="url(#p5518e43c7b)">
     <use xlink:href="#C0_0_ac3f981377" x="160.814423" y="25.939904" style="fill: #0000ff"/>
    </g>
    <g clip-path="url(#p5518e43c7b)">
     <use xlink:href="#C0_0_ac3f981377" x="68.434615" y="171.108173" style="fill: #0000ff"/>
    </g>
    <g clip-path="url(#p5518e43c7b)">
     <use xlink:href="#C0_0_ac3f981377" x="358.771154" y="197.502404" style="fill: #0000ff"/>
    </g>
    <g clip-path="url(#p5518e43c7b)">
     <use xlink:href="#C0_0_ac3f981377" x="108.025962" y="184.305288" style="fill: #0000ff"/>
    </g>
    <g clip-path="url(#p5518e43c7b)">
     <use xlink:href="#C0_0_ac3f981377" x="42.040385" y="171.108173" style="fill: #0000ff"/>
    </g>
    <g clip-path="url(#p5518e43c7b)">
     <use xlink:href="#C0_0_ac3f981377" x="371.968269" y="105.122596" style="fill: #0000ff"/>
    </g>
    <g clip-path="url(#p5518e43c7b)">
     <use xlink:href="#C0_0_ac3f981377" x="266.391346" y="78.728365" style="fill: #0000ff"/>
    </g>
    <g clip-path="url(#p5518e43c7b)">
     <use xlink:href="#C0_0_ac3f981377" x="147.617308" y="197.502404" style="fill: #0000ff"/>
    </g>
    <g clip-path="url(#p5518e43c7b)">
     <use xlink:href="#C0_0_ac3f981377" x="160.814423" y="105.122596" style="fill: #0000ff"/>
    </g>
    <g clip-path="url(#p5518e43c7b)">
     <use xlink:href="#C0_0_ac3f981377" x="28.843269" y="237.09375" style="fill: #0000ff"/>
    </g>
    <g clip-path="url(#p5518e43c7b)">
     <use xlink:href="#C0_0_ac3f981377" x="266.391346" y="157.911058" style="fill: #0000ff"/>
    </g>
    <g clip-path="url(#p5518e43c7b)">
     <use xlink:href="#C0_0_ac3f981377" x="253.194231" y="118.319712" style="fill: #0000ff"/>
    </g>
    <g clip-path="url(#p5518e43c7b)">
     <use xlink:href="#C0_0_ac3f981377" x="55.2375" y="131.516827" style="fill: #0000ff"/>
    </g>
    <g clip-path="url(#p5518e43c7b)">
     <use xlink:href="#C0_0_ac3f981377" x="160.814423" y="184.305288" style="fill: #0000ff"/>
    </g>
    <g clip-path="url(#p5518e43c7b)">
     <use xlink:href="#C0_0_ac3f981377" x="147.617308" y="144.713942" style="fill: #0000ff"/>
    </g>
    <g clip-path="url(#p5518e43c7b)">
     <use xlink:href="#C0_0_ac3f981377" x="160.814423" y="263.487981" style="fill: #0000ff"/>
    </g>
    <g clip-path="url(#p5518e43c7b)">
     <use xlink:href="#C0_0_ac3f981377" x="174.011538" y="223.896635" style="fill: #0000ff"/>
    </g>
    <g clip-path="url(#p5518e43c7b)">
     <use xlink:href="#C0_0_ac3f981377" x="94.828846" y="223.896635" style="fill: #0000ff"/>
    </g>
    <g clip-path="url(#p5518e43c7b)">
     <use xlink:href="#C0_0_ac3f981377" x="385.165385" y="197.502404" style="fill: #0000ff"/>
    </g>
    <g clip-path="url(#p5518e43c7b)">
     <use xlink:href="#C0_0_ac3f981377" x="305.982692" y="118.319712" style="fill: #0000ff"/>
    </g>
    <g clip-path="url(#p5518e43c7b)">
     <use xlink:href="#C0_0_ac3f981377" x="108.025962" y="131.516827" style="fill: #0000ff"/>
    </g>
    <g clip-path="url(#p5518e43c7b)">
     <use xlink:href="#C0_0_ac3f981377" x="121.223077" y="91.925481" style="fill: #0000ff"/>
    </g>
    <g clip-path="url(#p5518e43c7b)">
     <use xlink:href="#C0_0_ac3f981377" x="200.405769" y="144.713942" style="fill: #0000ff"/>
    </g>
    <g clip-path="url(#p5518e43c7b)">
     <use xlink:href="#C0_0_ac3f981377" x="134.420192" y="52.334135" style="fill: #0000ff"/>
    </g>
    <g clip-path="url(#p5518e43c7b)">
     <use xlink:href="#C0_0_ac3f981377" x="213.602885" y="263.487981" style="fill: #0000ff"/>
    </g>
    <g clip-path="url(#p5518e43c7b)">
     <use xlink:href="#C0_0_ac3f981377" x="332.376923" y="171.108173" style="fill: #0000ff"/>
    </g>
    <g clip-path="url(#p5518e43c7b)">
     <use xlink:href="#C0_0_ac3f981377" x="200.405769" y="223.896635" style="fill: #0000ff"/>
    </g>
    <g clip-path="url(#p5518e43c7b)">
     <use xlink:href="#C0_0_ac3f981377" x="305.982692" y="171.108173" style="fill: #0000ff"/>
    </g>
    <g clip-path="url(#p5518e43c7b)">
     <use xlink:href="#C0_0_ac3f981377" x="253.194231" y="171.108173" style="fill: #0000ff"/>
    </g>
    <g clip-path="url(#p5518e43c7b)">
     <use xlink:href="#C0_0_ac3f981377" x="160.814423" y="131.516827" style="fill: #0000ff"/>
    </g>
    <g clip-path="url(#p5518e43c7b)">
     <use xlink:href="#C0_0_ac3f981377" x="174.011538" y="39.137019" style="fill: #0000ff"/>
    </g>
    <g clip-path="url(#p5518e43c7b)">
     <use xlink:href="#C0_0_ac3f981377" x="147.617308" y="91.925481" style="fill: #0000ff"/>
    </g>
    <g clip-path="url(#p5518e43c7b)">
     <use xlink:href="#C0_0_ac3f981377" x="292.785577" y="237.09375" style="fill: #0000ff"/>
    </g>
    <g clip-path="url(#p5518e43c7b)">
     <use xlink:href="#C0_0_ac3f981377" x="147.617308" y="39.137019" style="fill: #0000ff"/>
    </g>
    <g clip-path="url(#p5518e43c7b)">
     <use xlink:href="#C0_0_ac3f981377" x="94.828846" y="250.290865" style="fill: #0000ff"/>
    </g>
    <g clip-path="url(#p5518e43c7b)">
     <use xlink:href="#C0_0_ac3f981377" x="253.194231" y="144.713942" style="fill: #0000ff"/>
    </g>
    <g clip-path="url(#p5518e43c7b)">
     <use xlink:href="#C0_0_ac3f981377" x="239.997115" y="52.334135" style="fill: #0000ff"/>
    </g>
    <g clip-path="url(#p5518e43c7b)">
     <use xlink:href="#C0_0_ac3f981377" x="385.165385" y="171.108173" style="fill: #0000ff"/>
    </g>
    <g clip-path="url(#p5518e43c7b)">
     <use xlink:href="#C0_0_ac3f981377" x="253.194231" y="223.896635" style="fill: #0000ff"/>
    </g>
    <g clip-path="url(#p5518e43c7b)">
     <use xlink:href="#C0_0_ac3f981377" x="358.771154" y="171.108173" style="fill: #0000ff"/>
    </g>
    <g clip-path="url(#p5518e43c7b)">
     <use xlink:href="#C0_0_ac3f981377" x="226.8" y="223.896635" style="fill: #0000ff"/>
    </g>
    <g clip-path="url(#p5518e43c7b)">
     <use xlink:href="#C0_0_ac3f981377" x="239.997115" y="184.305288" style="fill: #0000ff"/>
    </g>
    <g clip-path="url(#p5518e43c7b)">
     <use xlink:href="#C0_0_ac3f981377" x="42.040385" y="197.502404" style="fill: #0000ff"/>
    </g>
    <g clip-path="url(#p5518e43c7b)">
     <use xlink:href="#C0_0_ac3f981377" x="200.405769" y="91.925481" style="fill: #0000ff"/>
    </g>
    <g clip-path="url(#p5518e43c7b)">
     <use xlink:href="#C0_0_ac3f981377" x="200.405769" y="39.137019" style="fill: #0000ff"/>
    </g>
    <g clip-path="url(#p5518e43c7b)">
     <use xlink:href="#C0_0_ac3f981377" x="147.617308" y="250.290865" style="fill: #0000ff"/>
    </g>
    <g clip-path="url(#p5518e43c7b)">
     <use xlink:href="#C0_0_ac3f981377" x="200.405769" y="118.319712" style="fill: #0000ff"/>
    </g>
    <g clip-path="url(#p5518e43c7b)">
     <use xlink:href="#C0_0_ac3f981377" x="55.2375" y="210.699519" style="fill: #0000ff"/>
    </g>
    <g clip-path="url(#p5518e43c7b)">
     <use xlink:href="#C0_0_ac3f981377" x="411.559615" y="171.108173" style="fill: #0000ff"/>
    </g>
    <g clip-path="url(#p5518e43c7b)">
     <use xlink:href="#C0_0_ac3f981377" x="28.843269" y="210.699519" style="fill: #0000ff"/>
    </g>
    <g clip-path="url(#p5518e43c7b)">
     <use xlink:href="#C0_0_ac3f981377" x="292.785577" y="184.305288" style="fill: #0000ff"/>
    </g>
    <g clip-path="url(#p5518e43c7b)">
     <use xlink:href="#C0_0_ac3f981377" x="94.828846" y="197.502404" style="fill: #0000ff"/>
    </g>
    <g clip-path="url(#p5518e43c7b)">
     <use xlink:href="#C0_0_ac3f981377" x="424.756731" y="131.516827" style="fill: #0000ff"/>
    </g>
    <g clip-path="url(#p5518e43c7b)">
     <use xlink:href="#C0_0_ac3f981377" x="81.631731" y="210.699519" style="fill: #0000ff"/>
    </g>
    <g clip-path="url(#p5518e43c7b)">
     <use xlink:href="#C0_0_ac3f981377" x="134.420192" y="105.122596" style="fill: #0000ff"/>
    </g>
    <g clip-path="url(#p5518e43c7b)">
     <use xlink:href="#C0_0_ac3f981377" x="28.843269" y="78.728365" style="fill: #0000ff"/>
    </g>
    <g clip-path="url(#p5518e43c7b)">
     <use xlink:href="#C0_0_ac3f981377" x="226.8" y="118.319712" style="fill: #0000ff"/>
    </g>
    <g clip-path="url(#p5518e43c7b)">
     <use xlink:href="#C0_0_ac3f981377" x="55.2375" y="157.911058" style="fill: #0000ff"/>
    </g>
    <g clip-path="url(#p5518e43c7b)">
     <use xlink:href="#C0_0_ac3f981377" x="28.843269" y="157.911058" style="fill: #0000ff"/>
    </g>
    <g clip-path="url(#p5518e43c7b)">
     <use xlink:href="#C0_0_ac3f981377" x="266.391346" y="131.516827" style="fill: #0000ff"/>
    </g>
    <g clip-path="url(#p5518e43c7b)">
     <use xlink:href="#C0_0_ac3f981377" x="226.8" y="250.290865" style="fill: #0000ff"/>
    </g>
    <g clip-path="url(#p5518e43c7b)">
     <use xlink:href="#C0_0_ac3f981377" x="174.011538" y="144.713942" style="fill: #0000ff"/>
    </g>
    <g clip-path="url(#p5518e43c7b)">
     <use xlink:href="#C0_0_ac3f981377" x="200.405769" y="250.290865" style="fill: #0000ff"/>
    </g>
    <g clip-path="url(#p5518e43c7b)">
     <use xlink:href="#C0_0_ac3f981377" x="358.771154" y="144.713942" style="fill: #0000ff"/>
    </g>
    <g clip-path="url(#p5518e43c7b)">
     <use xlink:href="#C0_0_ac3f981377" x="279.588462" y="118.319712" style="fill: #0000ff"/>
    </g>
    <g clip-path="url(#p5518e43c7b)">
     <use xlink:href="#C0_0_ac3f981377" x="279.588462" y="197.502404" style="fill: #0000ff"/>
    </g>
    <g clip-path="url(#p5518e43c7b)">
     <use xlink:href="#C0_0_ac3f981377" x="68.434615" y="118.319712" style="fill: #0000ff"/>
    </g>
    <g clip-path="url(#p5518e43c7b)">
     <use xlink:href="#C0_0_ac3f981377" x="253.194231" y="250.290865" style="fill: #0000ff"/>
    </g>
    <g clip-path="url(#p5518e43c7b)">
     <use xlink:href="#C0_0_ac3f981377" x="226.8" y="65.53125" style="fill: #0000ff"/>
    </g>
    <g clip-path="url(#p5518e43c7b)">
     <use xlink:href="#C0_0_ac3f981377" x="371.968269" y="210.699519" style="fill: #0000ff"/>
    </g>
    <g clip-path="url(#p5518e43c7b)">
     <use xlink:href="#C0_0_ac3f981377" x="292.785577" y="210.699519" style="fill: #0000ff"/>
    </g>
    <g clip-path="url(#p5518e43c7b)">
     <use xlink:href="#C0_0_ac3f981377" x="345.574038" y="210.699519" style="fill: #0000ff"/>
    </g>
    <g clip-path="url(#p5518e43c7b)">
     <use xlink:href="#C0_0_ac3f981377" x="200.405769" y="65.53125" style="fill: #0000ff"/>
    </g>
    <g clip-path="url(#p5518e43c7b)">
     <use xlink:href="#C0_0_ac3f981377" x="147.617308" y="65.53125" style="fill: #0000ff"/>
    </g>
    <g clip-path="url(#p5518e43c7b)">
     <use xlink:href="#C0_0_ac3f981377" x="411.559615" y="197.502404" style="fill: #0000ff"/>
    </g>
    <g clip-path="url(#p5518e43c7b)">
     <use xlink:href="#C0_0_ac3f981377" x="94.828846" y="171.108173" style="fill: #0000ff"/>
    </g>
    <g clip-path="url(#p5518e43c7b)">
     <use xlink:href="#C0_0_ac3f981377" x="319.179808" y="78.728365" style="fill: #0000ff"/>
    </g>
    <g clip-path="url(#p5518e43c7b)">
     <use xlink:href="#C0_0_ac3f981377" x="292.785577" y="78.728365" style="fill: #0000ff"/>
    </g>
    <g clip-path="url(#p5518e43c7b)">
     <use xlink:href="#C0_0_ac3f981377" x="266.391346" y="237.09375" style="fill: #0000ff"/>
    </g>
    <g clip-path="url(#p5518e43c7b)">
     <use xlink:href="#C0_0_ac3f981377" x="200.405769" y="197.502404" style="fill: #0000ff"/>
    </g>
    <g clip-path="url(#p5518e43c7b)">
     <use xlink:href="#C0_0_ac3f981377" x="55.2375" y="237.09375" style="fill: #0000ff"/>
    </g>
    <g clip-path="url(#p5518e43c7b)">
     <use xlink:href="#C0_0_ac3f981377" x="319.179808" y="157.911058" style="fill: #0000ff"/>
    </g>
    <g clip-path="url(#p5518e43c7b)">
     <use xlink:href="#C0_0_ac3f981377" x="292.785577" y="157.911058" style="fill: #0000ff"/>
    </g>
    <g clip-path="url(#p5518e43c7b)">
     <use xlink:href="#C0_0_ac3f981377" x="279.588462" y="65.53125" style="fill: #0000ff"/>
    </g>
    <g clip-path="url(#p5518e43c7b)">
     <use xlink:href="#C0_0_ac3f981377" x="213.602885" y="184.305288" style="fill: #0000ff"/>
    </g>
    <g clip-path="url(#p5518e43c7b)">
     <use xlink:href="#C0_0_ac3f981377" x="134.420192" y="184.305288" style="fill: #0000ff"/>
    </g>
    <g clip-path="url(#p5518e43c7b)">
     <use xlink:href="#C0_0_ac3f981377" x="121.223077" y="171.108173" style="fill: #0000ff"/>
    </g>
    <g clip-path="url(#p5518e43c7b)">
     <use xlink:href="#C0_0_ac3f981377" x="253.194231" y="197.502404" style="fill: #0000ff"/>
    </g>
    <g clip-path="url(#p5518e43c7b)">
     <use xlink:href="#C0_0_ac3f981377" x="108.025962" y="237.09375" style="fill: #0000ff"/>
    </g>
    <g clip-path="url(#p5518e43c7b)">
     <use xlink:href="#C0_0_ac3f981377" x="371.968269" y="157.911058" style="fill: #0000ff"/>
    </g>
    <g clip-path="url(#p5518e43c7b)">
     <use xlink:href="#C0_0_ac3f981377" x="345.574038" y="157.911058" style="fill: #0000ff"/>
    </g>
    <g clip-path="url(#p5518e43c7b)">
     <use xlink:href="#C0_0_ac3f981377" x="81.631731" y="52.334135" style="fill: #0000ff"/>
    </g>
    <g clip-path="url(#p5518e43c7b)">
     <use xlink:href="#C0_0_ac3f981377" x="55.2375" y="52.334135" style="fill: #0000ff"/>
    </g>
    <g clip-path="url(#p5518e43c7b)">
     <use xlink:href="#C0_0_ac3f981377" x="174.011538" y="171.108173" style="fill: #0000ff"/>
    </g>
    <g clip-path="url(#p5518e43c7b)">
     <use xlink:href="#C0_0_ac3f981377" x="42.040385" y="223.896635" style="fill: #0000ff"/>
    </g>
    <g clip-path="url(#p5518e43c7b)">
     <use xlink:href="#C0_0_ac3f981377" x="292.785577" y="105.122596" style="fill: #0000ff"/>
    </g>
   </g>
   <g id="patch_3">
    <path d="M 147.617308 237.09375 
L 134.420192 223.896635 
L 121.223077 237.09375 
L 134.420192 250.290865 
L 147.617308 237.09375 
z
" clip-path="url(#p5518e43c7b)" style="fill: none; stroke: #0000ff; stroke-linejoin: miter"/>
   </g>
   <g id="patch_4">
    <path d="M 398.3625 118.319712 
L 385.165385 105.122596 
L 371.968269 118.319712 
L 385.165385 131.516827 
L 398.3625 118.319712 
z
" clip-path="url(#p5518e43c7b)" style="fill: none; stroke: #0000ff; stroke-linejoin: miter"/>
   </g>
   <g id="patch_5">
    <path d="M 121.223077 52.334135 
L 108.025962 39.137019 
L 94.828846 52.334135 
L 108.025962 65.53125 
L 121.223077 52.334135 
z
" clip-path="url(#p5518e43c7b)" style="fill: none; stroke: #0000ff; stroke-linejoin: miter"/>
   </g>
   <g id="patch_6">
    <path d="M 134.420192 39.137019 
L 121.223077 25.939904 
L 108.025962 39.137019 
L 121.223077 52.334135 
L 134.420192 39.137019 
z
" clip-path="url(#p5518e43c7b)" style="fill: none; stroke: #0000ff; stroke-linejoin: miter"/>
   </g>
   <g id="patch_7">
    <path d="M 319.179808 144.713942 
L 305.982692 131.516827 
L 292.785577 144.713942 
L 305.982692 157.911058 
L 319.179808 144.713942 
z
" clip-path="url(#p5518e43c7b)" style="fill: none; stroke: #0000ff; stroke-linejoin: miter"/>
   </g>
   <g id="patch_8">
    <path d="M 239.997115 144.713942 
L 226.8 131.516827 
L 213.602885 144.713942 
L 226.8 157.911058 
L 239.997115 144.713942 
z
" clip-path="url(#p5518e43c7b)" style="fill: none; stroke: #0000ff; stroke-linejoin: miter"/>
   </g>
   <g id="patch_9">
    <path d="M 292.785577 144.713942 
L 279.588462 131.516827 
L 266.391346 144.713942 
L 279.588462 157.911058 
L 292.785577 144.713942 
z
" clip-path="url(#p5518e43c7b)" style="fill: none; stroke: #0000ff; stroke-linejoin: miter"/>
   </g>
   <g id="patch_10">
    <path d="M 358.771154 105.122596 
L 345.574038 91.925481 
L 332.376923 105.122596 
L 345.574038 118.319712 
L 358.771154 105.122596 
z
" clip-path="url(#p5518e43c7b)" style="fill: none; stroke: #0000ff; stroke-linejoin: miter"/>
   </g>
   <g id="patch_11">
    <path d="M 292.785577 223.896635 
L 279.588462 210.699519 
L 266.391346 223.896635 
L 279.588462 237.09375 
L 292.785577 223.896635 
z
" clip-path="url(#p5518e43c7b)" style="fill: none; stroke: #0000ff; stroke-linejoin: miter"/>
   </g>
   <g id="patch_12">
    <path d="M 121.223077 263.487981 
L 108.025962 250.290865 
L 94.828846 263.487981 
L 108.025962 276.685096 
L 121.223077 263.487981 
z
" clip-path="url(#p5518e43c7b)" style="fill: none; stroke: #0000ff; stroke-linejoin: miter"/>
   </g>
   <g id="patch_13">
    <path d="M 253.194231 131.516827 
L 239.997115 118.319712 
L 226.8 131.516827 
L 239.997115 144.713942 
L 253.194231 131.516827 
z
" clip-path="url(#p5518e43c7b)" style="fill: none; stroke: #0000ff; stroke-linejoin: miter"/>
   </g>
   <g id="patch_14">
    <path d="M 266.391346 91.925481 
L 253.194231 78.728365 
L 239.997115 91.925481 
L 253.194231 105.122596 
L 266.391346 91.925481 
z
" clip-path="url(#p5518e43c7b)" style="fill: none; stroke: #0000ff; stroke-linejoin: miter"/>
   </g>
   <g id="patch_15">
    <path d="M 345.574038 144.713942 
L 332.376923 131.516827 
L 319.179808 144.713942 
L 332.376923 157.911058 
L 345.574038 144.713942 
z
" clip-path="url(#p5518e43c7b)" style="fill: none; stroke: #0000ff; stroke-linejoin: miter"/>
   </g>
   <g id="patch_16">
    <path d="M 345.574038 223.896635 
L 332.376923 210.699519 
L 319.179808 223.896635 
L 332.376923 237.09375 
L 345.574038 223.896635 
z
" clip-path="url(#p5518e43c7b)" style="fill: none; stroke: #0000ff; stroke-linejoin: miter"/>
   </g>
   <g id="patch_17">
    <path d="M 332.376923 184.305288 
L 319.179808 171.108173 
L 305.982692 184.305288 
L 319.179808 197.502404 
L 332.376923 184.305288 
z
" clip-path="url(#p5518e43c7b)" style="fill: none; stroke: #0000ff; stroke-linejoin: miter"/>
   </g>
   <g id="patch_18">
    <path d="M 174.011538 78.728365 
L 160.814423 65.53125 
L 147.617308 78.728365 
L 160.814423 91.925481 
L 174.011538 78.728365 
z
" clip-path="url(#p5518e43c7b)" style="fill: none; stroke: #0000ff; stroke-linejoin: miter"/>
   </g>
   <g id="patch_19">
    <path d="M 55.2375 118.319712 
L 42.040385 105.122596 
L 28.843269 118.319712 
L 42.040385 131.516827 
L 55.2375 118.319712 
z
" clip-path="url(#p5518e43c7b)" style="fill: none; stroke: #0000ff; stroke-linejoin: miter"/>
   </g>
   <g id="patch_20">
    <path d="M 68.434615 78.728365 
L 55.2375 65.53125 
L 42.040385 78.728365 
L 55.2375 91.925481 
L 68.434615 78.728365 
z
" clip-path="url(#p5518e43c7b)" style="fill: none; stroke: #0000ff; stroke-linejoin: miter"/>
   </g>
   <g id="patch_21">
    <path d="M 292.785577 91.925481 
L 279.588462 78.728365 
L 266.391346 91.925481 
L 279.588462 105.122596 
L 292.785577 91.925481 
z
" clip-path="url(#p5518e43c7b)" style="fill: none; stroke: #0000ff; stroke-linejoin: miter"/>
   </g>
   <g id="patch_22">
    <path d="M 108.025962 39.137019 
L 94.828846 25.939904 
L 81.631731 39.137019 
L 94.828846 52.334135 
L 108.025962 39.137019 
z
" clip-path="url(#p5518e43c7b)" style="fill: none; stroke: #0000ff; stroke-linejoin: miter"/>
   </g>
   <g id="patch_23">
    <path d="M 55.2375 250.290865 
L 42.040385 237.09375 
L 28.843269 250.290865 
L 42.040385 263.487981 
L 55.2375 250.290865 
z
" clip-path="url(#p5518e43c7b)" style="fill: none; stroke: #0000ff; stroke-linejoin: miter"/>
   </g>
   <g id="patch_24">
    <path d="M 147.617308 210.699519 
L 134.420192 197.502404 
L 121.223077 210.699519 
L 134.420192 223.896635 
L 147.617308 210.699519 
z
" clip-path="url(#p5518e43c7b)" style="fill: none; stroke: #0000ff; stroke-linejoin: miter"/>
   </g>
   <g id="patch_25">
    <path d="M 385.165385 184.305288 
L 371.968269 171.108173 
L 358.771154 184.305288 
L 371.968269 197.502404 
L 385.165385 184.305288 
z
" clip-path="url(#p5518e43c7b)" style="fill: none; stroke: #0000ff; stroke-linejoin: miter"/>
   </g>
   <g id="patch_26">
    <path d="M 253.194231 78.728365 
L 239.997115 65.53125 
L 226.8 78.728365 
L 239.997115 91.925481 
L 253.194231 78.728365 
z
" clip-path="url(#p5518e43c7b)" style="fill: none; stroke: #0000ff; stroke-linejoin: miter"/>
   </g>
   <g id="patch_27">
    <path d="M 108.025962 118.319712 
L 94.828846 105.122596 
L 81.631731 118.319712 
L 94.828846 131.516827 
L 108.025962 118.319712 
z
" clip-path="url(#p5518e43c7b)" style="fill: none; stroke: #0000ff; stroke-linejoin: miter"/>
   </g>
   <g id="patch_28">
    <path d="M 187.208654 197.502404 
L 174.011538 184.305288 
L 160.814423 197.502404 
L 174.011538 210.699519 
L 187.208654 197.502404 
z
" clip-path="url(#p5518e43c7b)" style="fill: none; stroke: #0000ff; stroke-linejoin: miter"/>
   </g>
   <g id="patch_29">
    <path d="M 134.420192 197.502404 
L 121.223077 184.305288 
L 108.025962 197.502404 
L 121.223077 210.699519 
L 134.420192 197.502404 
z
" clip-path="url(#p5518e43c7b)" style="fill: none; stroke: #0000ff; stroke-linejoin: miter"/>
   </g>
   <g id="patch_30">
    <path d="M 94.828846 78.728365 
L 81.631731 65.53125 
L 68.434615 78.728365 
L 81.631731 91.925481 
L 94.828846 78.728365 
z
" clip-path="url(#p5518e43c7b)" style="fill: none; stroke: #0000ff; stroke-linejoin: miter"/>
   </g>
   <g id="patch_31">
    <path d="M 319.179808 91.925481 
L 305.982692 78.728365 
L 292.785577 91.925481 
L 305.982692 105.122596 
L 319.179808 91.925481 
z
" clip-path="url(#p5518e43c7b)" style="fill: none; stroke: #0000ff; stroke-linejoin: miter"/>
   </g>
   <g id="patch_32">
    <path d="M 94.828846 157.911058 
L 81.631731 144.713942 
L 68.434615 157.911058 
L 81.631731 171.108173 
L 94.828846 157.911058 
z
" clip-path="url(#p5518e43c7b)" style="fill: none; stroke: #0000ff; stroke-linejoin: miter"/>
   </g>
   <g id="patch_33">
    <path d="M 55.2375 65.53125 
L 42.040385 52.334135 
L 28.843269 65.53125 
L 42.040385 78.728365 
L 55.2375 65.53125 
z
" clip-path="url(#p5518e43c7b)" style="fill: none; stroke: #0000ff; stroke-linejoin: miter"/>
   </g>
   <g id="patch_34">
    <path d="M 200.405769 210.699519 
L 187.208654 197.502404 
L 174.011538 210.699519 
L 187.208654 223.896635 
L 200.405769 210.699519 
z
" clip-path="url(#p5518e43c7b)" style="fill: none; stroke: #0000ff; stroke-linejoin: miter"/>
   </g>
   <g id="patch_35">
    <path d="M 174.011538 210.699519 
L 160.814423 197.502404 
L 147.617308 210.699519 
L 160.814423 223.896635 
L 174.011538 210.699519 
z
" clip-path="url(#p5518e43c7b)" style="fill: none; stroke: #0000ff; stroke-linejoin: miter"/>
   </g>
   <g id="patch_36">
    <path d="M 437.953846 184.305288 
L 424.756731 171.108173 
L 411.559615 184.305288 
L 424.756731 197.502404 
L 437.953846 184.305288 
z
" clip-path="url(#p5518e43c7b)" style="fill: none; stroke: #0000ff; stroke-linejoin: miter"/>
   </g>
   <g id="patch_37">
    <path d="M 239.997115 197.502404 
L 226.8 184.305288 
L 213.602885 197.502404 
L 226.8 210.699519 
L 239.997115 197.502404 
z
" clip-path="url(#p5518e43c7b)" style="fill: none; stroke: #0000ff; stroke-linejoin: miter"/>
   </g>
   <g id="patch_38">
    <path d="M 253.194231 105.122596 
L 239.997115 91.925481 
L 226.8 105.122596 
L 239.997115 118.319712 
L 253.194231 105.122596 
z
" clip-path="url(#p5518e43c7b)" style="fill: none; stroke: #0000ff; stroke-linejoin: miter"/>
   </g>
   <g id="patch_39">
    <path d="M 147.617308 78.728365 
L 134.420192 65.53125 
L 121.223077 78.728365 
L 134.420192 91.925481 
L 147.617308 78.728365 
z
" clip-path="url(#p5518e43c7b)" style="fill: none; stroke: #0000ff; stroke-linejoin: miter"/>
   </g>
   <g id="patch_40">
    <path d="M 121.223077 78.728365 
L 108.025962 65.53125 
L 94.828846 78.728365 
L 108.025962 91.925481 
L 121.223077 78.728365 
z
" clip-path="url(#p5518e43c7b)" style="fill: none; stroke: #0000ff; stroke-linejoin: miter"/>
   </g>
   <g id="patch_41">
    <path d="M 42.040385 105.122596 
L 28.843269 91.925481 
L 15.646154 105.122596 
L 28.843269 118.319712 
L 42.040385 105.122596 
z
" clip-path="url(#p5518e43c7b)" style="fill: none; stroke: #0000ff; stroke-linejoin: miter"/>
   </g>
   <g id="patch_42">
    <path d="M 345.574038 118.319712 
L 332.376923 105.122596 
L 319.179808 118.319712 
L 332.376923 131.516827 
L 345.574038 118.319712 
z
" clip-path="url(#p5518e43c7b)" style="fill: none; stroke: #0000ff; stroke-linejoin: miter"/>
   </g>
   <g id="patch_43">
    <path d="M 253.194231 157.911058 
L 239.997115 144.713942 
L 226.8 157.911058 
L 239.997115 171.108173 
L 253.194231 157.911058 
z
" clip-path="url(#p5518e43c7b)" style="fill: none; stroke: #0000ff; stroke-linejoin: miter"/>
   </g>
   <g id="patch_44">
    <path d="M 147.617308 157.911058 
L 134.420192 144.713942 
L 121.223077 157.911058 
L 134.420192 171.108173 
L 147.617308 157.911058 
z
" clip-path="url(#p5518e43c7b)" style="fill: none; stroke: #0000ff; stroke-linejoin: miter"/>
   </g>
   <g id="patch_45">
    <path d="M 226.8 210.699519 
L 213.602885 197.502404 
L 200.405769 210.699519 
L 213.602885 223.896635 
L 226.8 210.699519 
z
" clip-path="url(#p5518e43c7b)" style="fill: none; stroke: #0000ff; stroke-linejoin: miter"/>
   </g>
   <g id="patch_46">
    <path d="M 42.040385 184.305288 
L 28.843269 171.108173 
L 15.646154 184.305288 
L 28.843269 197.502404 
L 42.040385 184.305288 
z
" clip-path="url(#p5518e43c7b)" style="fill: none; stroke: #0000ff; stroke-linejoin: miter"/>
   </g>
   <g id="patch_47">
    <path d="M 279.588462 105.122596 
L 266.391346 91.925481 
L 253.194231 105.122596 
L 266.391346 118.319712 
L 279.588462 105.122596 
z
" clip-path="url(#p5518e43c7b)" style="fill: none; stroke: #0000ff; stroke-linejoin: miter"/>
   </g>
   <g id="patch_48">
    <path d="M 226.8 105.122596 
L 213.602885 91.925481 
L 200.405769 105.122596 
L 213.602885 118.319712 
L 226.8 105.122596 
z
" clip-path="url(#p5518e43c7b)" style="fill: none; stroke: #0000ff; stroke-linejoin: miter"/>
   </g>
   <g id="patch_49">
    <path d="M 200.405769 105.122596 
L 187.208654 91.925481 
L 174.011538 105.122596 
L 187.208654 118.319712 
L 200.405769 105.122596 
z
" clip-path="url(#p5518e43c7b)" style="fill: none; stroke: #0000ff; stroke-linejoin: miter"/>
   </g>
   <g id="patch_50">
    <path d="M 94.828846 105.122596 
L 81.631731 91.925481 
L 68.434615 105.122596 
L 81.631731 118.319712 
L 94.828846 105.122596 
z
" clip-path="url(#p5518e43c7b)" style="fill: none; stroke: #0000ff; stroke-linejoin: miter"/>
   </g>
   <g id="patch_51">
    <path d="M 371.968269 118.319712 
L 358.771154 105.122596 
L 345.574038 118.319712 
L 358.771154 131.516827 
L 371.968269 118.319712 
z
" clip-path="url(#p5518e43c7b)" style="fill: none; stroke: #0000ff; stroke-linejoin: miter"/>
   </g>
   <g id="patch_52">
    <path d="M 134.420192 276.685096 
L 121.223077 263.487981 
L 108.025962 276.685096 
L 121.223077 289.882212 
L 134.420192 276.685096 
z
" clip-path="url(#p5518e43c7b)" style="fill: none; stroke: #0000ff; stroke-linejoin: miter"/>
   </g>
   <g id="patch_53">
    <path d="M 68.434615 184.305288 
L 55.2375 171.108173 
L 42.040385 184.305288 
L 55.2375 197.502404 
L 68.434615 184.305288 
z
" clip-path="url(#p5518e43c7b)" style="fill: none; stroke: #0000ff; stroke-linejoin: miter"/>
   </g>
   <g id="patch_54">
    <path d="M 94.828846 184.305288 
L 81.631731 171.108173 
L 68.434615 184.305288 
L 81.631731 197.502404 
L 94.828846 184.305288 
z
" clip-path="url(#p5518e43c7b)" style="fill: none; stroke: #0000ff; stroke-linejoin: miter"/>
   </g>
   <g id="patch_55">
    <path d="M 81.631731 144.713942 
L 68.434615 131.516827 
L 55.2375 144.713942 
L 68.434615 157.911058 
L 81.631731 144.713942 
z
" clip-path="url(#p5518e43c7b)" style="fill: none; stroke: #0000ff; stroke-linejoin: miter"/>
   </g>
   <g id="patch_56">
    <path d="M 332.376923 105.122596 
L 319.179808 91.925481 
L 305.982692 105.122596 
L 319.179808 118.319712 
L 332.376923 105.122596 
z
" clip-path="url(#p5518e43c7b)" style="fill: none; stroke: #0000ff; stroke-linejoin: miter"/>
   </g>
   <g id="patch_57">
    <path d="M 55.2375 144.713942 
L 42.040385 131.516827 
L 28.843269 144.713942 
L 42.040385 157.911058 
L 55.2375 144.713942 
z
" clip-path="url(#p5518e43c7b)" style="fill: none; stroke: #0000ff; stroke-linejoin: miter"/>
   </g>
   <g id="patch_58">
    <path d="M 266.391346 65.53125 
L 253.194231 52.334135 
L 239.997115 65.53125 
L 253.194231 78.728365 
L 266.391346 65.53125 
z
" clip-path="url(#p5518e43c7b)" style="fill: none; stroke: #0000ff; stroke-linejoin: miter"/>
   </g>
   <g id="patch_59">
    <path d="M 121.223077 105.122596 
L 108.025962 91.925481 
L 94.828846 105.122596 
L 108.025962 118.319712 
L 121.223077 105.122596 
z
" clip-path="url(#p5518e43c7b)" style="fill: none; stroke: #0000ff; stroke-linejoin: miter"/>
   </g>
   <g id="patch_60">
    <path d="M 94.828846 263.487981 
L 81.631731 250.290865 
L 68.434615 263.487981 
L 81.631731 276.685096 
L 94.828846 263.487981 
z
" clip-path="url(#p5518e43c7b)" style="fill: none; stroke: #0000ff; stroke-linejoin: miter"/>
   </g>
   <g id="patch_61">
    <path d="M 213.602885 171.108173 
L 200.405769 157.911058 
L 187.208654 171.108173 
L 200.405769 184.305288 
L 213.602885 171.108173 
z
" clip-path="url(#p5518e43c7b)" style="fill: none; stroke: #0000ff; stroke-linejoin: miter"/>
   </g>
   <g id="patch_62">
    <path d="M 81.631731 223.896635 
L 68.434615 210.699519 
L 55.2375 223.896635 
L 68.434615 237.09375 
L 81.631731 223.896635 
z
" clip-path="url(#p5518e43c7b)" style="fill: none; stroke: #0000ff; stroke-linejoin: miter"/>
   </g>
   <g id="patch_63">
    <path d="M 160.814423 171.108173 
L 147.617308 157.911058 
L 134.420192 171.108173 
L 147.617308 184.305288 
L 160.814423 171.108173 
z
" clip-path="url(#p5518e43c7b)" style="fill: none; stroke: #0000ff; stroke-linejoin: miter"/>
   </g>
   <g id="patch_64">
    <path d="M 424.756731 118.319712 
L 411.559615 105.122596 
L 398.3625 118.319712 
L 411.559615 131.516827 
L 424.756731 118.319712 
z
" clip-path="url(#p5518e43c7b)" style="fill: none; stroke: #0000ff; stroke-linejoin: miter"/>
   </g>
   <g id="patch_65">
    <path d="M 42.040385 131.516827 
L 28.843269 118.319712 
L 15.646154 131.516827 
L 28.843269 144.713942 
L 42.040385 131.516827 
z
" clip-path="url(#p5518e43c7b)" style="fill: none; stroke: #0000ff; stroke-linejoin: miter"/>
   </g>
   <g id="patch_66">
    <path d="M 187.208654 276.685096 
L 174.011538 263.487981 
L 160.814423 276.685096 
L 174.011538 289.882212 
L 187.208654 276.685096 
z
" clip-path="url(#p5518e43c7b)" style="fill: none; stroke: #0000ff; stroke-linejoin: miter"/>
   </g>
   <g id="patch_67">
    <path d="M 160.814423 276.685096 
L 147.617308 263.487981 
L 134.420192 276.685096 
L 147.617308 289.882212 
L 160.814423 276.685096 
z
" clip-path="url(#p5518e43c7b)" style="fill: none; stroke: #0000ff; stroke-linejoin: miter"/>
   </g>
   <g id="patch_68">
    <path d="M 174.011538 237.09375 
L 160.814423 223.896635 
L 147.617308 237.09375 
L 160.814423 250.290865 
L 174.011538 237.09375 
z
" clip-path="url(#p5518e43c7b)" style="fill: none; stroke: #0000ff; stroke-linejoin: miter"/>
   </g>
   <g id="patch_69">
    <path d="M 411.559615 157.911058 
L 398.3625 144.713942 
L 385.165385 157.911058 
L 398.3625 171.108173 
L 411.559615 157.911058 
z
" clip-path="url(#p5518e43c7b)" style="fill: none; stroke: #0000ff; stroke-linejoin: miter"/>
   </g>
   <g id="patch_70">
    <path d="M 134.420192 144.713942 
L 121.223077 131.516827 
L 108.025962 144.713942 
L 121.223077 157.911058 
L 134.420192 144.713942 
z
" clip-path="url(#p5518e43c7b)" style="fill: none; stroke: #0000ff; stroke-linejoin: miter"/>
   </g>
   <g id="patch_71">
    <path d="M 108.025962 144.713942 
L 94.828846 131.516827 
L 81.631731 144.713942 
L 94.828846 157.911058 
L 108.025962 144.713942 
z
" clip-path="url(#p5518e43c7b)" style="fill: none; stroke: #0000ff; stroke-linejoin: miter"/>
   </g>
   <g id="patch_72">
    <path d="M 134.420192 223.896635 
L 121.223077 210.699519 
L 108.025962 223.896635 
L 121.223077 237.09375 
L 134.420192 223.896635 
z
" clip-path="url(#p5518e43c7b)" style="fill: none; stroke: #0000ff; stroke-linejoin: miter"/>
   </g>
   <g id="patch_73">
    <path d="M 239.997115 171.108173 
L 226.8 157.911058 
L 213.602885 171.108173 
L 226.8 184.305288 
L 239.997115 171.108173 
z
" clip-path="url(#p5518e43c7b)" style="fill: none; stroke: #0000ff; stroke-linejoin: miter"/>
   </g>
   <g id="patch_74">
    <path d="M 345.574038 197.502404 
L 332.376923 184.305288 
L 319.179808 197.502404 
L 332.376923 210.699519 
L 345.574038 197.502404 
z
" clip-path="url(#p5518e43c7b)" style="fill: none; stroke: #0000ff; stroke-linejoin: miter"/>
   </g>
   <g id="patch_75">
    <path d="M 187.208654 91.925481 
L 174.011538 78.728365 
L 160.814423 91.925481 
L 174.011538 105.122596 
L 187.208654 91.925481 
z
" clip-path="url(#p5518e43c7b)" style="fill: none; stroke: #0000ff; stroke-linejoin: miter"/>
   </g>
   <g id="patch_76">
    <path d="M 81.631731 91.925481 
L 68.434615 78.728365 
L 55.2375 91.925481 
L 68.434615 105.122596 
L 81.631731 91.925481 
z
" clip-path="url(#p5518e43c7b)" style="fill: none; stroke: #0000ff; stroke-linejoin: miter"/>
   </g>
   <g id="patch_77">
    <path d="M 226.8 237.09375 
L 213.602885 223.896635 
L 200.405769 237.09375 
L 213.602885 250.290865 
L 226.8 237.09375 
z
" clip-path="url(#p5518e43c7b)" style="fill: none; stroke: #0000ff; stroke-linejoin: miter"/>
   </g>
   <g id="patch_78">
    <path d="M 55.2375 91.925481 
L 42.040385 78.728365 
L 28.843269 91.925481 
L 42.040385 105.122596 
L 55.2375 91.925481 
z
" clip-path="url(#p5518e43c7b)" style="fill: none; stroke: #0000ff; stroke-linejoin: miter"/>
   </g>
   <g id="patch_79">
    <path d="M 200.405769 237.09375 
L 187.208654 223.896635 
L 174.011538 237.09375 
L 187.208654 250.290865 
L 200.405769 237.09375 
z
" clip-path="url(#p5518e43c7b)" style="fill: none; stroke: #0000ff; stroke-linejoin: miter"/>
   </g>
   <g id="patch_80">
    <path d="M 174.011538 52.334135 
L 160.814423 39.137019 
L 147.617308 52.334135 
L 160.814423 65.53125 
L 174.011538 52.334135 
z
" clip-path="url(#p5518e43c7b)" style="fill: none; stroke: #0000ff; stroke-linejoin: miter"/>
   </g>
   <g id="patch_81">
    <path d="M 200.405769 131.516827 
L 187.208654 118.319712 
L 174.011538 131.516827 
L 187.208654 144.713942 
L 200.405769 131.516827 
z
" clip-path="url(#p5518e43c7b)" style="fill: none; stroke: #0000ff; stroke-linejoin: miter"/>
   </g>
   <g id="patch_82">
    <path d="M 358.771154 184.305288 
L 345.574038 171.108173 
L 332.376923 184.305288 
L 345.574038 197.502404 
L 358.771154 184.305288 
z
" clip-path="url(#p5518e43c7b)" style="fill: none; stroke: #0000ff; stroke-linejoin: miter"/>
   </g>
   <g id="patch_83">
    <path d="M 279.588462 184.305288 
L 266.391346 171.108173 
L 253.194231 184.305288 
L 266.391346 197.502404 
L 279.588462 184.305288 
z
" clip-path="url(#p5518e43c7b)" style="fill: none; stroke: #0000ff; stroke-linejoin: miter"/>
   </g>
   <g id="patch_84">
    <path d="M 292.785577 171.108173 
L 279.588462 157.911058 
L 266.391346 171.108173 
L 279.588462 184.305288 
L 292.785577 171.108173 
z
" clip-path="url(#p5518e43c7b)" style="fill: none; stroke: #0000ff; stroke-linejoin: miter"/>
   </g>
   <g id="patch_85">
    <path d="M 160.814423 223.896635 
L 147.617308 210.699519 
L 134.420192 223.896635 
L 147.617308 237.09375 
L 160.814423 223.896635 
z
" clip-path="url(#p5518e43c7b)" style="fill: none; stroke: #0000ff; stroke-linejoin: miter"/>
   </g>
   <g id="patch_86">
    <path d="M 411.559615 105.122596 
L 398.3625 91.925481 
L 385.165385 105.122596 
L 398.3625 118.319712 
L 411.559615 105.122596 
z
" clip-path="url(#p5518e43c7b)" style="fill: none; stroke: #0000ff; stroke-linejoin: miter"/>
   </g>
   <g id="patch_87">
    <path d="M 108.025962 91.925481 
L 94.828846 78.728365 
L 81.631731 91.925481 
L 94.828846 105.122596 
L 108.025962 91.925481 
z
" clip-path="url(#p5518e43c7b)" style="fill: none; stroke: #0000ff; stroke-linejoin: miter"/>
   </g>
   <g id="patch_88">
    <path d="M 253.194231 237.09375 
L 239.997115 223.896635 
L 226.8 237.09375 
L 239.997115 250.290865 
L 253.194231 237.09375 
z
" clip-path="url(#p5518e43c7b)" style="fill: none; stroke: #0000ff; stroke-linejoin: miter"/>
   </g>
   <g id="patch_89">
    <path d="M 147.617308 263.487981 
L 134.420192 250.290865 
L 121.223077 263.487981 
L 134.420192 276.685096 
L 147.617308 263.487981 
z
" clip-path="url(#p5518e43c7b)" style="fill: none; stroke: #0000ff; stroke-linejoin: miter"/>
   </g>
   <g id="patch_90">
    <path d="M 305.982692 131.516827 
L 292.785577 118.319712 
L 279.588462 131.516827 
L 292.785577 144.713942 
L 305.982692 131.516827 
z
" clip-path="url(#p5518e43c7b)" style="fill: none; stroke: #0000ff; stroke-linejoin: miter"/>
   </g>
   <g id="patch_91">
    <path d="M 226.8 131.516827 
L 213.602885 118.319712 
L 200.405769 131.516827 
L 213.602885 144.713942 
L 226.8 131.516827 
z
" clip-path="url(#p5518e43c7b)" style="fill: none; stroke: #0000ff; stroke-linejoin: miter"/>
   </g>
   <g id="patch_92">
    <path d="M 226.8 52.334135 
L 213.602885 39.137019 
L 200.405769 52.334135 
L 213.602885 65.53125 
L 226.8 52.334135 
z
" clip-path="url(#p5518e43c7b)" style="fill: none; stroke: #0000ff; stroke-linejoin: miter"/>
   </g>
   <g id="patch_93">
    <path d="M 239.997115 91.925481 
L 226.8 78.728365 
L 213.602885 91.925481 
L 226.8 105.122596 
L 239.997115 91.925481 
z
" clip-path="url(#p5518e43c7b)" style="fill: none; stroke: #0000ff; stroke-linejoin: miter"/>
   </g>
   <g id="patch_94">
    <path d="M 121.223077 210.699519 
L 108.025962 197.502404 
L 94.828846 210.699519 
L 108.025962 223.896635 
L 121.223077 210.699519 
z
" clip-path="url(#p5518e43c7b)" style="fill: none; stroke: #0000ff; stroke-linejoin: miter"/>
   </g>
   <g id="patch_95">
    <path d="M 411.559615 184.305288 
L 398.3625 171.108173 
L 385.165385 184.305288 
L 398.3625 197.502404 
L 411.559615 184.305288 
z
" clip-path="url(#p5518e43c7b)" style="fill: none; stroke: #0000ff; stroke-linejoin: miter"/>
   </g>
   <g id="patch_96">
    <path d="M 94.828846 131.516827 
L 81.631731 118.319712 
L 68.434615 131.516827 
L 81.631731 144.713942 
L 94.828846 131.516827 
z
" clip-path="url(#p5518e43c7b)" style="fill: none; stroke: #0000ff; stroke-linejoin: miter"/>
   </g>
   <g id="patch_97">
    <path d="M 398.3625 144.713942 
L 385.165385 131.516827 
L 371.968269 144.713942 
L 385.165385 157.911058 
L 398.3625 144.713942 
z
" clip-path="url(#p5518e43c7b)" style="fill: none; stroke: #0000ff; stroke-linejoin: miter"/>
   </g>
   <g id="patch_98">
    <path d="M 200.405769 52.334135 
L 187.208654 39.137019 
L 174.011538 52.334135 
L 187.208654 65.53125 
L 200.405769 52.334135 
z
" clip-path="url(#p5518e43c7b)" style="fill: none; stroke: #0000ff; stroke-linejoin: miter"/>
   </g>
   <g id="patch_99">
    <path d="M 200.405769 184.305288 
L 187.208654 171.108173 
L 174.011538 184.305288 
L 187.208654 197.502404 
L 200.405769 184.305288 
z
" clip-path="url(#p5518e43c7b)" style="fill: none; stroke: #0000ff; stroke-linejoin: miter"/>
   </g>
   <g id="patch_100">
    <path d="M 319.179808 223.896635 
L 305.982692 210.699519 
L 292.785577 223.896635 
L 305.982692 237.09375 
L 319.179808 223.896635 
z
" clip-path="url(#p5518e43c7b)" style="fill: none; stroke: #0000ff; stroke-linejoin: miter"/>
   </g>
   <g id="patch_101">
    <path d="M 121.223077 157.911058 
L 108.025962 144.713942 
L 94.828846 157.911058 
L 108.025962 171.108173 
L 121.223077 157.911058 
z
" clip-path="url(#p5518e43c7b)" style="fill: none; stroke: #0000ff; stroke-linejoin: miter"/>
   </g>
   <g id="patch_102">
    <path d="M 200.405769 263.487981 
L 187.208654 250.290865 
L 174.011538 263.487981 
L 187.208654 276.685096 
L 200.405769 263.487981 
z
" clip-path="url(#p5518e43c7b)" style="fill: none; stroke: #0000ff; stroke-linejoin: miter"/>
   </g>
   <g id="patch_103">
    <path d="M 358.771154 131.516827 
L 345.574038 118.319712 
L 332.376923 131.516827 
L 345.574038 144.713942 
L 358.771154 131.516827 
z
" clip-path="url(#p5518e43c7b)" style="fill: none; stroke: #0000ff; stroke-linejoin: miter"/>
   </g>
   <g id="patch_104">
    <path d="M 332.376923 131.516827 
L 319.179808 118.319712 
L 305.982692 131.516827 
L 319.179808 144.713942 
L 332.376923 131.516827 
z
" clip-path="url(#p5518e43c7b)" style="fill: none; stroke: #0000ff; stroke-linejoin: miter"/>
   </g>
   <g id="patch_105">
    <path d="M 345.574038 91.925481 
L 332.376923 78.728365 
L 319.179808 91.925481 
L 332.376923 105.122596 
L 345.574038 91.925481 
z
" clip-path="url(#p5518e43c7b)" style="fill: none; stroke: #0000ff; stroke-linejoin: miter"/>
   </g>
   <g id="patch_106">
    <path d="M 147.617308 131.516827 
L 134.420192 118.319712 
L 121.223077 131.516827 
L 134.420192 144.713942 
L 147.617308 131.516827 
z
" clip-path="url(#p5518e43c7b)" style="fill: none; stroke: #0000ff; stroke-linejoin: miter"/>
   </g>
   <g id="patch_107">
    <path d="M 424.756731 144.713942 
L 411.559615 131.516827 
L 398.3625 144.713942 
L 411.559615 157.911058 
L 424.756731 144.713942 
z
" clip-path="url(#p5518e43c7b)" style="fill: none; stroke: #0000ff; stroke-linejoin: miter"/>
   </g>
   <g id="patch_108">
    <path d="M 68.434615 105.122596 
L 55.2375 91.925481 
L 42.040385 105.122596 
L 55.2375 118.319712 
L 68.434615 105.122596 
z
" clip-path="url(#p5518e43c7b)" style="fill: none; stroke: #0000ff; stroke-linejoin: miter"/>
   </g>
   <g id="patch_109">
    <path d="M 160.814423 118.319712 
L 147.617308 105.122596 
L 134.420192 118.319712 
L 147.617308 131.516827 
L 160.814423 118.319712 
z
" clip-path="url(#p5518e43c7b)" style="fill: none; stroke: #0000ff; stroke-linejoin: miter"/>
   </g>
   <g id="patch_110">
    <path d="M 385.165385 131.516827 
L 371.968269 118.319712 
L 358.771154 131.516827 
L 371.968269 144.713942 
L 385.165385 131.516827 
z
" clip-path="url(#p5518e43c7b)" style="fill: none; stroke: #0000ff; stroke-linejoin: miter"/>
   </g>
   <g id="patch_111">
    <path d="M 134.420192 118.319712 
L 121.223077 105.122596 
L 108.025962 118.319712 
L 121.223077 131.516827 
L 134.420192 118.319712 
z
" clip-path="url(#p5518e43c7b)" style="fill: none; stroke: #0000ff; stroke-linejoin: miter"/>
   </g>
   <g id="patch_112">
    <path d="M 371.968269 91.925481 
L 358.771154 78.728365 
L 345.574038 91.925481 
L 358.771154 105.122596 
L 371.968269 91.925481 
z
" clip-path="url(#p5518e43c7b)" style="fill: none; stroke: #0000ff; stroke-linejoin: miter"/>
   </g>
   <g id="patch_113">
    <path d="M 134.420192 250.290865 
L 121.223077 237.09375 
L 108.025962 250.290865 
L 121.223077 263.487981 
L 134.420192 250.290865 
z
" clip-path="url(#p5518e43c7b)" style="fill: none; stroke: #0000ff; stroke-linejoin: miter"/>
   </g>
   <g id="patch_114">
    <path d="M 81.631731 250.290865 
L 68.434615 237.09375 
L 55.2375 250.290865 
L 68.434615 263.487981 
L 81.631731 250.290865 
z
" clip-path="url(#p5518e43c7b)" style="fill: none; stroke: #0000ff; stroke-linejoin: miter"/>
   </g>
   <g id="patch_115">
    <path d="M 108.025962 65.53125 
L 94.828846 52.334135 
L 81.631731 65.53125 
L 94.828846 78.728365 
L 108.025962 65.53125 
z
" clip-path="url(#p5518e43c7b)" style="fill: none; stroke: #0000ff; stroke-linejoin: miter"/>
   </g>
   <g id="patch_116">
    <path d="M 253.194231 210.699519 
L 239.997115 197.502404 
L 226.8 210.699519 
L 239.997115 223.896635 
L 253.194231 210.699519 
z
" clip-path="url(#p5518e43c7b)" style="fill: none; stroke: #0000ff; stroke-linejoin: miter"/>
   </g>
   <g id="patch_117">
    <path d="M 81.631731 65.53125 
L 68.434615 52.334135 
L 55.2375 65.53125 
L 68.434615 78.728365 
L 81.631731 65.53125 
z
" clip-path="url(#p5518e43c7b)" style="fill: none; stroke: #0000ff; stroke-linejoin: miter"/>
   </g>
   <g id="patch_118">
    <path d="M 187.208654 118.319712 
L 174.011538 105.122596 
L 160.814423 118.319712 
L 174.011538 131.516827 
L 187.208654 118.319712 
z
" clip-path="url(#p5518e43c7b)" style="fill: none; stroke: #0000ff; stroke-linejoin: miter"/>
   </g>
   <g id="patch_119">
    <path d="M 200.405769 78.728365 
L 187.208654 65.53125 
L 174.011538 78.728365 
L 187.208654 91.925481 
L 200.405769 78.728365 
z
" clip-path="url(#p5518e43c7b)" style="fill: none; stroke: #0000ff; stroke-linejoin: miter"/>
   </g>
   <g id="patch_120">
    <path d="M 81.631731 197.502404 
L 68.434615 184.305288 
L 55.2375 197.502404 
L 68.434615 210.699519 
L 81.631731 197.502404 
z
" clip-path="url(#p5518e43c7b)" style="fill: none; stroke: #0000ff; stroke-linejoin: miter"/>
   </g>
   <g id="patch_121">
    <path d="M 94.828846 237.09375 
L 81.631731 223.896635 
L 68.434615 237.09375 
L 81.631731 250.290865 
L 94.828846 237.09375 
z
" clip-path="url(#p5518e43c7b)" style="fill: none; stroke: #0000ff; stroke-linejoin: miter"/>
   </g>
   <g id="patch_122">
    <path d="M 187.208654 250.290865 
L 174.011538 237.09375 
L 160.814423 250.290865 
L 174.011538 263.487981 
L 187.208654 250.290865 
z
" clip-path="url(#p5518e43c7b)" style="fill: none; stroke: #0000ff; stroke-linejoin: miter"/>
   </g>
   <g id="patch_123">
    <path d="M 200.405769 157.911058 
L 187.208654 144.713942 
L 174.011538 157.911058 
L 187.208654 171.108173 
L 200.405769 157.911058 
z
" clip-path="url(#p5518e43c7b)" style="fill: none; stroke: #0000ff; stroke-linejoin: miter"/>
   </g>
   <g id="patch_124">
    <path d="M 411.559615 131.516827 
L 398.3625 118.319712 
L 385.165385 131.516827 
L 398.3625 144.713942 
L 411.559615 131.516827 
z
" clip-path="url(#p5518e43c7b)" style="fill: none; stroke: #0000ff; stroke-linejoin: miter"/>
   </g>
   <g id="patch_125">
    <path d="M 134.420192 65.53125 
L 121.223077 52.334135 
L 108.025962 65.53125 
L 121.223077 78.728365 
L 134.420192 65.53125 
z
" clip-path="url(#p5518e43c7b)" style="fill: none; stroke: #0000ff; stroke-linejoin: miter"/>
   </g>
   <g id="patch_126">
    <path d="M 279.588462 210.699519 
L 266.391346 197.502404 
L 253.194231 210.699519 
L 266.391346 223.896635 
L 279.588462 210.699519 
z
" clip-path="url(#p5518e43c7b)" style="fill: none; stroke: #0000ff; stroke-linejoin: miter"/>
   </g>
   <g id="patch_127">
    <path d="M 147.617308 25.939904 
L 134.420192 12.742788 
L 121.223077 25.939904 
L 134.420192 39.137019 
L 147.617308 25.939904 
z
" clip-path="url(#p5518e43c7b)" style="fill: none; stroke: #0000ff; stroke-linejoin: miter"/>
   </g>
   <g id="patch_128">
    <path d="M 319.179808 197.502404 
L 305.982692 184.305288 
L 292.785577 197.502404 
L 305.982692 210.699519 
L 319.179808 197.502404 
z
" clip-path="url(#p5518e43c7b)" style="fill: none; stroke: #0000ff; stroke-linejoin: miter"/>
   </g>
   <g id="patch_129">
    <path d="M 226.8 78.728365 
L 213.602885 65.53125 
L 200.405769 78.728365 
L 213.602885 91.925481 
L 226.8 78.728365 
z
" clip-path="url(#p5518e43c7b)" style="fill: none; stroke: #0000ff; stroke-linejoin: miter"/>
   </g>
   <g id="patch_130">
    <path d="M 437.953846 157.911058 
L 424.756731 144.713942 
L 411.559615 157.911058 
L 424.756731 171.108173 
L 437.953846 157.911058 
z
" clip-path="url(#p5518e43c7b)" style="fill: none; stroke: #0000ff; stroke-linejoin: miter"/>
   </g>
   <g id="patch_131">
    <path d="M 226.8 157.911058 
L 213.602885 144.713942 
L 200.405769 157.911058 
L 213.602885 171.108173 
L 226.8 157.911058 
z
" clip-path="url(#p5518e43c7b)" style="fill: none; stroke: #0000ff; stroke-linejoin: miter"/>
   </g>
   <g id="patch_132">
    <path d="M 174.011538 157.911058 
L 160.814423 144.713942 
L 147.617308 157.911058 
L 160.814423 171.108173 
L 174.011538 157.911058 
z
" clip-path="url(#p5518e43c7b)" style="fill: none; stroke: #0000ff; stroke-linejoin: miter"/>
   </g>
   <g id="patch_133">
    <path d="M 187.208654 65.53125 
L 174.011538 52.334135 
L 160.814423 65.53125 
L 174.011538 78.728365 
L 187.208654 65.53125 
z
" clip-path="url(#p5518e43c7b)" style="fill: none; stroke: #0000ff; stroke-linejoin: miter"/>
   </g>
   <g id="patch_134">
    <path d="M 332.376923 210.699519 
L 319.179808 197.502404 
L 305.982692 210.699519 
L 319.179808 223.896635 
L 332.376923 210.699519 
z
" clip-path="url(#p5518e43c7b)" style="fill: none; stroke: #0000ff; stroke-linejoin: miter"/>
   </g>
   <g id="patch_135">
    <path d="M 174.011538 25.939904 
L 160.814423 12.742788 
L 147.617308 25.939904 
L 160.814423 39.137019 
L 174.011538 25.939904 
z
" clip-path="url(#p5518e43c7b)" style="fill: none; stroke: #0000ff; stroke-linejoin: miter"/>
   </g>
   <g id="patch_136">
    <path d="M 81.631731 171.108173 
L 68.434615 157.911058 
L 55.2375 171.108173 
L 68.434615 184.305288 
L 81.631731 171.108173 
z
" clip-path="url(#p5518e43c7b)" style="fill: none; stroke: #0000ff; stroke-linejoin: miter"/>
   </g>
   <g id="patch_137">
    <path d="M 371.968269 197.502404 
L 358.771154 184.305288 
L 345.574038 197.502404 
L 358.771154 210.699519 
L 371.968269 197.502404 
z
" clip-path="url(#p5518e43c7b)" style="fill: none; stroke: #0000ff; stroke-linejoin: miter"/>
   </g>
   <g id="patch_138">
    <path d="M 121.223077 184.305288 
L 108.025962 171.108173 
L 94.828846 184.305288 
L 108.025962 197.502404 
L 121.223077 184.305288 
z
" clip-path="url(#p5518e43c7b)" style="fill: none; stroke: #0000ff; stroke-linejoin: miter"/>
   </g>
   <g id="patch_139">
    <path d="M 55.2375 171.108173 
L 42.040385 157.911058 
L 28.843269 171.108173 
L 42.040385 184.305288 
L 55.2375 171.108173 
z
" clip-path="url(#p5518e43c7b)" style="fill: none; stroke: #0000ff; stroke-linejoin: miter"/>
   </g>
   <g id="patch_140">
    <path d="M 385.165385 105.122596 
L 371.968269 91.925481 
L 358.771154 105.122596 
L 371.968269 118.319712 
L 385.165385 105.122596 
z
" clip-path="url(#p5518e43c7b)" style="fill: none; stroke: #0000ff; stroke-linejoin: miter"/>
   </g>
   <g id="patch_141">
    <path d="M 279.588462 78.728365 
L 266.391346 65.53125 
L 253.194231 78.728365 
L 266.391346 91.925481 
L 279.588462 78.728365 
z
" clip-path="url(#p5518e43c7b)" style="fill: none; stroke: #0000ff; stroke-linejoin: miter"/>
   </g>
   <g id="patch_142">
    <path d="M 160.814423 197.502404 
L 147.617308 184.305288 
L 134.420192 197.502404 
L 147.617308 210.699519 
L 160.814423 197.502404 
z
" clip-path="url(#p5518e43c7b)" style="fill: none; stroke: #0000ff; stroke-linejoin: miter"/>
   </g>
   <g id="patch_143">
    <path d="M 174.011538 105.122596 
L 160.814423 91.925481 
L 147.617308 105.122596 
L 160.814423 118.319712 
L 174.011538 105.122596 
z
" clip-path="url(#p5518e43c7b)" style="fill: none; stroke: #0000ff; stroke-linejoin: miter"/>
   </g>
   <g id="patch_144">
    <path d="M 42.040385 237.09375 
L 28.843269 223.896635 
L 15.646154 237.09375 
L 28.843269 250.290865 
L 42.040385 237.09375 
z
" clip-path="url(#p5518e43c7b)" style="fill: none; stroke: #0000ff; stroke-linejoin: miter"/>
   </g>
   <g id="patch_145">
    <path d="M 279.588462 157.911058 
L 266.391346 144.713942 
L 253.194231 157.911058 
L 266.391346 171.108173 
L 279.588462 157.911058 
z
" clip-path="url(#p5518e43c7b)" style="fill: none; stroke: #0000ff; stroke-linejoin: miter"/>
   </g>
   <g id="patch_146">
    <path d="M 266.391346 118.319712 
L 253.194231 105.122596 
L 239.997115 118.319712 
L 253.194231 131.516827 
L 266.391346 118.319712 
z
" clip-path="url(#p5518e43c7b)" style="fill: none; stroke: #0000ff; stroke-linejoin: miter"/>
   </g>
   <g id="patch_147">
    <path d="M 68.434615 131.516827 
L 55.2375 118.319712 
L 42.040385 131.516827 
L 55.2375 144.713942 
L 68.434615 131.516827 
z
" clip-path="url(#p5518e43c7b)" style="fill: none; stroke: #0000ff; stroke-linejoin: miter"/>
   </g>
   <g id="patch_148">
    <path d="M 174.011538 184.305288 
L 160.814423 171.108173 
L 147.617308 184.305288 
L 160.814423 197.502404 
L 174.011538 184.305288 
z
" clip-path="url(#p5518e43c7b)" style="fill: none; stroke: #0000ff; stroke-linejoin: miter"/>
   </g>
   <g id="patch_149">
    <path d="M 160.814423 144.713942 
L 147.617308 131.516827 
L 134.420192 144.713942 
L 147.617308 157.911058 
L 160.814423 144.713942 
z
" clip-path="url(#p5518e43c7b)" style="fill: none; stroke: #0000ff; stroke-linejoin: miter"/>
   </g>
   <g id="patch_150">
    <path d="M 174.011538 263.487981 
L 160.814423 250.290865 
L 147.617308 263.487981 
L 160.814423 276.685096 
L 174.011538 263.487981 
z
" clip-path="url(#p5518e43c7b)" style="fill: none; stroke: #0000ff; stroke-linejoin: miter"/>
   </g>
   <g id="patch_151">
    <path d="M 187.208654 223.896635 
L 174.011538 210.699519 
L 160.814423 223.896635 
L 174.011538 237.09375 
L 187.208654 223.896635 
z
" clip-path="url(#p5518e43c7b)" style="fill: none; stroke: #0000ff; stroke-linejoin: miter"/>
   </g>
   <g id="patch_152">
    <path d="M 108.025962 223.896635 
L 94.828846 210.699519 
L 81.631731 223.896635 
L 94.828846 237.09375 
L 108.025962 223.896635 
z
" clip-path="url(#p5518e43c7b)" style="fill: none; stroke: #0000ff; stroke-linejoin: miter"/>
   </g>
   <g id="patch_153">
    <path d="M 398.3625 197.502404 
L 385.165385 184.305288 
L 371.968269 197.502404 
L 385.165385 210.699519 
L 398.3625 197.502404 
z
" clip-path="url(#p5518e43c7b)" style="fill: none; stroke: #0000ff; stroke-linejoin: miter"/>
   </g>
   <g id="patch_154">
    <path d="M 319.179808 118.319712 
L 305.982692 105.122596 
L 292.785577 118.319712 
L 305.982692 131.516827 
L 319.179808 118.319712 
z
" clip-path="url(#p5518e43c7b)" style="fill: none; stroke: #0000ff; stroke-linejoin: miter"/>
   </g>
   <g id="patch_155">
    <path d="M 121.223077 131.516827 
L 108.025962 118.319712 
L 94.828846 131.516827 
L 108.025962 144.713942 
L 121.223077 131.516827 
z
" clip-path="url(#p5518e43c7b)" style="fill: none; stroke: #0000ff; stroke-linejoin: miter"/>
   </g>
   <g id="patch_156">
    <path d="M 134.420192 91.925481 
L 121.223077 78.728365 
L 108.025962 91.925481 
L 121.223077 105.122596 
L 134.420192 91.925481 
z
" clip-path="url(#p5518e43c7b)" style="fill: none; stroke: #0000ff; stroke-linejoin: miter"/>
   </g>
   <g id="patch_157">
    <path d="M 213.602885 144.713942 
L 200.405769 131.516827 
L 187.208654 144.713942 
L 200.405769 157.911058 
L 213.602885 144.713942 
z
" clip-path="url(#p5518e43c7b)" style="fill: none; stroke: #0000ff; stroke-linejoin: miter"/>
   </g>
   <g id="patch_158">
    <path d="M 147.617308 52.334135 
L 134.420192 39.137019 
L 121.223077 52.334135 
L 134.420192 65.53125 
L 147.617308 52.334135 
z
" clip-path="url(#p5518e43c7b)" style="fill: none; stroke: #0000ff; stroke-linejoin: miter"/>
   </g>
   <g id="patch_159">
    <path d="M 226.8 263.487981 
L 213.602885 250.290865 
L 200.405769 263.487981 
L 213.602885 276.685096 
L 226.8 263.487981 
z
" clip-path="url(#p5518e43c7b)" style="fill: none; stroke: #0000ff; stroke-linejoin: miter"/>
   </g>
   <g id="patch_160">
    <path d="M 345.574038 171.108173 
L 332.376923 157.911058 
L 319.179808 171.108173 
L 332.376923 184.305288 
L 345.574038 171.108173 
z
" clip-path="url(#p5518e43c7b)" style="fill: none; stroke: #0000ff; stroke-linejoin: miter"/>
   </g>
   <g id="patch_161">
    <path d="M 213.602885 223.896635 
L 200.405769 210.699519 
L 187.208654 223.896635 
L 200.405769 237.09375 
L 213.602885 223.896635 
z
" clip-path="url(#p5518e43c7b)" style="fill: none; stroke: #0000ff; stroke-linejoin: miter"/>
   </g>
   <g id="patch_162">
    <path d="M 319.179808 171.108173 
L 305.982692 157.911058 
L 292.785577 171.108173 
L 305.982692 184.305288 
L 319.179808 171.108173 
z
" clip-path="url(#p5518e43c7b)" style="fill: none; stroke: #0000ff; stroke-linejoin: miter"/>
   </g>
   <g id="patch_163">
    <path d="M 266.391346 171.108173 
L 253.194231 157.911058 
L 239.997115 171.108173 
L 253.194231 184.305288 
L 266.391346 171.108173 
z
" clip-path="url(#p5518e43c7b)" style="fill: none; stroke: #0000ff; stroke-linejoin: miter"/>
   </g>
   <g id="patch_164">
    <path d="M 174.011538 131.516827 
L 160.814423 118.319712 
L 147.617308 131.516827 
L 160.814423 144.713942 
L 174.011538 131.516827 
z
" clip-path="url(#p5518e43c7b)" style="fill: none; stroke: #0000ff; stroke-linejoin: miter"/>
   </g>
   <g id="patch_165">
    <path d="M 187.208654 39.137019 
L 174.011538 25.939904 
L 160.814423 39.137019 
L 174.011538 52.334135 
L 187.208654 39.137019 
z
" clip-path="url(#p5518e43c7b)" style="fill: none; stroke: #0000ff; stroke-linejoin: miter"/>
   </g>
   <g id="patch_166">
    <path d="M 160.814423 91.925481 
L 147.617308 78.728365 
L 134.420192 91.925481 
L 147.617308 105.122596 
L 160.814423 91.925481 
z
" clip-path="url(#p5518e43c7b)" style="fill: none; stroke: #0000ff; stroke-linejoin: miter"/>
   </g>
   <g id="patch_167">
    <path d="M 305.982692 237.09375 
L 292.785577 223.896635 
L 279.588462 237.09375 
L 292.785577 250.290865 
L 305.982692 237.09375 
z
" clip-path="url(#p5518e43c7b)" style="fill: none; stroke: #0000ff; stroke-linejoin: miter"/>
   </g>
   <g id="patch_168">
    <path d="M 160.814423 39.137019 
L 147.617308 25.939904 
L 134.420192 39.137019 
L 147.617308 52.334135 
L 160.814423 39.137019 
z
" clip-path="url(#p5518e43c7b)" style="fill: none; stroke: #0000ff; stroke-linejoin: miter"/>
   </g>
   <g id="patch_169">
    <path d="M 108.025962 250.290865 
L 94.828846 237.09375 
L 81.631731 250.290865 
L 94.828846 263.487981 
L 108.025962 250.290865 
z
" clip-path="url(#p5518e43c7b)" style="fill: none; stroke: #0000ff; stroke-linejoin: miter"/>
   </g>
   <g id="patch_170">
    <path d="M 266.391346 144.713942 
L 253.194231 131.516827 
L 239.997115 144.713942 
L 253.194231 157.911058 
L 266.391346 144.713942 
z
" clip-path="url(#p5518e43c7b)" style="fill: none; stroke: #0000ff; stroke-linejoin: miter"/>
   </g>
   <g id="patch_171">
    <path d="M 253.194231 52.334135 
L 239.997115 39.137019 
L 226.8 52.334135 
L 239.997115 65.53125 
L 253.194231 52.334135 
z
" clip-path="url(#p5518e43c7b)" style="fill: none; stroke: #0000ff; stroke-linejoin: miter"/>
   </g>
   <g id="patch_172">
    <path d="M 398.3625 171.108173 
L 385.165385 157.911058 
L 371.968269 171.108173 
L 385.165385 184.305288 
L 398.3625 171.108173 
z
" clip-path="url(#p5518e43c7b)" style="fill: none; stroke: #0000ff; stroke-linejoin: miter"/>
   </g>
   <g id="patch_173">
    <path d="M 266.391346 223.896635 
L 253.194231 210.699519 
L 239.997115 223.896635 
L 253.194231 237.09375 
L 266.391346 223.896635 
z
" clip-path="url(#p5518e43c7b)" style="fill: none; stroke: #0000ff; stroke-linejoin: miter"/>
   </g>
   <g id="patch_174">
    <path d="M 371.968269 171.108173 
L 358.771154 157.911058 
L 345.574038 171.108173 
L 358.771154 184.305288 
L 371.968269 171.108173 
z
" clip-path="url(#p5518e43c7b)" style="fill: none; stroke: #0000ff; stroke-linejoin: miter"/>
   </g>
   <g id="patch_175">
    <path d="M 239.997115 223.896635 
L 226.8 210.699519 
L 213.602885 223.896635 
L 226.8 237.09375 
L 239.997115 223.896635 
z
" clip-path="url(#p5518e43c7b)" style="fill: none; stroke: #0000ff; stroke-linejoin: miter"/>
   </g>
   <g id="patch_176">
    <path d="M 253.194231 184.305288 
L 239.997115 171.108173 
L 226.8 184.305288 
L 239.997115 197.502404 
L 253.194231 184.305288 
z
" clip-path="url(#p5518e43c7b)" style="fill: none; stroke: #0000ff; stroke-linejoin: miter"/>
   </g>
   <g id="patch_177">
    <path d="M 55.2375 197.502404 
L 42.040385 184.305288 
L 28.843269 197.502404 
L 42.040385 210.699519 
L 55.2375 197.502404 
z
" clip-path="url(#p5518e43c7b)" style="fill: none; stroke: #0000ff; stroke-linejoin: miter"/>
   </g>
   <g id="patch_178">
    <path d="M 213.602885 91.925481 
L 200.405769 78.728365 
L 187.208654 91.925481 
L 200.405769 105.122596 
L 213.602885 91.925481 
z
" clip-path="url(#p5518e43c7b)" style="fill: none; stroke: #0000ff; stroke-linejoin: miter"/>
   </g>
   <g id="patch_179">
    <path d="M 213.602885 39.137019 
L 200.405769 25.939904 
L 187.208654 39.137019 
L 200.405769 52.334135 
L 213.602885 39.137019 
z
" clip-path="url(#p5518e43c7b)" style="fill: none; stroke: #0000ff; stroke-linejoin: miter"/>
   </g>
   <g id="patch_180">
    <path d="M 160.814423 250.290865 
L 147.617308 237.09375 
L 134.420192 250.290865 
L 147.617308 263.487981 
L 160.814423 250.290865 
z
" clip-path="url(#p5518e43c7b)" style="fill: none; stroke: #0000ff; stroke-linejoin: miter"/>
   </g>
   <g id="patch_181">
    <path d="M 213.602885 118.319712 
L 200.405769 105.122596 
L 187.208654 118.319712 
L 200.405769 131.516827 
L 213.602885 118.319712 
z
" clip-path="url(#p5518e43c7b)" style="fill: none; stroke: #0000ff; stroke-linejoin: miter"/>
   </g>
   <g id="patch_182">
    <path d="M 68.434615 210.699519 
L 55.2375 197.502404 
L 42.040385 210.699519 
L 55.2375 223.896635 
L 68.434615 210.699519 
z
" clip-path="url(#p5518e43c7b)" style="fill: none; stroke: #0000ff; stroke-linejoin: miter"/>
   </g>
   <g id="patch_183">
    <path d="M 424.756731 171.108173 
L 411.559615 157.911058 
L 398.3625 171.108173 
L 411.559615 184.305288 
L 424.756731 171.108173 
z
" clip-path="url(#p5518e43c7b)" style="fill: none; stroke: #0000ff; stroke-linejoin: miter"/>
   </g>
   <g id="patch_184">
    <path d="M 42.040385 210.699519 
L 28.843269 197.502404 
L 15.646154 210.699519 
L 28.843269 223.896635 
L 42.040385 210.699519 
z
" clip-path="url(#p5518e43c7b)" style="fill: none; stroke: #0000ff; stroke-linejoin: miter"/>
   </g>
   <g id="patch_185">
    <path d="M 305.982692 184.305288 
L 292.785577 171.108173 
L 279.588462 184.305288 
L 292.785577 197.502404 
L 305.982692 184.305288 
z
" clip-path="url(#p5518e43c7b)" style="fill: none; stroke: #0000ff; stroke-linejoin: miter"/>
   </g>
   <g id="patch_186">
    <path d="M 108.025962 197.502404 
L 94.828846 184.305288 
L 81.631731 197.502404 
L 94.828846 210.699519 
L 108.025962 197.502404 
z
" clip-path="url(#p5518e43c7b)" style="fill: none; stroke: #0000ff; stroke-linejoin: miter"/>
   </g>
   <g id="patch_187">
    <path d="M 437.953846 131.516827 
L 424.756731 118.319712 
L 411.559615 131.516827 
L 424.756731 144.713942 
L 437.953846 131.516827 
z
" clip-path="url(#p5518e43c7b)" style="fill: none; stroke: #0000ff; stroke-linejoin: miter"/>
   </g>
   <g id="patch_188">
    <path d="M 94.828846 210.699519 
L 81.631731 197.502404 
L 68.434615 210.699519 
L 81.631731 223.896635 
L 94.828846 210.699519 
z
" clip-path="url(#p5518e43c7b)" style="fill: none; stroke: #0000ff; stroke-linejoin: miter"/>
   </g>
   <g id="patch_189">
    <path d="M 147.617308 105.122596 
L 134.420192 91.925481 
L 121.223077 105.122596 
L 134.420192 118.319712 
L 147.617308 105.122596 
z
" clip-path="url(#p5518e43c7b)" style="fill: none; stroke: #0000ff; stroke-linejoin: miter"/>
   </g>
   <g id="patch_190">
    <path d="M 42.040385 78.728365 
L 28.843269 65.53125 
L 15.646154 78.728365 
L 28.843269 91.925481 
L 42.040385 78.728365 
z
" clip-path="url(#p5518e43c7b)" style="fill: none; stroke: #0000ff; stroke-linejoin: miter"/>
   </g>
   <g id="patch_191">
    <path d="M 239.997115 118.319712 
L 226.8 105.122596 
L 213.602885 118.319712 
L 226.8 131.516827 
L 239.997115 118.319712 
z
" clip-path="url(#p5518e43c7b)" style="fill: none; stroke: #0000ff; stroke-linejoin: miter"/>
   </g>
   <g id="patch_192">
    <path d="M 68.434615 157.911058 
L 55.2375 144.713942 
L 42.040385 157.911058 
L 55.2375 171.108173 
L 68.434615 157.911058 
z
" clip-path="url(#p5518e43c7b)" style="fill: none; stroke: #0000ff; stroke-linejoin: miter"/>
   </g>
   <g id="patch_193">
    <path d="M 42.040385 157.911058 
L 28.843269 144.713942 
L 15.646154 157.911058 
L 28.843269 171.108173 
L 42.040385 157.911058 
z
" clip-path="url(#p5518e43c7b)" style="fill: none; stroke: #0000ff; stroke-linejoin: miter"/>
   </g>
   <g id="patch_194">
    <path d="M 279.588462 131.516827 
L 266.391346 118.319712 
L 253.194231 131.516827 
L 266.391346 144.713942 
L 279.588462 131.516827 
z
" clip-path="url(#p5518e43c7b)" style="fill: none; stroke: #0000ff; stroke-linejoin: miter"/>
   </g>
   <g id="patch_195">
    <path d="M 239.997115 250.290865 
L 226.8 237.09375 
L 213.602885 250.290865 
L 226.8 263.487981 
L 239.997115 250.290865 
z
" clip-path="url(#p5518e43c7b)" style="fill: none; stroke: #0000ff; stroke-linejoin: miter"/>
   </g>
   <g id="patch_196">
    <path d="M 187.208654 144.713942 
L 174.011538 131.516827 
L 160.814423 144.713942 
L 174.011538 157.911058 
L 187.208654 144.713942 
z
" clip-path="url(#p5518e43c7b)" style="fill: none; stroke: #0000ff; stroke-linejoin: miter"/>
   </g>
   <g id="patch_197">
    <path d="M 213.602885 250.290865 
L 200.405769 237.09375 
L 187.208654 250.290865 
L 200.405769 263.487981 
L 213.602885 250.290865 
z
" clip-path="url(#p5518e43c7b)" style="fill: none; stroke: #0000ff; stroke-linejoin: miter"/>
   </g>
   <g id="patch_198">
    <path d="M 371.968269 144.713942 
L 358.771154 131.516827 
L 345.574038 144.713942 
L 358.771154 157.911058 
L 371.968269 144.713942 
z
" clip-path="url(#p5518e43c7b)" style="fill: none; stroke: #0000ff; stroke-linejoin: miter"/>
   </g>
   <g id="patch_199">
    <path d="M 292.785577 118.319712 
L 279.588462 105.122596 
L 266.391346 118.319712 
L 279.588462 131.516827 
L 292.785577 118.319712 
z
" clip-path="url(#p5518e43c7b)" style="fill: none; stroke: #0000ff; stroke-linejoin: miter"/>
   </g>
   <g id="patch_200">
    <path d="M 292.785577 197.502404 
L 279.588462 184.305288 
L 266.391346 197.502404 
L 279.588462 210.699519 
L 292.785577 197.502404 
z
" clip-path="url(#p5518e43c7b)" style="fill: none; stroke: #0000ff; stroke-linejoin: miter"/>
   </g>
   <g id="patch_201">
    <path d="M 81.631731 118.319712 
L 68.434615 105.122596 
L 55.2375 118.319712 
L 68.434615 131.516827 
L 81.631731 118.319712 
z
" clip-path="url(#p5518e43c7b)" style="fill: none; stroke: #0000ff; stroke-linejoin: miter"/>
   </g>
   <g id="patch_202">
    <path d="M 266.391346 250.290865 
L 253.194231 237.09375 
L 239.997115 250.290865 
L 253.194231 263.487981 
L 266.391346 250.290865 
z
" clip-path="url(#p5518e43c7b)" style="fill: none; stroke: #0000ff; stroke-linejoin: miter"/>
   </g>
   <g id="patch_203">
    <path d="M 239.997115 65.53125 
L 226.8 52.334135 
L 213.602885 65.53125 
L 226.8 78.728365 
L 239.997115 65.53125 
z
" clip-path="url(#p5518e43c7b)" style="fill: none; stroke: #0000ff; stroke-linejoin: miter"/>
   </g>
   <g id="patch_204">
    <path d="M 385.165385 210.699519 
L 371.968269 197.502404 
L 358.771154 210.699519 
L 371.968269 223.896635 
L 385.165385 210.699519 
z
" clip-path="url(#p5518e43c7b)" style="fill: none; stroke: #0000ff; stroke-linejoin: miter"/>
   </g>
   <g id="patch_205">
    <path d="M 305.982692 210.699519 
L 292.785577 197.502404 
L 279.588462 210.699519 
L 292.785577 223.896635 
L 305.982692 210.699519 
z
" clip-path="url(#p5518e43c7b)" style="fill: none; stroke: #0000ff; stroke-linejoin: miter"/>
   </g>
   <g id="patch_206">
    <path d="M 358.771154 210.699519 
L 345.574038 197.502404 
L 332.376923 210.699519 
L 345.574038 223.896635 
L 358.771154 210.699519 
z
" clip-path="url(#p5518e43c7b)" style="fill: none; stroke: #0000ff; stroke-linejoin: miter"/>
   </g>
   <g id="patch_207">
    <path d="M 213.602885 65.53125 
L 200.405769 52.334135 
L 187.208654 65.53125 
L 200.405769 78.728365 
L 213.602885 65.53125 
z
" clip-path="url(#p5518e43c7b)" style="fill: none; stroke: #0000ff; stroke-linejoin: miter"/>
   </g>
   <g id="patch_208">
    <path d="M 160.814423 65.53125 
L 147.617308 52.334135 
L 134.420192 65.53125 
L 147.617308 78.728365 
L 160.814423 65.53125 
z
" clip-path="url(#p5518e43c7b)" style="fill: none; stroke: #0000ff; stroke-linejoin: miter"/>
   </g>
   <g id="patch_209">
    <path d="M 424.756731 197.502404 
L 411.559615 184.305288 
L 398.3625 197.502404 
L 411.559615 210.699519 
L 424.756731 197.502404 
z
" clip-path="url(#p5518e43c7b)" style="fill: none; stroke: #0000ff; stroke-linejoin: miter"/>
   </g>
   <g id="patch_210">
    <path d="M 108.025962 171.108173 
L 94.828846 157.911058 
L 81.631731 171.108173 
L 94.828846 184.305288 
L 108.025962 171.108173 
z
" clip-path="url(#p5518e43c7b)" style="fill: none; stroke: #0000ff; stroke-linejoin: miter"/>
   </g>
   <g id="patch_211">
    <path d="M 332.376923 78.728365 
L 319.179808 65.53125 
L 305.982692 78.728365 
L 319.179808 91.925481 
L 332.376923 78.728365 
z
" clip-path="url(#p5518e43c7b)" style="fill: none; stroke: #0000ff; stroke-linejoin: miter"/>
   </g>
   <g id="patch_212">
    <path d="M 305.982692 78.728365 
L 292.785577 65.53125 
L 279.588462 78.728365 
L 292.785577 91.925481 
L 305.982692 78.728365 
z
" clip-path="url(#p5518e43c7b)" style="fill: none; stroke: #0000ff; stroke-linejoin: miter"/>
   </g>
   <g id="patch_213">
    <path d="M 279.588462 237.09375 
L 266.391346 223.896635 
L 253.194231 237.09375 
L 266.391346 250.290865 
L 279.588462 237.09375 
z
" clip-path="url(#p5518e43c7b)" style="fill: none; stroke: #0000ff; stroke-linejoin: miter"/>
   </g>
   <g id="patch_214">
    <path d="M 213.602885 197.502404 
L 200.405769 184.305288 
L 187.208654 197.502404 
L 200.405769 210.699519 
L 213.602885 197.502404 
z
" clip-path="url(#p5518e43c7b)" style="fill: none; stroke: #0000ff; stroke-linejoin: miter"/>
   </g>
   <g id="patch_215">
    <path d="M 68.434615 237.09375 
L 55.2375 223.896635 
L 42.040385 237.09375 
L 55.2375 250.290865 
L 68.434615 237.09375 
z
" clip-path="url(#p5518e43c7b)" style="fill: none; stroke: #0000ff; stroke-linejoin: miter"/>
   </g>
   <g id="patch_216">
    <path d="M 332.376923 157.911058 
L 319.179808 144.713942 
L 305.982692 157.911058 
L 319.179808 171.108173 
L 332.376923 157.911058 
z
" clip-path="url(#p5518e43c7b)" style="fill: none; stroke: #0000ff; stroke-linejoin: miter"/>
   </g>
   <g id="patch_217">
    <path d="M 305.982692 157.911058 
L 292.785577 144.713942 
L 279.588462 157.911058 
L 292.785577 171.108173 
L 305.982692 157.911058 
z
" clip-path="url(#p5518e43c7b)" style="fill: none; stroke: #0000ff; stroke-linejoin: miter"/>
   </g>
   <g id="patch_218">
    <path d="M 292.785577 65.53125 
L 279.588462 52.334135 
L 266.391346 65.53125 
L 279.588462 78.728365 
L 292.785577 65.53125 
z
" clip-path="url(#p5518e43c7b)" style="fill: none; stroke: #0000ff; stroke-linejoin: miter"/>
   </g>
   <g id="patch_219">
    <path d="M 226.8 184.305288 
L 213.602885 171.108173 
L 200.405769 184.305288 
L 213.602885 197.502404 
L 226.8 184.305288 
z
" clip-path="url(#p5518e43c7b)" style="fill: none; stroke: #0000ff; stroke-linejoin: miter"/>
   </g>
   <g id="patch_220">
    <path d="M 147.617308 184.305288 
L 134.420192 171.108173 
L 121.223077 184.305288 
L 134.420192 197.502404 
L 147.617308 184.305288 
z
" clip-path="url(#p5518e43c7b)" style="fill: none; stroke: #0000ff; stroke-linejoin: miter"/>
   </g>
   <g id="patch_221">
    <path d="M 134.420192 171.108173 
L 121.223077 157.911058 
L 108.025962 171.108173 
L 121.223077 184.305288 
L 134.420192 171.108173 
z
" clip-path="url(#p5518e43c7b)" style="fill: none; stroke: #0000ff; stroke-linejoin: miter"/>
   </g>
   <g id="patch_222">
    <path d="M 266.391346 197.502404 
L 253.194231 184.305288 
L 239.997115 197.502404 
L 253.194231 210.699519 
L 266.391346 197.502404 
z
" clip-path="url(#p5518e43c7b)" style="fill: none; stroke: #0000ff; stroke-linejoin: miter"/>
   </g>
   <g id="patch_223">
    <path d="M 121.223077 237.09375 
L 108.025962 223.896635 
L 94.828846 237.09375 
L 108.025962 250.290865 
L 121.223077 237.09375 
z
" clip-path="url(#p5518e43c7b)" style="fill: none; stroke: #0000ff; stroke-linejoin: miter"/>
   </g>
   <g id="patch_224">
    <path d="M 385.165385 157.911058 
L 371.968269 144.713942 
L 358.771154 157.911058 
L 371.968269 171.108173 
L 385.165385 157.911058 
z
" clip-path="url(#p5518e43c7b)" style="fill: none; stroke: #0000ff; stroke-linejoin: miter"/>
   </g>
   <g id="patch_225">
    <path d="M 358.771154 157.911058 
L 345.574038 144.713942 
L 332.376923 157.911058 
L 345.574038 171.108173 
L 358.771154 157.911058 
z
" clip-path="url(#p5518e43c7b)" style="fill: none; stroke: #0000ff; stroke-linejoin: miter"/>
   </g>
   <g id="patch_226">
    <path d="M 94.828846 52.334135 
L 81.631731 39.137019 
L 68.434615 52.334135 
L 81.631731 65.53125 
L 94.828846 52.334135 
z
" clip-path="url(#p5518e43c7b)" style="fill: none; stroke: #0000ff; stroke-linejoin: miter"/>
   </g>
   <g id="patch_227">
    <path d="M 68.434615 52.334135 
L 55.2375 39.137019 
L 42.040385 52.334135 
L 55.2375 65.53125 
L 68.434615 52.334135 
z
" clip-path="url(#p5518e43c7b)" style="fill: none; stroke: #0000ff; stroke-linejoin: miter"/>
   </g>
   <g id="patch_228">
    <path d="M 187.208654 171.108173 
L 174.011538 157.911058 
L 160.814423 171.108173 
L 174.011538 184.305288 
L 187.208654 171.108173 
z
" clip-path="url(#p5518e43c7b)" style="fill: none; stroke: #0000ff; stroke-linejoin: miter"/>
   </g>
   <g id="patch_229">
    <path d="M 55.2375 223.896635 
L 42.040385 210.699519 
L 28.843269 223.896635 
L 42.040385 237.09375 
L 55.2375 223.896635 
z
" clip-path="url(#p5518e43c7b)" style="fill: none; stroke: #0000ff; stroke-linejoin: miter"/>
   </g>
   <g id="patch_230">
    <path d="M 305.982692 105.122596 
L 292.785577 91.925481 
L 279.588462 105.122596 
L 292.785577 118.319712 
L 305.982692 105.122596 
z
" clip-path="url(#p5518e43c7b)" style="fill: none; stroke: #0000ff; stroke-linejoin: miter"/>
   </g>
   <g id="matplotlib.axis_1"/>
   <g id="matplotlib.axis_2"/>
  </g>
 </g>
 <defs>
  <clipPath id="p5518e43c7b">
   <rect x="7.2" y="7.2" width="439.2" height="288.225"/>
  </clipPath>
 </defs>
</svg>
