<?xml version="1.0" encoding="utf-8" standalone="no"?>
<!DOCTYPE svg PUBLIC "-//W3C//DTD SVG 1.1//EN"
  "http://www.w3.org/Graphics/SVG/1.1/DTD/svg11.dtd">
<svg xmlns:xlink="http://www.w3.org/1999/xlink" width="349.572414pt" height="338.4pt" viewBox="0 0 349.572414 338.4" xmlns="http://www.w3.org/2000/svg" version="1.1">
 <metadata>
  <rdf:RDF xmlns:dc="http://purl.org/dc/elements/1.1/" xmlns:cc="http://creativecommons.org/ns#" xmlns:rdf="http://www.w3.org/1999/02/22-rdf-syntax-ns#">
   <cc:Work>
    <dc:type rdf:resource="http://purl.org/dc/dcmitype/StillImage"/>
    <dc:date>2023-11-27T15:32:58.641821</dc:date>
    <dc:format>image/svg+xml</dc:format>
    <dc:creator>
     <cc:Agent>
      <dc:title>Matplotlib v3.7.2, https://matplotlib.org/</dc:title>
     </cc:Agent>
    </dc:creator>
   </cc:Work>
  </rdf:RDF>
 </metadata>
 <defs>
  <style type="text/css">*{stroke-linejoin: round; stroke-linecap: butt}</style>
 </defs>
 <g id="figure_1">
  <g id="patch_1">
   <path d="M 0 338.4 
L 349.572414 338.4 
L 349.572414 0 
L 0 0 
z
" style="fill: #ffffff"/>
  </g>
  <g id="axes_1">
   <g id="patch_2">
    <path d="M 7.2 331.2 
L 342.372414 331.2 
L 342.372414 7.2 
L 7.2 7.2 
z
" style="fill: #ffffff"/>
   </g>
   <g id="matplotlib.axis_1"/>
   <g id="matplotlib.axis_2"/>
   <g id="line2d_1">
    <path d="M 131.815385 249.770292 
L 142.55809 260.512997 
" clip-path="url(#pc0597b8d16)" style="fill: none; stroke: #0000ff; stroke-linecap: square"/>
   </g>
   <g id="line2d_2">
    <path d="M 24.388329 142.343236 
L 35.131034 153.085942 
" clip-path="url(#pc0597b8d16)" style="fill: none; stroke: #0000ff; stroke-linecap: square"/>
   </g>
   <g id="line2d_3">
    <path d="M 174.786207 13.430769 
L 185.528912 24.173475 
" clip-path="url(#pc0597b8d16)" style="fill: none; stroke: #0000ff; stroke-linecap: square"/>
   </g>
   <g id="line2d_4">
    <path d="M 142.55809 153.085942 
L 131.815385 163.828647 
" clip-path="url(#pc0597b8d16)" style="fill: none; stroke: #0000ff; stroke-linecap: square"/>
   </g>
   <g id="line2d_5">
    <path d="M 142.55809 24.173475 
L 153.300796 34.91618 
" clip-path="url(#pc0597b8d16)" style="fill: none; stroke: #0000ff; stroke-linecap: square"/>
   </g>
   <g id="line2d_6">
    <path d="M 260.727851 34.91618 
L 249.985146 45.658886 
" clip-path="url(#pc0597b8d16)" style="fill: none; stroke: #0000ff; stroke-linecap: square"/>
   </g>
   <g id="line2d_7">
    <path d="M 164.043501 153.085942 
L 174.786207 163.828647 
" clip-path="url(#pc0597b8d16)" style="fill: none; stroke: #0000ff; stroke-linecap: square"/>
   </g>
   <g id="line2d_8">
    <path d="M 24.388329 120.857825 
L 13.645623 131.600531 
" clip-path="url(#pc0597b8d16)" style="fill: none; stroke: #0000ff; stroke-linecap: square"/>
   </g>
   <g id="line2d_9">
    <path d="M 239.24244 206.799469 
L 228.499735 217.542175 
" clip-path="url(#pc0597b8d16)" style="fill: none; stroke: #0000ff; stroke-linecap: square"/>
   </g>
   <g id="line2d_10">
    <path d="M 207.014324 88.629708 
L 217.757029 99.372414 
" clip-path="url(#pc0597b8d16)" style="fill: none; stroke: #0000ff; stroke-linecap: square"/>
   </g>
   <g id="line2d_11">
    <path d="M 121.072679 174.571353 
L 110.329973 185.314058 
" clip-path="url(#pc0597b8d16)" style="fill: none; stroke: #0000ff; stroke-linecap: square"/>
   </g>
   <g id="line2d_12">
    <path d="M 88.844562 271.255703 
L 99.587268 281.998408 
" clip-path="url(#pc0597b8d16)" style="fill: none; stroke: #0000ff; stroke-linecap: square"/>
   </g>
   <g id="line2d_13">
    <path d="M 67.359151 34.91618 
L 78.101857 45.658886 
" clip-path="url(#pc0597b8d16)" style="fill: none; stroke: #0000ff; stroke-linecap: square"/>
   </g>
   <g id="line2d_14">
    <path d="M 174.786207 142.343236 
L 185.528912 153.085942 
" clip-path="url(#pc0597b8d16)" style="fill: none; stroke: #0000ff; stroke-linecap: square"/>
   </g>
   <g id="line2d_15">
    <path d="M 56.616446 217.542175 
L 45.87374 228.284881 
" clip-path="url(#pc0597b8d16)" style="fill: none; stroke: #0000ff; stroke-linecap: square"/>
   </g>
   <g id="line2d_16">
    <path d="M 196.271618 228.284881 
L 185.528912 239.027586 
" clip-path="url(#pc0597b8d16)" style="fill: none; stroke: #0000ff; stroke-linecap: square"/>
   </g>
   <g id="line2d_17">
    <path d="M 174.786207 206.799469 
L 185.528912 217.542175 
" clip-path="url(#pc0597b8d16)" style="fill: none; stroke: #0000ff; stroke-linecap: square"/>
   </g>
   <g id="line2d_18">
    <path d="M 110.329973 99.372414 
L 121.072679 110.115119 
" clip-path="url(#pc0597b8d16)" style="fill: none; stroke: #0000ff; stroke-linecap: square"/>
   </g>
   <g id="line2d_19">
    <path d="M 174.786207 120.857825 
L 164.043501 131.600531 
" clip-path="url(#pc0597b8d16)" style="fill: none; stroke: #0000ff; stroke-linecap: square"/>
   </g>
   <g id="line2d_20">
    <path d="M 67.359151 185.314058 
L 56.616446 196.056764 
" clip-path="url(#pc0597b8d16)" style="fill: none; stroke: #0000ff; stroke-linecap: square"/>
   </g>
   <g id="line2d_21">
    <path d="M 282.213263 163.828647 
L 271.470557 174.571353 
" clip-path="url(#pc0597b8d16)" style="fill: none; stroke: #0000ff; stroke-linecap: square"/>
   </g>
   <g id="line2d_22">
    <path d="M 239.24244 56.401592 
L 228.499735 67.144297 
" clip-path="url(#pc0597b8d16)" style="fill: none; stroke: #0000ff; stroke-linecap: square"/>
   </g>
   <g id="line2d_23">
    <path d="M 217.757029 13.430769 
L 228.499735 24.173475 
" clip-path="url(#pc0597b8d16)" style="fill: none; stroke: #0000ff; stroke-linecap: square"/>
   </g>
   <g id="line2d_24">
    <path d="M 153.300796 185.314058 
L 142.55809 196.056764 
" clip-path="url(#pc0597b8d16)" style="fill: none; stroke: #0000ff; stroke-linecap: square"/>
   </g>
   <g id="line2d_25">
    <path d="M 56.616446 67.144297 
L 45.87374 77.887003 
" clip-path="url(#pc0597b8d16)" style="fill: none; stroke: #0000ff; stroke-linecap: square"/>
   </g>
   <g id="line2d_26">
    <path d="M 131.815385 185.314058 
L 142.55809 196.056764 
" clip-path="url(#pc0597b8d16)" style="fill: none; stroke: #0000ff; stroke-linecap: square"/>
   </g>
   <g id="line2d_27">
    <path d="M 45.87374 34.91618 
L 35.131034 45.658886 
" clip-path="url(#pc0597b8d16)" style="fill: none; stroke: #0000ff; stroke-linecap: square"/>
   </g>
   <g id="line2d_28">
    <path d="M 110.329973 34.91618 
L 121.072679 45.658886 
" clip-path="url(#pc0597b8d16)" style="fill: none; stroke: #0000ff; stroke-linecap: square"/>
   </g>
   <g id="line2d_29">
    <path d="M 153.300796 314.226525 
L 142.55809 324.969231 
" clip-path="url(#pc0597b8d16)" style="fill: none; stroke: #0000ff; stroke-linecap: square"/>
   </g>
   <g id="line2d_30">
    <path d="M 164.043501 260.512997 
L 174.786207 271.255703 
" clip-path="url(#pc0597b8d16)" style="fill: none; stroke: #0000ff; stroke-linecap: square"/>
   </g>
   <g id="line2d_31">
    <path d="M 185.528912 217.542175 
L 196.271618 228.284881 
" clip-path="url(#pc0597b8d16)" style="fill: none; stroke: #0000ff; stroke-linecap: square"/>
   </g>
   <g id="line2d_32">
    <path d="M 260.727851 120.857825 
L 271.470557 131.600531 
" clip-path="url(#pc0597b8d16)" style="fill: none; stroke: #0000ff; stroke-linecap: square"/>
   </g>
   <g id="line2d_33">
    <path d="M 56.616446 131.600531 
L 45.87374 142.343236 
" clip-path="url(#pc0597b8d16)" style="fill: none; stroke: #0000ff; stroke-linecap: square"/>
   </g>
   <g id="line2d_34">
    <path d="M 174.786207 56.401592 
L 164.043501 67.144297 
" clip-path="url(#pc0597b8d16)" style="fill: none; stroke: #0000ff; stroke-linecap: square"/>
   </g>
   <g id="line2d_35">
    <path d="M 142.55809 281.998408 
L 131.815385 292.741114 
" clip-path="url(#pc0597b8d16)" style="fill: none; stroke: #0000ff; stroke-linecap: square"/>
   </g>
   <g id="line2d_36">
    <path d="M 78.101857 196.056764 
L 67.359151 206.799469 
" clip-path="url(#pc0597b8d16)" style="fill: none; stroke: #0000ff; stroke-linecap: square"/>
   </g>
   <g id="line2d_37">
    <path d="M 45.87374 56.401592 
L 56.616446 67.144297 
" clip-path="url(#pc0597b8d16)" style="fill: none; stroke: #0000ff; stroke-linecap: square"/>
   </g>
   <g id="line2d_38">
    <path d="M 174.786207 163.828647 
L 185.528912 174.571353 
" clip-path="url(#pc0597b8d16)" style="fill: none; stroke: #0000ff; stroke-linecap: square"/>
   </g>
   <g id="line2d_39">
    <path d="M 282.213263 142.343236 
L 292.955968 153.085942 
" clip-path="url(#pc0597b8d16)" style="fill: none; stroke: #0000ff; stroke-linecap: square"/>
   </g>
   <g id="line2d_40">
    <path d="M 88.844562 56.401592 
L 99.587268 67.144297 
" clip-path="url(#pc0597b8d16)" style="fill: none; stroke: #0000ff; stroke-linecap: square"/>
   </g>
   <g id="line2d_41">
    <path d="M 196.271618 77.887003 
L 185.528912 88.629708 
" clip-path="url(#pc0597b8d16)" style="fill: none; stroke: #0000ff; stroke-linecap: square"/>
   </g>
   <g id="line2d_42">
    <path d="M 239.24244 206.799469 
L 249.985146 217.542175 
" clip-path="url(#pc0597b8d16)" style="fill: none; stroke: #0000ff; stroke-linecap: square"/>
   </g>
   <g id="line2d_43">
    <path d="M 67.359151 56.401592 
L 56.616446 67.144297 
" clip-path="url(#pc0597b8d16)" style="fill: none; stroke: #0000ff; stroke-linecap: square"/>
   </g>
   <g id="line2d_44">
    <path d="M 217.757029 163.828647 
L 228.499735 174.571353 
" clip-path="url(#pc0597b8d16)" style="fill: none; stroke: #0000ff; stroke-linecap: square"/>
   </g>
   <g id="line2d_45">
    <path d="M 153.300796 142.343236 
L 164.043501 153.085942 
" clip-path="url(#pc0597b8d16)" style="fill: none; stroke: #0000ff; stroke-linecap: square"/>
   </g>
   <g id="line2d_46">
    <path d="M 110.329973 228.284881 
L 121.072679 239.027586 
" clip-path="url(#pc0597b8d16)" style="fill: none; stroke: #0000ff; stroke-linecap: square"/>
   </g>
   <g id="line2d_47">
    <path d="M 217.757029 56.401592 
L 228.499735 67.144297 
" clip-path="url(#pc0597b8d16)" style="fill: none; stroke: #0000ff; stroke-linecap: square"/>
   </g>
   <g id="line2d_48">
    <path d="M 271.470557 174.571353 
L 282.213263 185.314058 
" clip-path="url(#pc0597b8d16)" style="fill: none; stroke: #0000ff; stroke-linecap: square"/>
   </g>
   <g id="line2d_49">
    <path d="M 67.359151 34.91618 
L 56.616446 45.658886 
" clip-path="url(#pc0597b8d16)" style="fill: none; stroke: #0000ff; stroke-linecap: square"/>
   </g>
   <g id="line2d_50">
    <path d="M 260.727851 56.401592 
L 271.470557 67.144297 
" clip-path="url(#pc0597b8d16)" style="fill: none; stroke: #0000ff; stroke-linecap: square"/>
   </g>
   <g id="line2d_51">
    <path d="M 314.441379 88.629708 
L 325.184085 99.372414 
" clip-path="url(#pc0597b8d16)" style="fill: none; stroke: #0000ff; stroke-linecap: square"/>
   </g>
   <g id="line2d_52">
    <path d="M 24.388329 185.314058 
L 13.645623 196.056764 
" clip-path="url(#pc0597b8d16)" style="fill: none; stroke: #0000ff; stroke-linecap: square"/>
   </g>
   <g id="line2d_53">
    <path d="M 282.213263 56.401592 
L 271.470557 67.144297 
" clip-path="url(#pc0597b8d16)" style="fill: none; stroke: #0000ff; stroke-linecap: square"/>
   </g>
   <g id="line2d_54">
    <path d="M 249.985146 153.085942 
L 260.727851 163.828647 
" clip-path="url(#pc0597b8d16)" style="fill: none; stroke: #0000ff; stroke-linecap: square"/>
   </g>
   <g id="line2d_55">
    <path d="M 164.043501 45.658886 
L 174.786207 56.401592 
" clip-path="url(#pc0597b8d16)" style="fill: none; stroke: #0000ff; stroke-linecap: square"/>
   </g>
   <g id="line2d_56">
    <path d="M 88.844562 228.284881 
L 78.101857 239.027586 
" clip-path="url(#pc0597b8d16)" style="fill: none; stroke: #0000ff; stroke-linecap: square"/>
   </g>
   <g id="line2d_57">
    <path d="M 174.786207 99.372414 
L 164.043501 110.115119 
" clip-path="url(#pc0597b8d16)" style="fill: none; stroke: #0000ff; stroke-linecap: square"/>
   </g>
   <g id="line2d_58">
    <path d="M 131.815385 228.284881 
L 121.072679 239.027586 
" clip-path="url(#pc0597b8d16)" style="fill: none; stroke: #0000ff; stroke-linecap: square"/>
   </g>
   <g id="line2d_59">
    <path d="M 185.528912 67.144297 
L 196.271618 77.887003 
" clip-path="url(#pc0597b8d16)" style="fill: none; stroke: #0000ff; stroke-linecap: square"/>
   </g>
   <g id="line2d_60">
    <path d="M 45.87374 185.314058 
L 35.131034 196.056764 
" clip-path="url(#pc0597b8d16)" style="fill: none; stroke: #0000ff; stroke-linecap: square"/>
   </g>
   <g id="line2d_61">
    <path d="M 99.587268 24.173475 
L 88.844562 34.91618 
" clip-path="url(#pc0597b8d16)" style="fill: none; stroke: #0000ff; stroke-linecap: square"/>
   </g>
   <g id="line2d_62">
    <path d="M 249.985146 131.600531 
L 260.727851 142.343236 
" clip-path="url(#pc0597b8d16)" style="fill: none; stroke: #0000ff; stroke-linecap: square"/>
   </g>
   <g id="line2d_63">
    <path d="M 260.727851 99.372414 
L 271.470557 110.115119 
" clip-path="url(#pc0597b8d16)" style="fill: none; stroke: #0000ff; stroke-linecap: square"/>
   </g>
   <g id="line2d_64">
    <path d="M 110.329973 77.887003 
L 121.072679 88.629708 
" clip-path="url(#pc0597b8d16)" style="fill: none; stroke: #0000ff; stroke-linecap: square"/>
   </g>
   <g id="line2d_65">
    <path d="M 239.24244 77.887003 
L 228.499735 88.629708 
" clip-path="url(#pc0597b8d16)" style="fill: none; stroke: #0000ff; stroke-linecap: square"/>
   </g>
   <g id="line2d_66">
    <path d="M 131.815385 314.226525 
L 142.55809 324.969231 
" clip-path="url(#pc0597b8d16)" style="fill: none; stroke: #0000ff; stroke-linecap: square"/>
   </g>
   <g id="line2d_67">
    <path d="M 24.388329 206.799469 
L 35.131034 217.542175 
" clip-path="url(#pc0597b8d16)" style="fill: none; stroke: #0000ff; stroke-linecap: square"/>
   </g>
   <g id="line2d_68">
    <path d="M 249.985146 196.056764 
L 260.727851 206.799469 
" clip-path="url(#pc0597b8d16)" style="fill: none; stroke: #0000ff; stroke-linecap: square"/>
   </g>
   <g id="line2d_69">
    <path d="M 56.616446 196.056764 
L 45.87374 206.799469 
" clip-path="url(#pc0597b8d16)" style="fill: none; stroke: #0000ff; stroke-linecap: square"/>
   </g>
   <g id="line2d_70">
    <path d="M 142.55809 217.542175 
L 131.815385 228.284881 
" clip-path="url(#pc0597b8d16)" style="fill: none; stroke: #0000ff; stroke-linecap: square"/>
   </g>
   <g id="line2d_71">
    <path d="M 24.388329 34.91618 
L 13.645623 45.658886 
" clip-path="url(#pc0597b8d16)" style="fill: none; stroke: #0000ff; stroke-linecap: square"/>
   </g>
   <g id="line2d_72">
    <path d="M 131.815385 271.255703 
L 121.072679 281.998408 
" clip-path="url(#pc0597b8d16)" style="fill: none; stroke: #0000ff; stroke-linecap: square"/>
   </g>
   <g id="line2d_73">
    <path d="M 271.470557 88.629708 
L 282.213263 99.372414 
" clip-path="url(#pc0597b8d16)" style="fill: none; stroke: #0000ff; stroke-linecap: square"/>
   </g>
   <g id="line2d_74">
    <path d="M 110.329973 56.401592 
L 99.587268 67.144297 
" clip-path="url(#pc0597b8d16)" style="fill: none; stroke: #0000ff; stroke-linecap: square"/>
   </g>
   <g id="line2d_75">
    <path d="M 196.271618 99.372414 
L 207.014324 110.115119 
" clip-path="url(#pc0597b8d16)" style="fill: none; stroke: #0000ff; stroke-linecap: square"/>
   </g>
   <g id="line2d_76">
    <path d="M 24.388329 120.857825 
L 35.131034 131.600531 
" clip-path="url(#pc0597b8d16)" style="fill: none; stroke: #0000ff; stroke-linecap: square"/>
   </g>
   <g id="line2d_77">
    <path d="M 325.184085 56.401592 
L 335.92679 67.144297 
" clip-path="url(#pc0597b8d16)" style="fill: none; stroke: #0000ff; stroke-linecap: square"/>
   </g>
   <g id="line2d_78">
    <path d="M 249.985146 67.144297 
L 260.727851 77.887003 
" clip-path="url(#pc0597b8d16)" style="fill: none; stroke: #0000ff; stroke-linecap: square"/>
   </g>
   <g id="line2d_79">
    <path d="M 325.184085 77.887003 
L 335.92679 88.629708 
" clip-path="url(#pc0597b8d16)" style="fill: none; stroke: #0000ff; stroke-linecap: square"/>
   </g>
   <g id="line2d_80">
    <path d="M 292.955968 24.173475 
L 303.698674 34.91618 
" clip-path="url(#pc0597b8d16)" style="fill: none; stroke: #0000ff; stroke-linecap: square"/>
   </g>
   <g id="line2d_81">
    <path d="M 207.014324 153.085942 
L 217.757029 163.828647 
" clip-path="url(#pc0597b8d16)" style="fill: none; stroke: #0000ff; stroke-linecap: square"/>
   </g>
   <g id="line2d_82">
    <path d="M 45.87374 34.91618 
L 56.616446 45.658886 
" clip-path="url(#pc0597b8d16)" style="fill: none; stroke: #0000ff; stroke-linecap: square"/>
   </g>
   <g id="line2d_83">
    <path d="M 131.815385 77.887003 
L 121.072679 88.629708 
" clip-path="url(#pc0597b8d16)" style="fill: none; stroke: #0000ff; stroke-linecap: square"/>
   </g>
   <g id="line2d_84">
    <path d="M 196.271618 13.430769 
L 207.014324 24.173475 
" clip-path="url(#pc0597b8d16)" style="fill: none; stroke: #0000ff; stroke-linecap: square"/>
   </g>
   <g id="line2d_85">
    <path d="M 217.757029 56.401592 
L 207.014324 67.144297 
" clip-path="url(#pc0597b8d16)" style="fill: none; stroke: #0000ff; stroke-linecap: square"/>
   </g>
   <g id="line2d_86">
    <path d="M 239.24244 163.828647 
L 249.985146 174.571353 
" clip-path="url(#pc0597b8d16)" style="fill: none; stroke: #0000ff; stroke-linecap: square"/>
   </g>
   <g id="line2d_87">
    <path d="M 325.184085 13.430769 
L 314.441379 24.173475 
" clip-path="url(#pc0597b8d16)" style="fill: none; stroke: #0000ff; stroke-linecap: square"/>
   </g>
   <g id="line2d_88">
    <path d="M 271.470557 24.173475 
L 282.213263 34.91618 
" clip-path="url(#pc0597b8d16)" style="fill: none; stroke: #0000ff; stroke-linecap: square"/>
   </g>
   <g id="line2d_89">
    <path d="M 228.499735 174.571353 
L 239.24244 185.314058 
" clip-path="url(#pc0597b8d16)" style="fill: none; stroke: #0000ff; stroke-linecap: square"/>
   </g>
   <g id="line2d_90">
    <path d="M 24.388329 56.401592 
L 35.131034 67.144297 
" clip-path="url(#pc0597b8d16)" style="fill: none; stroke: #0000ff; stroke-linecap: square"/>
   </g>
   <g id="line2d_91">
    <path d="M 303.698674 34.91618 
L 292.955968 45.658886 
" clip-path="url(#pc0597b8d16)" style="fill: none; stroke: #0000ff; stroke-linecap: square"/>
   </g>
   <g id="line2d_92">
    <path d="M 88.844562 120.857825 
L 99.587268 131.600531 
" clip-path="url(#pc0597b8d16)" style="fill: none; stroke: #0000ff; stroke-linecap: square"/>
   </g>
   <g id="line2d_93">
    <path d="M 282.213263 99.372414 
L 271.470557 110.115119 
" clip-path="url(#pc0597b8d16)" style="fill: none; stroke: #0000ff; stroke-linecap: square"/>
   </g>
   <g id="line2d_94">
    <path d="M 282.213263 34.91618 
L 271.470557 45.658886 
" clip-path="url(#pc0597b8d16)" style="fill: none; stroke: #0000ff; stroke-linecap: square"/>
   </g>
   <g id="line2d_95">
    <path d="M 110.329973 292.741114 
L 121.072679 303.48382 
" clip-path="url(#pc0597b8d16)" style="fill: none; stroke: #0000ff; stroke-linecap: square"/>
   </g>
   <g id="line2d_96">
    <path d="M 35.131034 67.144297 
L 24.388329 77.887003 
" clip-path="url(#pc0597b8d16)" style="fill: none; stroke: #0000ff; stroke-linecap: square"/>
   </g>
   <g id="line2d_97">
    <path d="M 260.727851 99.372414 
L 249.985146 110.115119 
" clip-path="url(#pc0597b8d16)" style="fill: none; stroke: #0000ff; stroke-linecap: square"/>
   </g>
   <g id="line2d_98">
    <path d="M 142.55809 303.48382 
L 153.300796 314.226525 
" clip-path="url(#pc0597b8d16)" style="fill: none; stroke: #0000ff; stroke-linecap: square"/>
   </g>
   <g id="line2d_99">
    <path d="M 45.87374 185.314058 
L 56.616446 196.056764 
" clip-path="url(#pc0597b8d16)" style="fill: none; stroke: #0000ff; stroke-linecap: square"/>
   </g>
   <g id="line2d_100">
    <path d="M 260.727851 185.314058 
L 271.470557 196.056764 
" clip-path="url(#pc0597b8d16)" style="fill: none; stroke: #0000ff; stroke-linecap: square"/>
   </g>
   <g id="line2d_101">
    <path d="M 142.55809 281.998408 
L 153.300796 292.741114 
" clip-path="url(#pc0597b8d16)" style="fill: none; stroke: #0000ff; stroke-linecap: square"/>
   </g>
   <g id="line2d_102">
    <path d="M 239.24244 120.857825 
L 228.499735 131.600531 
" clip-path="url(#pc0597b8d16)" style="fill: none; stroke: #0000ff; stroke-linecap: square"/>
   </g>
   <g id="line2d_103">
    <path d="M 185.528912 131.600531 
L 196.271618 142.343236 
" clip-path="url(#pc0597b8d16)" style="fill: none; stroke: #0000ff; stroke-linecap: square"/>
   </g>
   <g id="line2d_104">
    <path d="M 78.101857 174.571353 
L 67.359151 185.314058 
" clip-path="url(#pc0597b8d16)" style="fill: none; stroke: #0000ff; stroke-linecap: square"/>
   </g>
   <g id="line2d_105">
    <path d="M 303.698674 13.430769 
L 314.441379 24.173475 
" clip-path="url(#pc0597b8d16)" style="fill: none; stroke: #0000ff; stroke-linecap: square"/>
   </g>
   <g id="line2d_106">
    <path d="M 121.072679 88.629708 
L 110.329973 99.372414 
" clip-path="url(#pc0597b8d16)" style="fill: none; stroke: #0000ff; stroke-linecap: square"/>
   </g>
   <g id="line2d_107">
    <path d="M 88.844562 249.770292 
L 99.587268 260.512997 
" clip-path="url(#pc0597b8d16)" style="fill: none; stroke: #0000ff; stroke-linecap: square"/>
   </g>
   <g id="line2d_108">
    <path d="M 185.528912 196.056764 
L 196.271618 206.799469 
" clip-path="url(#pc0597b8d16)" style="fill: none; stroke: #0000ff; stroke-linecap: square"/>
   </g>
   <g id="line2d_109">
    <path d="M 153.300796 99.372414 
L 142.55809 110.115119 
" clip-path="url(#pc0597b8d16)" style="fill: none; stroke: #0000ff; stroke-linecap: square"/>
   </g>
   <g id="line2d_110">
    <path d="M 196.271618 228.284881 
L 207.014324 239.027586 
" clip-path="url(#pc0597b8d16)" style="fill: none; stroke: #0000ff; stroke-linecap: square"/>
   </g>
   <g id="line2d_111">
    <path d="M 325.184085 34.91618 
L 314.441379 45.658886 
" clip-path="url(#pc0597b8d16)" style="fill: none; stroke: #0000ff; stroke-linecap: square"/>
   </g>
   <g id="line2d_112">
    <path d="M 78.101857 45.658886 
L 67.359151 56.401592 
" clip-path="url(#pc0597b8d16)" style="fill: none; stroke: #0000ff; stroke-linecap: square"/>
   </g>
   <g id="line2d_113">
    <path d="M 164.043501 174.571353 
L 174.786207 185.314058 
" clip-path="url(#pc0597b8d16)" style="fill: none; stroke: #0000ff; stroke-linecap: square"/>
   </g>
   <g id="line2d_114">
    <path d="M 142.55809 153.085942 
L 153.300796 163.828647 
" clip-path="url(#pc0597b8d16)" style="fill: none; stroke: #0000ff; stroke-linecap: square"/>
   </g>
   <g id="line2d_115">
    <path d="M 142.55809 45.658886 
L 153.300796 56.401592 
" clip-path="url(#pc0597b8d16)" style="fill: none; stroke: #0000ff; stroke-linecap: square"/>
   </g>
   <g id="line2d_116">
    <path d="M 110.329973 206.799469 
L 121.072679 217.542175 
" clip-path="url(#pc0597b8d16)" style="fill: none; stroke: #0000ff; stroke-linecap: square"/>
   </g>
   <g id="line2d_117">
    <path d="M 67.359151 249.770292 
L 78.101857 260.512997 
" clip-path="url(#pc0597b8d16)" style="fill: none; stroke: #0000ff; stroke-linecap: square"/>
   </g>
   <g id="line2d_118">
    <path d="M 131.815385 34.91618 
L 142.55809 45.658886 
" clip-path="url(#pc0597b8d16)" style="fill: none; stroke: #0000ff; stroke-linecap: square"/>
   </g>
   <g id="line2d_119">
    <path d="M 24.388329 56.401592 
L 13.645623 67.144297 
" clip-path="url(#pc0597b8d16)" style="fill: none; stroke: #0000ff; stroke-linecap: square"/>
   </g>
   <g id="line2d_120">
    <path d="M 239.24244 56.401592 
L 249.985146 67.144297 
" clip-path="url(#pc0597b8d16)" style="fill: none; stroke: #0000ff; stroke-linecap: square"/>
   </g>
   <g id="line2d_121">
    <path d="M 271.470557 110.115119 
L 282.213263 120.857825 
" clip-path="url(#pc0597b8d16)" style="fill: none; stroke: #0000ff; stroke-linecap: square"/>
   </g>
   <g id="line2d_122">
    <path d="M 121.072679 24.173475 
L 110.329973 34.91618 
" clip-path="url(#pc0597b8d16)" style="fill: none; stroke: #0000ff; stroke-linecap: square"/>
   </g>
   <g id="line2d_123">
    <path d="M 164.043501 196.056764 
L 174.786207 206.799469 
" clip-path="url(#pc0597b8d16)" style="fill: none; stroke: #0000ff; stroke-linecap: square"/>
   </g>
   <g id="line2d_124">
    <path d="M 260.727851 34.91618 
L 271.470557 45.658886 
" clip-path="url(#pc0597b8d16)" style="fill: none; stroke: #0000ff; stroke-linecap: square"/>
   </g>
   <g id="line2d_125">
    <path d="M 153.300796 206.799469 
L 164.043501 217.542175 
" clip-path="url(#pc0597b8d16)" style="fill: none; stroke: #0000ff; stroke-linecap: square"/>
   </g>
   <g id="line2d_126">
    <path d="M 78.101857 110.115119 
L 67.359151 120.857825 
" clip-path="url(#pc0597b8d16)" style="fill: none; stroke: #0000ff; stroke-linecap: square"/>
   </g>
   <g id="line2d_127">
    <path d="M 174.786207 249.770292 
L 164.043501 260.512997 
" clip-path="url(#pc0597b8d16)" style="fill: none; stroke: #0000ff; stroke-linecap: square"/>
   </g>
   <g id="line2d_128">
    <path d="M 56.616446 45.658886 
L 45.87374 56.401592 
" clip-path="url(#pc0597b8d16)" style="fill: none; stroke: #0000ff; stroke-linecap: square"/>
   </g>
   <g id="line2d_129">
    <path d="M 131.815385 13.430769 
L 121.072679 24.173475 
" clip-path="url(#pc0597b8d16)" style="fill: none; stroke: #0000ff; stroke-linecap: square"/>
   </g>
   <g id="line2d_130">
    <path d="M 217.757029 120.857825 
L 228.499735 131.600531 
" clip-path="url(#pc0597b8d16)" style="fill: none; stroke: #0000ff; stroke-linecap: square"/>
   </g>
   <g id="line2d_131">
    <path d="M 110.329973 163.828647 
L 121.072679 174.571353 
" clip-path="url(#pc0597b8d16)" style="fill: none; stroke: #0000ff; stroke-linecap: square"/>
   </g>
   <g id="line2d_132">
    <path d="M 292.955968 88.629708 
L 303.698674 99.372414 
" clip-path="url(#pc0597b8d16)" style="fill: none; stroke: #0000ff; stroke-linecap: square"/>
   </g>
   <g id="line2d_133">
    <path d="M 174.786207 271.255703 
L 185.528912 281.998408 
" clip-path="url(#pc0597b8d16)" style="fill: none; stroke: #0000ff; stroke-linecap: square"/>
   </g>
   <g id="line2d_134">
    <path d="M 110.329973 185.314058 
L 99.587268 196.056764 
" clip-path="url(#pc0597b8d16)" style="fill: none; stroke: #0000ff; stroke-linecap: square"/>
   </g>
   <g id="line2d_135">
    <path d="M 131.815385 206.799469 
L 121.072679 217.542175 
" clip-path="url(#pc0597b8d16)" style="fill: none; stroke: #0000ff; stroke-linecap: square"/>
   </g>
   <g id="line2d_136">
    <path d="M 185.528912 45.658886 
L 196.271618 56.401592 
" clip-path="url(#pc0597b8d16)" style="fill: none; stroke: #0000ff; stroke-linecap: square"/>
   </g>
   <g id="line2d_137">
    <path d="M 99.587268 153.085942 
L 88.844562 163.828647 
" clip-path="url(#pc0597b8d16)" style="fill: none; stroke: #0000ff; stroke-linecap: square"/>
   </g>
   <g id="line2d_138">
    <path d="M 292.955968 153.085942 
L 303.698674 163.828647 
" clip-path="url(#pc0597b8d16)" style="fill: none; stroke: #0000ff; stroke-linecap: square"/>
   </g>
   <g id="line2d_139">
    <path d="M 196.271618 206.799469 
L 185.528912 217.542175 
" clip-path="url(#pc0597b8d16)" style="fill: none; stroke: #0000ff; stroke-linecap: square"/>
   </g>
   <g id="line2d_140">
    <path d="M 282.213263 120.857825 
L 271.470557 131.600531 
" clip-path="url(#pc0597b8d16)" style="fill: none; stroke: #0000ff; stroke-linecap: square"/>
   </g>
   <g id="line2d_141">
    <path d="M 153.300796 271.255703 
L 164.043501 281.998408 
" clip-path="url(#pc0597b8d16)" style="fill: none; stroke: #0000ff; stroke-linecap: square"/>
   </g>
   <g id="line2d_142">
    <path d="M 164.043501 110.115119 
L 174.786207 120.857825 
" clip-path="url(#pc0597b8d16)" style="fill: none; stroke: #0000ff; stroke-linecap: square"/>
   </g>
   <g id="line2d_143">
    <path d="M 174.786207 228.284881 
L 164.043501 239.027586 
" clip-path="url(#pc0597b8d16)" style="fill: none; stroke: #0000ff; stroke-linecap: square"/>
   </g>
   <g id="line2d_144">
    <path d="M 88.844562 13.430769 
L 78.101857 24.173475 
" clip-path="url(#pc0597b8d16)" style="fill: none; stroke: #0000ff; stroke-linecap: square"/>
   </g>
   <g id="line2d_145">
    <path d="M 153.300796 13.430769 
L 142.55809 24.173475 
" clip-path="url(#pc0597b8d16)" style="fill: none; stroke: #0000ff; stroke-linecap: square"/>
   </g>
   <g id="line2d_146">
    <path d="M 196.271618 77.887003 
L 207.014324 88.629708 
" clip-path="url(#pc0597b8d16)" style="fill: none; stroke: #0000ff; stroke-linecap: square"/>
   </g>
   <g id="line2d_147">
    <path d="M 303.698674 99.372414 
L 314.441379 110.115119 
" clip-path="url(#pc0597b8d16)" style="fill: none; stroke: #0000ff; stroke-linecap: square"/>
   </g>
   <g id="line2d_148">
    <path d="M 110.329973 13.430769 
L 121.072679 24.173475 
" clip-path="url(#pc0597b8d16)" style="fill: none; stroke: #0000ff; stroke-linecap: square"/>
   </g>
   <g id="line2d_149">
    <path d="M 67.359151 99.372414 
L 78.101857 110.115119 
" clip-path="url(#pc0597b8d16)" style="fill: none; stroke: #0000ff; stroke-linecap: square"/>
   </g>
   <g id="line2d_150">
    <path d="M 153.300796 249.770292 
L 164.043501 260.512997 
" clip-path="url(#pc0597b8d16)" style="fill: none; stroke: #0000ff; stroke-linecap: square"/>
   </g>
   <g id="line2d_151">
    <path d="M 174.786207 34.91618 
L 164.043501 45.658886 
" clip-path="url(#pc0597b8d16)" style="fill: none; stroke: #0000ff; stroke-linecap: square"/>
   </g>
   <g id="line2d_152">
    <path d="M 239.24244 163.828647 
L 228.499735 174.571353 
" clip-path="url(#pc0597b8d16)" style="fill: none; stroke: #0000ff; stroke-linecap: square"/>
   </g>
   <g id="line2d_153">
    <path d="M 121.072679 217.542175 
L 110.329973 228.284881 
" clip-path="url(#pc0597b8d16)" style="fill: none; stroke: #0000ff; stroke-linecap: square"/>
   </g>
   <g id="line2d_154">
    <path d="M 228.499735 110.115119 
L 239.24244 120.857825 
" clip-path="url(#pc0597b8d16)" style="fill: none; stroke: #0000ff; stroke-linecap: square"/>
   </g>
   <g id="line2d_155">
    <path d="M 153.300796 228.284881 
L 142.55809 239.027586 
" clip-path="url(#pc0597b8d16)" style="fill: none; stroke: #0000ff; stroke-linecap: square"/>
   </g>
   <g id="line2d_156">
    <path d="M 45.87374 99.372414 
L 35.131034 110.115119 
" clip-path="url(#pc0597b8d16)" style="fill: none; stroke: #0000ff; stroke-linecap: square"/>
   </g>
   <g id="line2d_157">
    <path d="M 174.786207 120.857825 
L 185.528912 131.600531 
" clip-path="url(#pc0597b8d16)" style="fill: none; stroke: #0000ff; stroke-linecap: square"/>
   </g>
   <g id="line2d_158">
    <path d="M 282.213263 163.828647 
L 292.955968 174.571353 
" clip-path="url(#pc0597b8d16)" style="fill: none; stroke: #0000ff; stroke-linecap: square"/>
   </g>
   <g id="line2d_159">
    <path d="M 249.985146 45.658886 
L 260.727851 56.401592 
" clip-path="url(#pc0597b8d16)" style="fill: none; stroke: #0000ff; stroke-linecap: square"/>
   </g>
   <g id="line2d_160">
    <path d="M 228.499735 88.629708 
L 239.24244 99.372414 
" clip-path="url(#pc0597b8d16)" style="fill: none; stroke: #0000ff; stroke-linecap: square"/>
   </g>
   <g id="line2d_161">
    <path d="M 217.757029 249.770292 
L 207.014324 260.512997 
" clip-path="url(#pc0597b8d16)" style="fill: none; stroke: #0000ff; stroke-linecap: square"/>
   </g>
   <g id="line2d_162">
    <path d="M 217.757029 185.314058 
L 207.014324 196.056764 
" clip-path="url(#pc0597b8d16)" style="fill: none; stroke: #0000ff; stroke-linecap: square"/>
   </g>
   <g id="line2d_163">
    <path d="M 45.87374 77.887003 
L 35.131034 88.629708 
" clip-path="url(#pc0597b8d16)" style="fill: none; stroke: #0000ff; stroke-linecap: square"/>
   </g>
   <g id="line2d_164">
    <path d="M 196.271618 56.401592 
L 185.528912 67.144297 
" clip-path="url(#pc0597b8d16)" style="fill: none; stroke: #0000ff; stroke-linecap: square"/>
   </g>
   <g id="line2d_165">
    <path d="M 174.786207 77.887003 
L 164.043501 88.629708 
" clip-path="url(#pc0597b8d16)" style="fill: none; stroke: #0000ff; stroke-linecap: square"/>
   </g>
   <g id="line2d_166">
    <path d="M 131.815385 99.372414 
L 142.55809 110.115119 
" clip-path="url(#pc0597b8d16)" style="fill: none; stroke: #0000ff; stroke-linecap: square"/>
   </g>
   <g id="line2d_167">
    <path d="M 260.727851 13.430769 
L 249.985146 24.173475 
" clip-path="url(#pc0597b8d16)" style="fill: none; stroke: #0000ff; stroke-linecap: square"/>
   </g>
   <g id="line2d_168">
    <path d="M 174.786207 56.401592 
L 185.528912 67.144297 
" clip-path="url(#pc0597b8d16)" style="fill: none; stroke: #0000ff; stroke-linecap: square"/>
   </g>
   <g id="line2d_169">
    <path d="M 88.844562 185.314058 
L 99.587268 196.056764 
" clip-path="url(#pc0597b8d16)" style="fill: none; stroke: #0000ff; stroke-linecap: square"/>
   </g>
   <g id="line2d_170">
    <path d="M 239.24244 77.887003 
L 249.985146 88.629708 
" clip-path="url(#pc0597b8d16)" style="fill: none; stroke: #0000ff; stroke-linecap: square"/>
   </g>
   <g id="line2d_171">
    <path d="M 217.757029 120.857825 
L 207.014324 131.600531 
" clip-path="url(#pc0597b8d16)" style="fill: none; stroke: #0000ff; stroke-linecap: square"/>
   </g>
   <g id="line2d_172">
    <path d="M 207.014324 67.144297 
L 217.757029 77.887003 
" clip-path="url(#pc0597b8d16)" style="fill: none; stroke: #0000ff; stroke-linecap: square"/>
   </g>
   <g id="line2d_173">
    <path d="M 99.587268 88.629708 
L 88.844562 99.372414 
" clip-path="url(#pc0597b8d16)" style="fill: none; stroke: #0000ff; stroke-linecap: square"/>
   </g>
   <g id="line2d_174">
    <path d="M 196.271618 163.828647 
L 185.528912 174.571353 
" clip-path="url(#pc0597b8d16)" style="fill: none; stroke: #0000ff; stroke-linecap: square"/>
   </g>
   <g id="line2d_175">
    <path d="M 271.470557 153.085942 
L 282.213263 163.828647 
" clip-path="url(#pc0597b8d16)" style="fill: none; stroke: #0000ff; stroke-linecap: square"/>
   </g>
   <g id="line2d_176">
    <path d="M 88.844562 142.343236 
L 78.101857 153.085942 
" clip-path="url(#pc0597b8d16)" style="fill: none; stroke: #0000ff; stroke-linecap: square"/>
   </g>
   <g id="line2d_177">
    <path d="M 153.300796 77.887003 
L 142.55809 88.629708 
" clip-path="url(#pc0597b8d16)" style="fill: none; stroke: #0000ff; stroke-linecap: square"/>
   </g>
   <g id="line2d_178">
    <path d="M 24.388329 185.314058 
L 35.131034 196.056764 
" clip-path="url(#pc0597b8d16)" style="fill: none; stroke: #0000ff; stroke-linecap: square"/>
   </g>
   <g id="line2d_179">
    <path d="M 207.014324 217.542175 
L 217.757029 228.284881 
" clip-path="url(#pc0597b8d16)" style="fill: none; stroke: #0000ff; stroke-linecap: square"/>
   </g>
   <g id="line2d_180">
    <path d="M 217.757029 34.91618 
L 207.014324 45.658886 
" clip-path="url(#pc0597b8d16)" style="fill: none; stroke: #0000ff; stroke-linecap: square"/>
   </g>
   <g id="line2d_181">
    <path d="M 142.55809 196.056764 
L 131.815385 206.799469 
" clip-path="url(#pc0597b8d16)" style="fill: none; stroke: #0000ff; stroke-linecap: square"/>
   </g>
   <g id="line2d_182">
    <path d="M 131.815385 163.828647 
L 121.072679 174.571353 
" clip-path="url(#pc0597b8d16)" style="fill: none; stroke: #0000ff; stroke-linecap: square"/>
   </g>
   <g id="line2d_183">
    <path d="M 282.213263 56.401592 
L 292.955968 67.144297 
" clip-path="url(#pc0597b8d16)" style="fill: none; stroke: #0000ff; stroke-linecap: square"/>
   </g>
   <g id="line2d_184">
    <path d="M 239.24244 185.314058 
L 228.499735 196.056764 
" clip-path="url(#pc0597b8d16)" style="fill: none; stroke: #0000ff; stroke-linecap: square"/>
   </g>
   <g id="line2d_185">
    <path d="M 303.698674 13.430769 
L 292.955968 24.173475 
" clip-path="url(#pc0597b8d16)" style="fill: none; stroke: #0000ff; stroke-linecap: square"/>
   </g>
   <g id="line2d_186">
    <path d="M 131.815385 228.284881 
L 142.55809 239.027586 
" clip-path="url(#pc0597b8d16)" style="fill: none; stroke: #0000ff; stroke-linecap: square"/>
   </g>
   <g id="line2d_187">
    <path d="M 303.698674 77.887003 
L 314.441379 88.629708 
" clip-path="url(#pc0597b8d16)" style="fill: none; stroke: #0000ff; stroke-linecap: square"/>
   </g>
   <g id="line2d_188">
    <path d="M 282.213263 13.430769 
L 271.470557 24.173475 
" clip-path="url(#pc0597b8d16)" style="fill: none; stroke: #0000ff; stroke-linecap: square"/>
   </g>
   <g id="line2d_189">
    <path d="M 196.271618 142.343236 
L 185.528912 153.085942 
" clip-path="url(#pc0597b8d16)" style="fill: none; stroke: #0000ff; stroke-linecap: square"/>
   </g>
   <g id="line2d_190">
    <path d="M 121.072679 239.027586 
L 110.329973 249.770292 
" clip-path="url(#pc0597b8d16)" style="fill: none; stroke: #0000ff; stroke-linecap: square"/>
   </g>
   <g id="line2d_191">
    <path d="M 153.300796 292.741114 
L 142.55809 303.48382 
" clip-path="url(#pc0597b8d16)" style="fill: none; stroke: #0000ff; stroke-linecap: square"/>
   </g>
   <g id="line2d_192">
    <path d="M 142.55809 217.542175 
L 153.300796 228.284881 
" clip-path="url(#pc0597b8d16)" style="fill: none; stroke: #0000ff; stroke-linecap: square"/>
   </g>
   <g id="line2d_193">
    <path d="M 24.388329 34.91618 
L 35.131034 45.658886 
" clip-path="url(#pc0597b8d16)" style="fill: none; stroke: #0000ff; stroke-linecap: square"/>
   </g>
   <g id="line2d_194">
    <path d="M 207.014324 131.600531 
L 217.757029 142.343236 
" clip-path="url(#pc0597b8d16)" style="fill: none; stroke: #0000ff; stroke-linecap: square"/>
   </g>
   <g id="line2d_195">
    <path d="M 110.329973 142.343236 
L 121.072679 153.085942 
" clip-path="url(#pc0597b8d16)" style="fill: none; stroke: #0000ff; stroke-linecap: square"/>
   </g>
   <g id="line2d_196">
    <path d="M 88.844562 163.828647 
L 78.101857 174.571353 
" clip-path="url(#pc0597b8d16)" style="fill: none; stroke: #0000ff; stroke-linecap: square"/>
   </g>
   <g id="line2d_197">
    <path d="M 67.359151 228.284881 
L 78.101857 239.027586 
" clip-path="url(#pc0597b8d16)" style="fill: none; stroke: #0000ff; stroke-linecap: square"/>
   </g>
   <g id="line2d_198">
    <path d="M 35.131034 196.056764 
L 24.388329 206.799469 
" clip-path="url(#pc0597b8d16)" style="fill: none; stroke: #0000ff; stroke-linecap: square"/>
   </g>
   <g id="line2d_199">
    <path d="M 131.815385 56.401592 
L 121.072679 67.144297 
" clip-path="url(#pc0597b8d16)" style="fill: none; stroke: #0000ff; stroke-linecap: square"/>
   </g>
   <g id="line2d_200">
    <path d="M 303.698674 99.372414 
L 292.955968 110.115119 
" clip-path="url(#pc0597b8d16)" style="fill: none; stroke: #0000ff; stroke-linecap: square"/>
   </g>
   <g id="line2d_201">
    <path d="M 153.300796 163.828647 
L 164.043501 174.571353 
" clip-path="url(#pc0597b8d16)" style="fill: none; stroke: #0000ff; stroke-linecap: square"/>
   </g>
   <g id="line2d_202">
    <path d="M 56.616446 110.115119 
L 45.87374 120.857825 
" clip-path="url(#pc0597b8d16)" style="fill: none; stroke: #0000ff; stroke-linecap: square"/>
   </g>
   <g id="line2d_203">
    <path d="M 239.24244 120.857825 
L 249.985146 131.600531 
" clip-path="url(#pc0597b8d16)" style="fill: none; stroke: #0000ff; stroke-linecap: square"/>
   </g>
   <g id="line2d_204">
    <path d="M 88.844562 34.91618 
L 99.587268 45.658886 
" clip-path="url(#pc0597b8d16)" style="fill: none; stroke: #0000ff; stroke-linecap: square"/>
   </g>
   <g id="line2d_205">
    <path d="M 88.844562 206.799469 
L 78.101857 217.542175 
" clip-path="url(#pc0597b8d16)" style="fill: none; stroke: #0000ff; stroke-linecap: square"/>
   </g>
   <g id="line2d_206">
    <path d="M 185.528912 260.512997 
L 196.271618 271.255703 
" clip-path="url(#pc0597b8d16)" style="fill: none; stroke: #0000ff; stroke-linecap: square"/>
   </g>
   <g id="line2d_207">
    <path d="M 142.55809 45.658886 
L 131.815385 56.401592 
" clip-path="url(#pc0597b8d16)" style="fill: none; stroke: #0000ff; stroke-linecap: square"/>
   </g>
   <g id="line2d_208">
    <path d="M 142.55809 67.144297 
L 153.300796 77.887003 
" clip-path="url(#pc0597b8d16)" style="fill: none; stroke: #0000ff; stroke-linecap: square"/>
   </g>
   <g id="line2d_209">
    <path d="M 131.815385 249.770292 
L 121.072679 260.512997 
" clip-path="url(#pc0597b8d16)" style="fill: none; stroke: #0000ff; stroke-linecap: square"/>
   </g>
   <g id="line2d_210">
    <path d="M 185.528912 174.571353 
L 196.271618 185.314058 
" clip-path="url(#pc0597b8d16)" style="fill: none; stroke: #0000ff; stroke-linecap: square"/>
   </g>
   <g id="line2d_211">
    <path d="M 110.329973 34.91618 
L 99.587268 45.658886 
" clip-path="url(#pc0597b8d16)" style="fill: none; stroke: #0000ff; stroke-linecap: square"/>
   </g>
   <g id="line2d_212">
    <path d="M 110.329973 271.255703 
L 121.072679 281.998408 
" clip-path="url(#pc0597b8d16)" style="fill: none; stroke: #0000ff; stroke-linecap: square"/>
   </g>
   <g id="line2d_213">
    <path d="M 217.757029 99.372414 
L 228.499735 110.115119 
" clip-path="url(#pc0597b8d16)" style="fill: none; stroke: #0000ff; stroke-linecap: square"/>
   </g>
   <g id="line2d_214">
    <path d="M 67.359151 77.887003 
L 78.101857 88.629708 
" clip-path="url(#pc0597b8d16)" style="fill: none; stroke: #0000ff; stroke-linecap: square"/>
   </g>
   <g id="line2d_215">
    <path d="M 249.985146 174.571353 
L 260.727851 185.314058 
" clip-path="url(#pc0597b8d16)" style="fill: none; stroke: #0000ff; stroke-linecap: square"/>
   </g>
   <g id="line2d_216">
    <path d="M 78.101857 239.027586 
L 67.359151 249.770292 
" clip-path="url(#pc0597b8d16)" style="fill: none; stroke: #0000ff; stroke-linecap: square"/>
   </g>
   <g id="line2d_217">
    <path d="M 217.757029 185.314058 
L 228.499735 196.056764 
" clip-path="url(#pc0597b8d16)" style="fill: none; stroke: #0000ff; stroke-linecap: square"/>
   </g>
   <g id="line2d_218">
    <path d="M 35.131034 45.658886 
L 24.388329 56.401592 
" clip-path="url(#pc0597b8d16)" style="fill: none; stroke: #0000ff; stroke-linecap: square"/>
   </g>
   <g id="line2d_219">
    <path d="M 99.587268 67.144297 
L 88.844562 77.887003 
" clip-path="url(#pc0597b8d16)" style="fill: none; stroke: #0000ff; stroke-linecap: square"/>
   </g>
   <g id="line2d_220">
    <path d="M 142.55809 174.571353 
L 153.300796 185.314058 
" clip-path="url(#pc0597b8d16)" style="fill: none; stroke: #0000ff; stroke-linecap: square"/>
   </g>
   <g id="line2d_221">
    <path d="M 174.786207 142.343236 
L 164.043501 153.085942 
" clip-path="url(#pc0597b8d16)" style="fill: none; stroke: #0000ff; stroke-linecap: square"/>
   </g>
   <g id="line2d_222">
    <path d="M 260.727851 13.430769 
L 271.470557 24.173475 
" clip-path="url(#pc0597b8d16)" style="fill: none; stroke: #0000ff; stroke-linecap: square"/>
   </g>
   <g id="line2d_223">
    <path d="M 185.528912 110.115119 
L 196.271618 120.857825 
" clip-path="url(#pc0597b8d16)" style="fill: none; stroke: #0000ff; stroke-linecap: square"/>
   </g>
   <g id="line2d_224">
    <path d="M 35.131034 131.600531 
L 24.388329 142.343236 
" clip-path="url(#pc0597b8d16)" style="fill: none; stroke: #0000ff; stroke-linecap: square"/>
   </g>
   <g id="line2d_225">
    <path d="M 67.359151 99.372414 
L 56.616446 110.115119 
" clip-path="url(#pc0597b8d16)" style="fill: none; stroke: #0000ff; stroke-linecap: square"/>
   </g>
   <g id="line2d_226">
    <path d="M 88.844562 77.887003 
L 78.101857 88.629708 
" clip-path="url(#pc0597b8d16)" style="fill: none; stroke: #0000ff; stroke-linecap: square"/>
   </g>
   <g id="line2d_227">
    <path d="M 56.616446 174.571353 
L 45.87374 185.314058 
" clip-path="url(#pc0597b8d16)" style="fill: none; stroke: #0000ff; stroke-linecap: square"/>
   </g>
   <g id="line2d_228">
    <path d="M 131.815385 292.741114 
L 142.55809 303.48382 
" clip-path="url(#pc0597b8d16)" style="fill: none; stroke: #0000ff; stroke-linecap: square"/>
   </g>
   <g id="line2d_229">
    <path d="M 196.271618 206.799469 
L 207.014324 217.542175 
" clip-path="url(#pc0597b8d16)" style="fill: none; stroke: #0000ff; stroke-linecap: square"/>
   </g>
   <g id="line2d_230">
    <path d="M 142.55809 260.512997 
L 153.300796 271.255703 
" clip-path="url(#pc0597b8d16)" style="fill: none; stroke: #0000ff; stroke-linecap: square"/>
   </g>
   <g id="line2d_231">
    <path d="M 67.359151 228.284881 
L 56.616446 239.027586 
" clip-path="url(#pc0597b8d16)" style="fill: none; stroke: #0000ff; stroke-linecap: square"/>
   </g>
   <g id="line2d_232">
    <path d="M 249.985146 110.115119 
L 260.727851 120.857825 
" clip-path="url(#pc0597b8d16)" style="fill: none; stroke: #0000ff; stroke-linecap: square"/>
   </g>
   <g id="line2d_233">
    <path d="M 239.24244 99.372414 
L 228.499735 110.115119 
" clip-path="url(#pc0597b8d16)" style="fill: none; stroke: #0000ff; stroke-linecap: square"/>
   </g>
   <g id="line2d_234">
    <path d="M 325.184085 120.857825 
L 335.92679 131.600531 
" clip-path="url(#pc0597b8d16)" style="fill: none; stroke: #0000ff; stroke-linecap: square"/>
   </g>
   <g id="line2d_235">
    <path d="M 217.757029 228.284881 
L 228.499735 239.027586 
" clip-path="url(#pc0597b8d16)" style="fill: none; stroke: #0000ff; stroke-linecap: square"/>
   </g>
   <g id="line2d_236">
    <path d="M 110.329973 120.857825 
L 121.072679 131.600531 
" clip-path="url(#pc0597b8d16)" style="fill: none; stroke: #0000ff; stroke-linecap: square"/>
   </g>
   <g id="line2d_237">
    <path d="M 142.55809 131.600531 
L 131.815385 142.343236 
" clip-path="url(#pc0597b8d16)" style="fill: none; stroke: #0000ff; stroke-linecap: square"/>
   </g>
   <g id="line2d_238">
    <path d="M 78.101857 88.629708 
L 67.359151 99.372414 
" clip-path="url(#pc0597b8d16)" style="fill: none; stroke: #0000ff; stroke-linecap: square"/>
   </g>
   <g id="line2d_239">
    <path d="M 217.757029 34.91618 
L 228.499735 45.658886 
" clip-path="url(#pc0597b8d16)" style="fill: none; stroke: #0000ff; stroke-linecap: square"/>
   </g>
   <g id="line2d_240">
    <path d="M 142.55809 196.056764 
L 153.300796 206.799469 
" clip-path="url(#pc0597b8d16)" style="fill: none; stroke: #0000ff; stroke-linecap: square"/>
   </g>
   <g id="line2d_241">
    <path d="M 35.131034 174.571353 
L 24.388329 185.314058 
" clip-path="url(#pc0597b8d16)" style="fill: none; stroke: #0000ff; stroke-linecap: square"/>
   </g>
   <g id="line2d_242">
    <path d="M 325.184085 142.343236 
L 314.441379 153.085942 
" clip-path="url(#pc0597b8d16)" style="fill: none; stroke: #0000ff; stroke-linecap: square"/>
   </g>
   <g id="line2d_243">
    <path d="M 131.815385 142.343236 
L 121.072679 153.085942 
" clip-path="url(#pc0597b8d16)" style="fill: none; stroke: #0000ff; stroke-linecap: square"/>
   </g>
   <g id="line2d_244">
    <path d="M 282.213263 77.887003 
L 292.955968 88.629708 
" clip-path="url(#pc0597b8d16)" style="fill: none; stroke: #0000ff; stroke-linecap: square"/>
   </g>
   <g id="line2d_245">
    <path d="M 110.329973 77.887003 
L 99.587268 88.629708 
" clip-path="url(#pc0597b8d16)" style="fill: none; stroke: #0000ff; stroke-linecap: square"/>
   </g>
   <g id="line2d_246">
    <path d="M 45.87374 99.372414 
L 56.616446 110.115119 
" clip-path="url(#pc0597b8d16)" style="fill: none; stroke: #0000ff; stroke-linecap: square"/>
   </g>
   <g id="line2d_247">
    <path d="M 88.844562 120.857825 
L 78.101857 131.600531 
" clip-path="url(#pc0597b8d16)" style="fill: none; stroke: #0000ff; stroke-linecap: square"/>
   </g>
   <g id="line2d_248">
    <path d="M 110.329973 99.372414 
L 99.587268 110.115119 
" clip-path="url(#pc0597b8d16)" style="fill: none; stroke: #0000ff; stroke-linecap: square"/>
   </g>
   <g id="line2d_249">
    <path d="M 142.55809 67.144297 
L 131.815385 77.887003 
" clip-path="url(#pc0597b8d16)" style="fill: none; stroke: #0000ff; stroke-linecap: square"/>
   </g>
   <g id="line2d_250">
    <path d="M 174.786207 185.314058 
L 185.528912 196.056764 
" clip-path="url(#pc0597b8d16)" style="fill: none; stroke: #0000ff; stroke-linecap: square"/>
   </g>
   <g id="line2d_251">
    <path d="M 67.359151 142.343236 
L 56.616446 153.085942 
" clip-path="url(#pc0597b8d16)" style="fill: none; stroke: #0000ff; stroke-linecap: square"/>
   </g>
   <g id="line2d_252">
    <path d="M 67.359151 206.799469 
L 56.616446 217.542175 
" clip-path="url(#pc0597b8d16)" style="fill: none; stroke: #0000ff; stroke-linecap: square"/>
   </g>
   <g id="line2d_253">
    <path d="M 325.184085 99.372414 
L 335.92679 110.115119 
" clip-path="url(#pc0597b8d16)" style="fill: none; stroke: #0000ff; stroke-linecap: square"/>
   </g>
   <g id="line2d_254">
    <path d="M 314.441379 131.600531 
L 325.184085 142.343236 
" clip-path="url(#pc0597b8d16)" style="fill: none; stroke: #0000ff; stroke-linecap: square"/>
   </g>
   <g id="line2d_255">
    <path d="M 303.698674 142.343236 
L 314.441379 153.085942 
" clip-path="url(#pc0597b8d16)" style="fill: none; stroke: #0000ff; stroke-linecap: square"/>
   </g>
   <g id="line2d_256">
    <path d="M 292.955968 131.600531 
L 303.698674 142.343236 
" clip-path="url(#pc0597b8d16)" style="fill: none; stroke: #0000ff; stroke-linecap: square"/>
   </g>
   <g id="line2d_257">
    <path d="M 207.014324 196.056764 
L 217.757029 206.799469 
" clip-path="url(#pc0597b8d16)" style="fill: none; stroke: #0000ff; stroke-linecap: square"/>
   </g>
   <g id="line2d_258">
    <path d="M 131.815385 120.857825 
L 121.072679 131.600531 
" clip-path="url(#pc0597b8d16)" style="fill: none; stroke: #0000ff; stroke-linecap: square"/>
   </g>
   <g id="line2d_259">
    <path d="M 45.87374 77.887003 
L 56.616446 88.629708 
" clip-path="url(#pc0597b8d16)" style="fill: none; stroke: #0000ff; stroke-linecap: square"/>
   </g>
   <g id="line2d_260">
    <path d="M 99.587268 217.542175 
L 88.844562 228.284881 
" clip-path="url(#pc0597b8d16)" style="fill: none; stroke: #0000ff; stroke-linecap: square"/>
   </g>
   <g id="line2d_261">
    <path d="M 260.727851 206.799469 
L 249.985146 217.542175 
" clip-path="url(#pc0597b8d16)" style="fill: none; stroke: #0000ff; stroke-linecap: square"/>
   </g>
   <g id="line2d_262">
    <path d="M 292.955968 67.144297 
L 303.698674 77.887003 
" clip-path="url(#pc0597b8d16)" style="fill: none; stroke: #0000ff; stroke-linecap: square"/>
   </g>
   <g id="line2d_263">
    <path d="M 131.815385 13.430769 
L 142.55809 24.173475 
" clip-path="url(#pc0597b8d16)" style="fill: none; stroke: #0000ff; stroke-linecap: square"/>
   </g>
   <g id="line2d_264">
    <path d="M 196.271618 120.857825 
L 185.528912 131.600531 
" clip-path="url(#pc0597b8d16)" style="fill: none; stroke: #0000ff; stroke-linecap: square"/>
   </g>
   <g id="line2d_265">
    <path d="M 45.87374 163.828647 
L 35.131034 174.571353 
" clip-path="url(#pc0597b8d16)" style="fill: none; stroke: #0000ff; stroke-linecap: square"/>
   </g>
   <g id="line2d_266">
    <path d="M 164.043501 88.629708 
L 174.786207 99.372414 
" clip-path="url(#pc0597b8d16)" style="fill: none; stroke: #0000ff; stroke-linecap: square"/>
   </g>
   <g id="line2d_267">
    <path d="M 153.300796 185.314058 
L 164.043501 196.056764 
" clip-path="url(#pc0597b8d16)" style="fill: none; stroke: #0000ff; stroke-linecap: square"/>
   </g>
   <g id="line2d_268">
    <path d="M 164.043501 24.173475 
L 174.786207 34.91618 
" clip-path="url(#pc0597b8d16)" style="fill: none; stroke: #0000ff; stroke-linecap: square"/>
   </g>
   <g id="line2d_269">
    <path d="M 196.271618 56.401592 
L 207.014324 67.144297 
" clip-path="url(#pc0597b8d16)" style="fill: none; stroke: #0000ff; stroke-linecap: square"/>
   </g>
   <g id="line2d_270">
    <path d="M 78.101857 24.173475 
L 67.359151 34.91618 
" clip-path="url(#pc0597b8d16)" style="fill: none; stroke: #0000ff; stroke-linecap: square"/>
   </g>
   <g id="line2d_271">
    <path d="M 35.131034 110.115119 
L 24.388329 120.857825 
" clip-path="url(#pc0597b8d16)" style="fill: none; stroke: #0000ff; stroke-linecap: square"/>
   </g>
   <g id="line2d_272">
    <path d="M 217.757029 99.372414 
L 207.014324 110.115119 
" clip-path="url(#pc0597b8d16)" style="fill: none; stroke: #0000ff; stroke-linecap: square"/>
   </g>
   <g id="line2d_273">
    <path d="M 67.359151 77.887003 
L 56.616446 88.629708 
" clip-path="url(#pc0597b8d16)" style="fill: none; stroke: #0000ff; stroke-linecap: square"/>
   </g>
   <g id="line2d_274">
    <path d="M 282.213263 142.343236 
L 271.470557 153.085942 
" clip-path="url(#pc0597b8d16)" style="fill: none; stroke: #0000ff; stroke-linecap: square"/>
   </g>
   <g id="line2d_275">
    <path d="M 271.470557 67.144297 
L 282.213263 77.887003 
" clip-path="url(#pc0597b8d16)" style="fill: none; stroke: #0000ff; stroke-linecap: square"/>
   </g>
   <g id="line2d_276">
    <path d="M 196.271618 271.255703 
L 185.528912 281.998408 
" clip-path="url(#pc0597b8d16)" style="fill: none; stroke: #0000ff; stroke-linecap: square"/>
   </g>
   <g id="line2d_277">
    <path d="M 88.844562 56.401592 
L 78.101857 67.144297 
" clip-path="url(#pc0597b8d16)" style="fill: none; stroke: #0000ff; stroke-linecap: square"/>
   </g>
   <g id="line2d_278">
    <path d="M 110.329973 13.430769 
L 99.587268 24.173475 
" clip-path="url(#pc0597b8d16)" style="fill: none; stroke: #0000ff; stroke-linecap: square"/>
   </g>
   <g id="line2d_279">
    <path d="M 282.213263 120.857825 
L 292.955968 131.600531 
" clip-path="url(#pc0597b8d16)" style="fill: none; stroke: #0000ff; stroke-linecap: square"/>
   </g>
   <g id="line2d_280">
    <path d="M 142.55809 174.571353 
L 131.815385 185.314058 
" clip-path="url(#pc0597b8d16)" style="fill: none; stroke: #0000ff; stroke-linecap: square"/>
   </g>
   <g id="line2d_281">
    <path d="M 142.55809 110.115119 
L 131.815385 120.857825 
" clip-path="url(#pc0597b8d16)" style="fill: none; stroke: #0000ff; stroke-linecap: square"/>
   </g>
   <g id="line2d_282">
    <path d="M 196.271618 163.828647 
L 207.014324 174.571353 
" clip-path="url(#pc0597b8d16)" style="fill: none; stroke: #0000ff; stroke-linecap: square"/>
   </g>
   <g id="line2d_283">
    <path d="M 228.499735 24.173475 
L 239.24244 34.91618 
" clip-path="url(#pc0597b8d16)" style="fill: none; stroke: #0000ff; stroke-linecap: square"/>
   </g>
   <g id="line2d_284">
    <path d="M 45.87374 13.430769 
L 35.131034 24.173475 
" clip-path="url(#pc0597b8d16)" style="fill: none; stroke: #0000ff; stroke-linecap: square"/>
   </g>
   <g id="line2d_285">
    <path d="M 121.072679 281.998408 
L 110.329973 292.741114 
" clip-path="url(#pc0597b8d16)" style="fill: none; stroke: #0000ff; stroke-linecap: square"/>
   </g>
   <g id="line2d_286">
    <path d="M 45.87374 228.284881 
L 56.616446 239.027586 
" clip-path="url(#pc0597b8d16)" style="fill: none; stroke: #0000ff; stroke-linecap: square"/>
   </g>
   <g id="line2d_287">
    <path d="M 174.786207 34.91618 
L 185.528912 45.658886 
" clip-path="url(#pc0597b8d16)" style="fill: none; stroke: #0000ff; stroke-linecap: square"/>
   </g>
   <g id="line2d_288">
    <path d="M 153.300796 163.828647 
L 142.55809 174.571353 
" clip-path="url(#pc0597b8d16)" style="fill: none; stroke: #0000ff; stroke-linecap: square"/>
   </g>
   <g id="line2d_289">
    <path d="M 164.043501 239.027586 
L 174.786207 249.770292 
" clip-path="url(#pc0597b8d16)" style="fill: none; stroke: #0000ff; stroke-linecap: square"/>
   </g>
   <g id="line2d_290">
    <path d="M 174.786207 292.741114 
L 164.043501 303.48382 
" clip-path="url(#pc0597b8d16)" style="fill: none; stroke: #0000ff; stroke-linecap: square"/>
   </g>
   <g id="line2d_291">
    <path d="M 228.499735 153.085942 
L 239.24244 163.828647 
" clip-path="url(#pc0597b8d16)" style="fill: none; stroke: #0000ff; stroke-linecap: square"/>
   </g>
   <g id="line2d_292">
    <path d="M 142.55809 260.512997 
L 131.815385 271.255703 
" clip-path="url(#pc0597b8d16)" style="fill: none; stroke: #0000ff; stroke-linecap: square"/>
   </g>
   <g id="line2d_293">
    <path d="M 239.24244 185.314058 
L 249.985146 196.056764 
" clip-path="url(#pc0597b8d16)" style="fill: none; stroke: #0000ff; stroke-linecap: square"/>
   </g>
   <g id="line2d_294">
    <path d="M 88.844562 99.372414 
L 99.587268 110.115119 
" clip-path="url(#pc0597b8d16)" style="fill: none; stroke: #0000ff; stroke-linecap: square"/>
   </g>
   <g id="line2d_295">
    <path d="M 196.271618 142.343236 
L 207.014324 153.085942 
" clip-path="url(#pc0597b8d16)" style="fill: none; stroke: #0000ff; stroke-linecap: square"/>
   </g>
   <g id="line2d_296">
    <path d="M 239.24244 99.372414 
L 249.985146 110.115119 
" clip-path="url(#pc0597b8d16)" style="fill: none; stroke: #0000ff; stroke-linecap: square"/>
   </g>
   <g id="line2d_297">
    <path d="M 99.587268 196.056764 
L 88.844562 206.799469 
" clip-path="url(#pc0597b8d16)" style="fill: none; stroke: #0000ff; stroke-linecap: square"/>
   </g>
   <g id="line2d_298">
    <path d="M 260.727851 163.828647 
L 249.985146 174.571353 
" clip-path="url(#pc0597b8d16)" style="fill: none; stroke: #0000ff; stroke-linecap: square"/>
   </g>
   <g id="line2d_299">
    <path d="M 325.184085 56.401592 
L 314.441379 67.144297 
" clip-path="url(#pc0597b8d16)" style="fill: none; stroke: #0000ff; stroke-linecap: square"/>
   </g>
   <g id="line2d_300">
    <path d="M 325.184085 77.887003 
L 314.441379 88.629708 
" clip-path="url(#pc0597b8d16)" style="fill: none; stroke: #0000ff; stroke-linecap: square"/>
   </g>
   <g id="line2d_301">
    <path d="M 239.24244 34.91618 
L 249.985146 45.658886 
" clip-path="url(#pc0597b8d16)" style="fill: none; stroke: #0000ff; stroke-linecap: square"/>
   </g>
   <g id="line2d_302">
    <path d="M 67.359151 13.430769 
L 78.101857 24.173475 
" clip-path="url(#pc0597b8d16)" style="fill: none; stroke: #0000ff; stroke-linecap: square"/>
   </g>
   <g id="line2d_303">
    <path d="M 24.388329 99.372414 
L 35.131034 110.115119 
" clip-path="url(#pc0597b8d16)" style="fill: none; stroke: #0000ff; stroke-linecap: square"/>
   </g>
   <g id="line2d_304">
    <path d="M 164.043501 217.542175 
L 174.786207 228.284881 
" clip-path="url(#pc0597b8d16)" style="fill: none; stroke: #0000ff; stroke-linecap: square"/>
   </g>
   <g id="line2d_305">
    <path d="M 110.329973 206.799469 
L 99.587268 217.542175 
" clip-path="url(#pc0597b8d16)" style="fill: none; stroke: #0000ff; stroke-linecap: square"/>
   </g>
   <g id="line2d_306">
    <path d="M 153.300796 206.799469 
L 142.55809 217.542175 
" clip-path="url(#pc0597b8d16)" style="fill: none; stroke: #0000ff; stroke-linecap: square"/>
   </g>
   <g id="line2d_307">
    <path d="M 142.55809 131.600531 
L 153.300796 142.343236 
" clip-path="url(#pc0597b8d16)" style="fill: none; stroke: #0000ff; stroke-linecap: square"/>
   </g>
   <g id="line2d_308">
    <path d="M 260.727851 142.343236 
L 249.985146 153.085942 
" clip-path="url(#pc0597b8d16)" style="fill: none; stroke: #0000ff; stroke-linecap: square"/>
   </g>
   <g id="line2d_309">
    <path d="M 121.072679 131.600531 
L 110.329973 142.343236 
" clip-path="url(#pc0597b8d16)" style="fill: none; stroke: #0000ff; stroke-linecap: square"/>
   </g>
   <g id="line2d_310">
    <path d="M 174.786207 249.770292 
L 185.528912 260.512997 
" clip-path="url(#pc0597b8d16)" style="fill: none; stroke: #0000ff; stroke-linecap: square"/>
   </g>
   <g id="line2d_311">
    <path d="M 153.300796 120.857825 
L 164.043501 131.600531 
" clip-path="url(#pc0597b8d16)" style="fill: none; stroke: #0000ff; stroke-linecap: square"/>
   </g>
   <g id="line2d_312">
    <path d="M 67.359151 142.343236 
L 78.101857 153.085942 
" clip-path="url(#pc0597b8d16)" style="fill: none; stroke: #0000ff; stroke-linecap: square"/>
   </g>
   <g id="line2d_313">
    <path d="M 153.300796 142.343236 
L 142.55809 153.085942 
" clip-path="url(#pc0597b8d16)" style="fill: none; stroke: #0000ff; stroke-linecap: square"/>
   </g>
   <g id="line2d_314">
    <path d="M 185.528912 24.173475 
L 196.271618 34.91618 
" clip-path="url(#pc0597b8d16)" style="fill: none; stroke: #0000ff; stroke-linecap: square"/>
   </g>
   <g id="line2d_315">
    <path d="M 110.329973 228.284881 
L 99.587268 239.027586 
" clip-path="url(#pc0597b8d16)" style="fill: none; stroke: #0000ff; stroke-linecap: square"/>
   </g>
   <g id="line2d_316">
    <path d="M 303.698674 56.401592 
L 314.441379 67.144297 
" clip-path="url(#pc0597b8d16)" style="fill: none; stroke: #0000ff; stroke-linecap: square"/>
   </g>
   <g id="line2d_317">
    <path d="M 153.300796 249.770292 
L 142.55809 260.512997 
" clip-path="url(#pc0597b8d16)" style="fill: none; stroke: #0000ff; stroke-linecap: square"/>
   </g>
   <g id="line2d_318">
    <path d="M 131.815385 206.799469 
L 142.55809 217.542175 
" clip-path="url(#pc0597b8d16)" style="fill: none; stroke: #0000ff; stroke-linecap: square"/>
   </g>
   <g id="line2d_319">
    <path d="M 185.528912 239.027586 
L 196.271618 249.770292 
" clip-path="url(#pc0597b8d16)" style="fill: none; stroke: #0000ff; stroke-linecap: square"/>
   </g>
   <g id="line2d_320">
    <path d="M 45.87374 142.343236 
L 35.131034 153.085942 
" clip-path="url(#pc0597b8d16)" style="fill: none; stroke: #0000ff; stroke-linecap: square"/>
   </g>
   <g id="line2d_321">
    <path d="M 153.300796 56.401592 
L 164.043501 67.144297 
" clip-path="url(#pc0597b8d16)" style="fill: none; stroke: #0000ff; stroke-linecap: square"/>
   </g>
   <g id="line2d_322">
    <path d="M 78.101857 153.085942 
L 67.359151 163.828647 
" clip-path="url(#pc0597b8d16)" style="fill: none; stroke: #0000ff; stroke-linecap: square"/>
   </g>
   <g id="line2d_323">
    <path d="M 217.757029 228.284881 
L 207.014324 239.027586 
" clip-path="url(#pc0597b8d16)" style="fill: none; stroke: #0000ff; stroke-linecap: square"/>
   </g>
   <g id="line2d_324">
    <path d="M 88.844562 249.770292 
L 78.101857 260.512997 
" clip-path="url(#pc0597b8d16)" style="fill: none; stroke: #0000ff; stroke-linecap: square"/>
   </g>
   <g id="line2d_325">
    <path d="M 67.359151 13.430769 
L 56.616446 24.173475 
" clip-path="url(#pc0597b8d16)" style="fill: none; stroke: #0000ff; stroke-linecap: square"/>
   </g>
   <g id="line2d_326">
    <path d="M 24.388329 99.372414 
L 13.645623 110.115119 
" clip-path="url(#pc0597b8d16)" style="fill: none; stroke: #0000ff; stroke-linecap: square"/>
   </g>
   <g id="line2d_327">
    <path d="M 207.014324 45.658886 
L 217.757029 56.401592 
" clip-path="url(#pc0597b8d16)" style="fill: none; stroke: #0000ff; stroke-linecap: square"/>
   </g>
   <g id="line2d_328">
    <path d="M 314.441379 67.144297 
L 325.184085 77.887003 
" clip-path="url(#pc0597b8d16)" style="fill: none; stroke: #0000ff; stroke-linecap: square"/>
   </g>
   <g id="line2d_329">
    <path d="M 174.786207 99.372414 
L 185.528912 110.115119 
" clip-path="url(#pc0597b8d16)" style="fill: none; stroke: #0000ff; stroke-linecap: square"/>
   </g>
   <g id="line2d_330">
    <path d="M 88.844562 228.284881 
L 99.587268 239.027586 
" clip-path="url(#pc0597b8d16)" style="fill: none; stroke: #0000ff; stroke-linecap: square"/>
   </g>
   <g id="line2d_331">
    <path d="M 260.727851 77.887003 
L 271.470557 88.629708 
" clip-path="url(#pc0597b8d16)" style="fill: none; stroke: #0000ff; stroke-linecap: square"/>
   </g>
   <g id="line2d_332">
    <path d="M 174.786207 206.799469 
L 164.043501 217.542175 
" clip-path="url(#pc0597b8d16)" style="fill: none; stroke: #0000ff; stroke-linecap: square"/>
   </g>
   <g id="line2d_333">
    <path d="M 142.55809 239.027586 
L 131.815385 249.770292 
" clip-path="url(#pc0597b8d16)" style="fill: none; stroke: #0000ff; stroke-linecap: square"/>
   </g>
   <g id="line2d_334">
    <path d="M 314.441379 45.658886 
L 325.184085 56.401592 
" clip-path="url(#pc0597b8d16)" style="fill: none; stroke: #0000ff; stroke-linecap: square"/>
   </g>
   <g id="line2d_335">
    <path d="M 45.87374 206.799469 
L 35.131034 217.542175 
" clip-path="url(#pc0597b8d16)" style="fill: none; stroke: #0000ff; stroke-linecap: square"/>
   </g>
   <g id="line2d_336">
    <path d="M 131.815385 34.91618 
L 121.072679 45.658886 
" clip-path="url(#pc0597b8d16)" style="fill: none; stroke: #0000ff; stroke-linecap: square"/>
   </g>
   <g id="line2d_337">
    <path d="M 153.300796 99.372414 
L 164.043501 110.115119 
" clip-path="url(#pc0597b8d16)" style="fill: none; stroke: #0000ff; stroke-linecap: square"/>
   </g>
   <g id="line2d_338">
    <path d="M 24.388329 77.887003 
L 13.645623 88.629708 
" clip-path="url(#pc0597b8d16)" style="fill: none; stroke: #0000ff; stroke-linecap: square"/>
   </g>
   <g id="line2d_339">
    <path d="M 24.388329 13.430769 
L 13.645623 24.173475 
" clip-path="url(#pc0597b8d16)" style="fill: none; stroke: #0000ff; stroke-linecap: square"/>
   </g>
   <g id="line2d_340">
    <path d="M 67.359151 163.828647 
L 78.101857 174.571353 
" clip-path="url(#pc0597b8d16)" style="fill: none; stroke: #0000ff; stroke-linecap: square"/>
   </g>
   <g id="line2d_341">
    <path d="M 196.271618 249.770292 
L 185.528912 260.512997 
" clip-path="url(#pc0597b8d16)" style="fill: none; stroke: #0000ff; stroke-linecap: square"/>
   </g>
   <g id="line2d_342">
    <path d="M 196.271618 185.314058 
L 185.528912 196.056764 
" clip-path="url(#pc0597b8d16)" style="fill: none; stroke: #0000ff; stroke-linecap: square"/>
   </g>
   <g id="line2d_343">
    <path d="M 174.786207 271.255703 
L 164.043501 281.998408 
" clip-path="url(#pc0597b8d16)" style="fill: none; stroke: #0000ff; stroke-linecap: square"/>
   </g>
   <g id="line2d_344">
    <path d="M 217.757029 77.887003 
L 207.014324 88.629708 
" clip-path="url(#pc0597b8d16)" style="fill: none; stroke: #0000ff; stroke-linecap: square"/>
   </g>
   <g id="line2d_345">
    <path d="M 24.388329 77.887003 
L 35.131034 88.629708 
" clip-path="url(#pc0597b8d16)" style="fill: none; stroke: #0000ff; stroke-linecap: square"/>
   </g>
   <g id="line2d_346">
    <path d="M 45.87374 163.828647 
L 56.616446 174.571353 
" clip-path="url(#pc0597b8d16)" style="fill: none; stroke: #0000ff; stroke-linecap: square"/>
   </g>
   <g id="line2d_347">
    <path d="M 110.329973 56.401592 
L 121.072679 67.144297 
" clip-path="url(#pc0597b8d16)" style="fill: none; stroke: #0000ff; stroke-linecap: square"/>
   </g>
   <g id="line2d_348">
    <path d="M 207.014324 174.571353 
L 217.757029 185.314058 
" clip-path="url(#pc0597b8d16)" style="fill: none; stroke: #0000ff; stroke-linecap: square"/>
   </g>
   <g id="line2d_349">
    <path d="M 271.470557 131.600531 
L 282.213263 142.343236 
" clip-path="url(#pc0597b8d16)" style="fill: none; stroke: #0000ff; stroke-linecap: square"/>
   </g>
   <g id="line2d_350">
    <path d="M 121.072679 153.085942 
L 110.329973 163.828647 
" clip-path="url(#pc0597b8d16)" style="fill: none; stroke: #0000ff; stroke-linecap: square"/>
   </g>
   <g id="line2d_351">
    <path d="M 249.985146 88.629708 
L 260.727851 99.372414 
" clip-path="url(#pc0597b8d16)" style="fill: none; stroke: #0000ff; stroke-linecap: square"/>
   </g>
   <g id="line2d_352">
    <path d="M 239.24244 13.430769 
L 228.499735 24.173475 
" clip-path="url(#pc0597b8d16)" style="fill: none; stroke: #0000ff; stroke-linecap: square"/>
   </g>
   <g id="line2d_353">
    <path d="M 131.815385 271.255703 
L 142.55809 281.998408 
" clip-path="url(#pc0597b8d16)" style="fill: none; stroke: #0000ff; stroke-linecap: square"/>
   </g>
   <g id="line2d_354">
    <path d="M 239.24244 34.91618 
L 228.499735 45.658886 
" clip-path="url(#pc0597b8d16)" style="fill: none; stroke: #0000ff; stroke-linecap: square"/>
   </g>
   <g id="line2d_355">
    <path d="M 292.955968 45.658886 
L 303.698674 56.401592 
" clip-path="url(#pc0597b8d16)" style="fill: none; stroke: #0000ff; stroke-linecap: square"/>
   </g>
   <g id="line2d_356">
    <path d="M 303.698674 120.857825 
L 314.441379 131.600531 
" clip-path="url(#pc0597b8d16)" style="fill: none; stroke: #0000ff; stroke-linecap: square"/>
   </g>
   <g id="line2d_357">
    <path d="M 24.388329 163.828647 
L 13.645623 174.571353 
" clip-path="url(#pc0597b8d16)" style="fill: none; stroke: #0000ff; stroke-linecap: square"/>
   </g>
   <g id="line2d_358">
    <path d="M 131.815385 77.887003 
L 142.55809 88.629708 
" clip-path="url(#pc0597b8d16)" style="fill: none; stroke: #0000ff; stroke-linecap: square"/>
   </g>
   <g id="line2d_359">
    <path d="M 153.300796 271.255703 
L 142.55809 281.998408 
" clip-path="url(#pc0597b8d16)" style="fill: none; stroke: #0000ff; stroke-linecap: square"/>
   </g>
   <g id="line2d_360">
    <path d="M 303.698674 163.828647 
L 292.955968 174.571353 
" clip-path="url(#pc0597b8d16)" style="fill: none; stroke: #0000ff; stroke-linecap: square"/>
   </g>
   <g id="line2d_361">
    <path d="M 153.300796 13.430769 
L 164.043501 24.173475 
" clip-path="url(#pc0597b8d16)" style="fill: none; stroke: #0000ff; stroke-linecap: square"/>
   </g>
   <g id="line2d_362">
    <path d="M 56.616446 88.629708 
L 45.87374 99.372414 
" clip-path="url(#pc0597b8d16)" style="fill: none; stroke: #0000ff; stroke-linecap: square"/>
   </g>
   <g id="line2d_363">
    <path d="M 228.499735 131.600531 
L 239.24244 142.343236 
" clip-path="url(#pc0597b8d16)" style="fill: none; stroke: #0000ff; stroke-linecap: square"/>
   </g>
   <g id="line2d_364">
    <path d="M 88.844562 34.91618 
L 78.101857 45.658886 
" clip-path="url(#pc0597b8d16)" style="fill: none; stroke: #0000ff; stroke-linecap: square"/>
   </g>
   <g id="line2d_365">
    <path d="M 271.470557 45.658886 
L 282.213263 56.401592 
" clip-path="url(#pc0597b8d16)" style="fill: none; stroke: #0000ff; stroke-linecap: square"/>
   </g>
   <g id="line2d_366">
    <path d="M 45.87374 13.430769 
L 56.616446 24.173475 
" clip-path="url(#pc0597b8d16)" style="fill: none; stroke: #0000ff; stroke-linecap: square"/>
   </g>
   <g id="line2d_367">
    <path d="M 325.184085 13.430769 
L 335.92679 24.173475 
" clip-path="url(#pc0597b8d16)" style="fill: none; stroke: #0000ff; stroke-linecap: square"/>
   </g>
   <g id="line2d_368">
    <path d="M 207.014324 110.115119 
L 217.757029 120.857825 
" clip-path="url(#pc0597b8d16)" style="fill: none; stroke: #0000ff; stroke-linecap: square"/>
   </g>
   <g id="line2d_369">
    <path d="M 303.698674 142.343236 
L 292.955968 153.085942 
" clip-path="url(#pc0597b8d16)" style="fill: none; stroke: #0000ff; stroke-linecap: square"/>
   </g>
   <g id="line2d_370">
    <path d="M 99.587268 131.600531 
L 88.844562 142.343236 
" clip-path="url(#pc0597b8d16)" style="fill: none; stroke: #0000ff; stroke-linecap: square"/>
   </g>
   <g id="line2d_371">
    <path d="M 121.072679 196.056764 
L 110.329973 206.799469 
" clip-path="url(#pc0597b8d16)" style="fill: none; stroke: #0000ff; stroke-linecap: square"/>
   </g>
   <g id="line2d_372">
    <path d="M 196.271618 34.91618 
L 185.528912 45.658886 
" clip-path="url(#pc0597b8d16)" style="fill: none; stroke: #0000ff; stroke-linecap: square"/>
   </g>
   <g id="line2d_373">
    <path d="M 67.359151 206.799469 
L 78.101857 217.542175 
" clip-path="url(#pc0597b8d16)" style="fill: none; stroke: #0000ff; stroke-linecap: square"/>
   </g>
   <g id="line2d_374">
    <path d="M 131.815385 142.343236 
L 142.55809 153.085942 
" clip-path="url(#pc0597b8d16)" style="fill: none; stroke: #0000ff; stroke-linecap: square"/>
   </g>
   <g id="line2d_375">
    <path d="M 260.727851 77.887003 
L 249.985146 88.629708 
" clip-path="url(#pc0597b8d16)" style="fill: none; stroke: #0000ff; stroke-linecap: square"/>
   </g>
   <g id="line2d_376">
    <path d="M 185.528912 88.629708 
L 196.271618 99.372414 
" clip-path="url(#pc0597b8d16)" style="fill: none; stroke: #0000ff; stroke-linecap: square"/>
   </g>
   <g id="line2d_377">
    <path d="M 174.786207 13.430769 
L 164.043501 24.173475 
" clip-path="url(#pc0597b8d16)" style="fill: none; stroke: #0000ff; stroke-linecap: square"/>
   </g>
   <g id="line2d_378">
    <path d="M 249.985146 24.173475 
L 260.727851 34.91618 
" clip-path="url(#pc0597b8d16)" style="fill: none; stroke: #0000ff; stroke-linecap: square"/>
   </g>
   <g id="line2d_379">
    <path d="M 24.388329 142.343236 
L 13.645623 153.085942 
" clip-path="url(#pc0597b8d16)" style="fill: none; stroke: #0000ff; stroke-linecap: square"/>
   </g>
   <g id="line2d_380">
    <path d="M 35.131034 88.629708 
L 24.388329 99.372414 
" clip-path="url(#pc0597b8d16)" style="fill: none; stroke: #0000ff; stroke-linecap: square"/>
   </g>
   <g id="line2d_381">
    <path d="M 282.213263 99.372414 
L 292.955968 110.115119 
" clip-path="url(#pc0597b8d16)" style="fill: none; stroke: #0000ff; stroke-linecap: square"/>
   </g>
   <g id="line2d_382">
    <path d="M 131.815385 99.372414 
L 121.072679 110.115119 
" clip-path="url(#pc0597b8d16)" style="fill: none; stroke: #0000ff; stroke-linecap: square"/>
   </g>
   <g id="line2d_383">
    <path d="M 282.213263 34.91618 
L 292.955968 45.658886 
" clip-path="url(#pc0597b8d16)" style="fill: none; stroke: #0000ff; stroke-linecap: square"/>
   </g>
   <g id="line2d_384">
    <path d="M 88.844562 185.314058 
L 78.101857 196.056764 
" clip-path="url(#pc0597b8d16)" style="fill: none; stroke: #0000ff; stroke-linecap: square"/>
   </g>
   <g id="line2d_385">
    <path d="M 56.616446 153.085942 
L 45.87374 163.828647 
" clip-path="url(#pc0597b8d16)" style="fill: none; stroke: #0000ff; stroke-linecap: square"/>
   </g>
   <g id="line2d_386">
    <path d="M 142.55809 24.173475 
L 131.815385 34.91618 
" clip-path="url(#pc0597b8d16)" style="fill: none; stroke: #0000ff; stroke-linecap: square"/>
   </g>
   <g id="line2d_387">
    <path d="M 67.359151 163.828647 
L 56.616446 174.571353 
" clip-path="url(#pc0597b8d16)" style="fill: none; stroke: #0000ff; stroke-linecap: square"/>
   </g>
   <g id="line2d_388">
    <path d="M 142.55809 110.115119 
L 153.300796 120.857825 
" clip-path="url(#pc0597b8d16)" style="fill: none; stroke: #0000ff; stroke-linecap: square"/>
   </g>
   <g id="line2d_389">
    <path d="M 303.698674 56.401592 
L 292.955968 67.144297 
" clip-path="url(#pc0597b8d16)" style="fill: none; stroke: #0000ff; stroke-linecap: square"/>
   </g>
   <g id="line2d_390">
    <path d="M 110.329973 249.770292 
L 121.072679 260.512997 
" clip-path="url(#pc0597b8d16)" style="fill: none; stroke: #0000ff; stroke-linecap: square"/>
   </g>
   <g id="line2d_391">
    <path d="M 325.184085 34.91618 
L 335.92679 45.658886 
" clip-path="url(#pc0597b8d16)" style="fill: none; stroke: #0000ff; stroke-linecap: square"/>
   </g>
   <g id="line2d_392">
    <path d="M 110.329973 163.828647 
L 99.587268 174.571353 
" clip-path="url(#pc0597b8d16)" style="fill: none; stroke: #0000ff; stroke-linecap: square"/>
   </g>
   <g id="line2d_393">
    <path d="M 121.072679 45.658886 
L 110.329973 56.401592 
" clip-path="url(#pc0597b8d16)" style="fill: none; stroke: #0000ff; stroke-linecap: square"/>
   </g>
   <g id="line2d_394">
    <path d="M 142.55809 239.027586 
L 153.300796 249.770292 
" clip-path="url(#pc0597b8d16)" style="fill: none; stroke: #0000ff; stroke-linecap: square"/>
   </g>
   <g id="line2d_395">
    <path d="M 217.757029 13.430769 
L 207.014324 24.173475 
" clip-path="url(#pc0597b8d16)" style="fill: none; stroke: #0000ff; stroke-linecap: square"/>
   </g>
   <g id="line2d_396">
    <path d="M 217.757029 206.799469 
L 228.499735 217.542175 
" clip-path="url(#pc0597b8d16)" style="fill: none; stroke: #0000ff; stroke-linecap: square"/>
   </g>
   <g id="line2d_397">
    <path d="M 131.815385 185.314058 
L 121.072679 196.056764 
" clip-path="url(#pc0597b8d16)" style="fill: none; stroke: #0000ff; stroke-linecap: square"/>
   </g>
   <g id="line2d_398">
    <path d="M 110.329973 185.314058 
L 121.072679 196.056764 
" clip-path="url(#pc0597b8d16)" style="fill: none; stroke: #0000ff; stroke-linecap: square"/>
   </g>
   <g id="line2d_399">
    <path d="M 24.388329 13.430769 
L 35.131034 24.173475 
" clip-path="url(#pc0597b8d16)" style="fill: none; stroke: #0000ff; stroke-linecap: square"/>
   </g>
   <g id="line2d_400">
    <path d="M 99.587268 260.512997 
L 88.844562 271.255703 
" clip-path="url(#pc0597b8d16)" style="fill: none; stroke: #0000ff; stroke-linecap: square"/>
   </g>
   <g id="line2d_401">
    <path d="M 239.24244 228.284881 
L 228.499735 239.027586 
" clip-path="url(#pc0597b8d16)" style="fill: none; stroke: #0000ff; stroke-linecap: square"/>
   </g>
   <g id="line2d_402">
    <path d="M 260.727851 163.828647 
L 271.470557 174.571353 
" clip-path="url(#pc0597b8d16)" style="fill: none; stroke: #0000ff; stroke-linecap: square"/>
   </g>
   <g id="line2d_403">
    <path d="M 174.786207 163.828647 
L 164.043501 174.571353 
" clip-path="url(#pc0597b8d16)" style="fill: none; stroke: #0000ff; stroke-linecap: square"/>
   </g>
   <g id="line2d_404">
    <path d="M 260.727851 120.857825 
L 249.985146 131.600531 
" clip-path="url(#pc0597b8d16)" style="fill: none; stroke: #0000ff; stroke-linecap: square"/>
   </g>
   <g id="line2d_405">
    <path d="M 153.300796 292.741114 
L 164.043501 303.48382 
" clip-path="url(#pc0597b8d16)" style="fill: none; stroke: #0000ff; stroke-linecap: square"/>
   </g>
   <g id="line2d_406">
    <path d="M 78.101857 131.600531 
L 67.359151 142.343236 
" clip-path="url(#pc0597b8d16)" style="fill: none; stroke: #0000ff; stroke-linecap: square"/>
   </g>
   <g id="line2d_407">
    <path d="M 217.757029 77.887003 
L 228.499735 88.629708 
" clip-path="url(#pc0597b8d16)" style="fill: none; stroke: #0000ff; stroke-linecap: square"/>
   </g>
   <g id="line2d_408">
    <path d="M 78.101857 67.144297 
L 67.359151 77.887003 
" clip-path="url(#pc0597b8d16)" style="fill: none; stroke: #0000ff; stroke-linecap: square"/>
   </g>
   <g id="line2d_409">
    <path d="M 99.587268 174.571353 
L 88.844562 185.314058 
" clip-path="url(#pc0597b8d16)" style="fill: none; stroke: #0000ff; stroke-linecap: square"/>
   </g>
   <g id="line2d_410">
    <path d="M 228.499735 217.542175 
L 239.24244 228.284881 
" clip-path="url(#pc0597b8d16)" style="fill: none; stroke: #0000ff; stroke-linecap: square"/>
   </g>
   <g id="line2d_411">
    <path d="M 88.844562 77.887003 
L 99.587268 88.629708 
" clip-path="url(#pc0597b8d16)" style="fill: none; stroke: #0000ff; stroke-linecap: square"/>
   </g>
   <g id="line2d_412">
    <path d="M 110.329973 120.857825 
L 99.587268 131.600531 
" clip-path="url(#pc0597b8d16)" style="fill: none; stroke: #0000ff; stroke-linecap: square"/>
   </g>
   <g id="line2d_413">
    <path d="M 88.844562 13.430769 
L 99.587268 24.173475 
" clip-path="url(#pc0597b8d16)" style="fill: none; stroke: #0000ff; stroke-linecap: square"/>
   </g>
   <g id="line2d_414">
    <path d="M 142.55809 88.629708 
L 131.815385 99.372414 
" clip-path="url(#pc0597b8d16)" style="fill: none; stroke: #0000ff; stroke-linecap: square"/>
   </g>
   <g id="line2d_415">
    <path d="M 67.359151 120.857825 
L 78.101857 131.600531 
" clip-path="url(#pc0597b8d16)" style="fill: none; stroke: #0000ff; stroke-linecap: square"/>
   </g>
   <g id="line2d_416">
    <path d="M 110.329973 142.343236 
L 99.587268 153.085942 
" clip-path="url(#pc0597b8d16)" style="fill: none; stroke: #0000ff; stroke-linecap: square"/>
   </g>
   <g id="line2d_417">
    <path d="M 45.87374 142.343236 
L 56.616446 153.085942 
" clip-path="url(#pc0597b8d16)" style="fill: none; stroke: #0000ff; stroke-linecap: square"/>
   </g>
   <g id="line2d_418">
    <path d="M 174.786207 228.284881 
L 185.528912 239.027586 
" clip-path="url(#pc0597b8d16)" style="fill: none; stroke: #0000ff; stroke-linecap: square"/>
   </g>
   <g id="line2d_419">
    <path d="M 35.131034 24.173475 
L 24.388329 34.91618 
" clip-path="url(#pc0597b8d16)" style="fill: none; stroke: #0000ff; stroke-linecap: square"/>
   </g>
   <g id="line2d_420">
    <path d="M 24.388329 163.828647 
L 35.131034 174.571353 
" clip-path="url(#pc0597b8d16)" style="fill: none; stroke: #0000ff; stroke-linecap: square"/>
   </g>
   <g id="line2d_421">
    <path d="M 153.300796 228.284881 
L 164.043501 239.027586 
" clip-path="url(#pc0597b8d16)" style="fill: none; stroke: #0000ff; stroke-linecap: square"/>
   </g>
   <g id="line2d_422">
    <path d="M 45.87374 120.857825 
L 35.131034 131.600531 
" clip-path="url(#pc0597b8d16)" style="fill: none; stroke: #0000ff; stroke-linecap: square"/>
   </g>
   <g id="line2d_423">
    <path d="M 35.131034 153.085942 
L 24.388329 163.828647 
" clip-path="url(#pc0597b8d16)" style="fill: none; stroke: #0000ff; stroke-linecap: square"/>
   </g>
   <g id="line2d_424">
    <path d="M 282.213263 185.314058 
L 271.470557 196.056764 
" clip-path="url(#pc0597b8d16)" style="fill: none; stroke: #0000ff; stroke-linecap: square"/>
   </g>
   <g id="line2d_425">
    <path d="M 260.727851 142.343236 
L 271.470557 153.085942 
" clip-path="url(#pc0597b8d16)" style="fill: none; stroke: #0000ff; stroke-linecap: square"/>
   </g>
   <g id="line2d_426">
    <path d="M 153.300796 34.91618 
L 164.043501 45.658886 
" clip-path="url(#pc0597b8d16)" style="fill: none; stroke: #0000ff; stroke-linecap: square"/>
   </g>
   <g id="line2d_427">
    <path d="M 99.587268 110.115119 
L 88.844562 120.857825 
" clip-path="url(#pc0597b8d16)" style="fill: none; stroke: #0000ff; stroke-linecap: square"/>
   </g>
   <g id="line2d_428">
    <path d="M 45.87374 206.799469 
L 56.616446 217.542175 
" clip-path="url(#pc0597b8d16)" style="fill: none; stroke: #0000ff; stroke-linecap: square"/>
   </g>
   <g id="line2d_429">
    <path d="M 131.815385 120.857825 
L 142.55809 131.600531 
" clip-path="url(#pc0597b8d16)" style="fill: none; stroke: #0000ff; stroke-linecap: square"/>
   </g>
   <g id="line2d_430">
    <path d="M 239.24244 142.343236 
L 228.499735 153.085942 
" clip-path="url(#pc0597b8d16)" style="fill: none; stroke: #0000ff; stroke-linecap: square"/>
   </g>
   <g id="line2d_431">
    <path d="M 228.499735 67.144297 
L 239.24244 77.887003 
" clip-path="url(#pc0597b8d16)" style="fill: none; stroke: #0000ff; stroke-linecap: square"/>
   </g>
   <g id="line2d_432">
    <path d="M 185.528912 153.085942 
L 196.271618 163.828647 
" clip-path="url(#pc0597b8d16)" style="fill: none; stroke: #0000ff; stroke-linecap: square"/>
   </g>
   <g id="line2d_433">
    <path d="M 121.072679 67.144297 
L 110.329973 77.887003 
" clip-path="url(#pc0597b8d16)" style="fill: none; stroke: #0000ff; stroke-linecap: square"/>
   </g>
   <g id="line2d_434">
    <path d="M 174.786207 77.887003 
L 185.528912 88.629708 
" clip-path="url(#pc0597b8d16)" style="fill: none; stroke: #0000ff; stroke-linecap: square"/>
   </g>
   <g id="line2d_435">
    <path d="M 45.87374 56.401592 
L 35.131034 67.144297 
" clip-path="url(#pc0597b8d16)" style="fill: none; stroke: #0000ff; stroke-linecap: square"/>
   </g>
   <g id="line2d_436">
    <path d="M 164.043501 281.998408 
L 174.786207 292.741114 
" clip-path="url(#pc0597b8d16)" style="fill: none; stroke: #0000ff; stroke-linecap: square"/>
   </g>
   <g id="line2d_437">
    <path d="M 196.271618 249.770292 
L 207.014324 260.512997 
" clip-path="url(#pc0597b8d16)" style="fill: none; stroke: #0000ff; stroke-linecap: square"/>
   </g>
   <g id="line2d_438">
    <path d="M 217.757029 206.799469 
L 207.014324 217.542175 
" clip-path="url(#pc0597b8d16)" style="fill: none; stroke: #0000ff; stroke-linecap: square"/>
   </g>
   <g id="line2d_439">
    <path d="M 78.101857 217.542175 
L 67.359151 228.284881 
" clip-path="url(#pc0597b8d16)" style="fill: none; stroke: #0000ff; stroke-linecap: square"/>
   </g>
   <g id="line2d_440">
    <path d="M 153.300796 56.401592 
L 142.55809 67.144297 
" clip-path="url(#pc0597b8d16)" style="fill: none; stroke: #0000ff; stroke-linecap: square"/>
   </g>
   <g id="line2d_441">
    <path d="M 153.300796 120.857825 
L 142.55809 131.600531 
" clip-path="url(#pc0597b8d16)" style="fill: none; stroke: #0000ff; stroke-linecap: square"/>
   </g>
   <g id="line2d_442">
    <path d="M 196.271618 185.314058 
L 207.014324 196.056764 
" clip-path="url(#pc0597b8d16)" style="fill: none; stroke: #0000ff; stroke-linecap: square"/>
   </g>
   <g id="line2d_443">
    <path d="M 153.300796 77.887003 
L 164.043501 88.629708 
" clip-path="url(#pc0597b8d16)" style="fill: none; stroke: #0000ff; stroke-linecap: square"/>
   </g>
   <g id="line2d_444">
    <path d="M 131.815385 292.741114 
L 121.072679 303.48382 
" clip-path="url(#pc0597b8d16)" style="fill: none; stroke: #0000ff; stroke-linecap: square"/>
   </g>
   <g id="line2d_445">
    <path d="M 239.24244 13.430769 
L 249.985146 24.173475 
" clip-path="url(#pc0597b8d16)" style="fill: none; stroke: #0000ff; stroke-linecap: square"/>
   </g>
   <g id="line2d_446">
    <path d="M 88.844562 142.343236 
L 99.587268 153.085942 
" clip-path="url(#pc0597b8d16)" style="fill: none; stroke: #0000ff; stroke-linecap: square"/>
   </g>
   <g id="line2d_447">
    <path d="M 110.329973 249.770292 
L 99.587268 260.512997 
" clip-path="url(#pc0597b8d16)" style="fill: none; stroke: #0000ff; stroke-linecap: square"/>
   </g>
   <g id="line2d_448">
    <path d="M 67.359151 56.401592 
L 78.101857 67.144297 
" clip-path="url(#pc0597b8d16)" style="fill: none; stroke: #0000ff; stroke-linecap: square"/>
   </g>
   <g id="line2d_449">
    <path d="M 56.616446 24.173475 
L 45.87374 34.91618 
" clip-path="url(#pc0597b8d16)" style="fill: none; stroke: #0000ff; stroke-linecap: square"/>
   </g>
   <g id="line2d_450">
    <path d="M 196.271618 120.857825 
L 207.014324 131.600531 
" clip-path="url(#pc0597b8d16)" style="fill: none; stroke: #0000ff; stroke-linecap: square"/>
   </g>
   <g id="line2d_451">
    <path d="M 325.184085 120.857825 
L 314.441379 131.600531 
" clip-path="url(#pc0597b8d16)" style="fill: none; stroke: #0000ff; stroke-linecap: square"/>
   </g>
   <g id="line2d_452">
    <path d="M 217.757029 142.343236 
L 228.499735 153.085942 
" clip-path="url(#pc0597b8d16)" style="fill: none; stroke: #0000ff; stroke-linecap: square"/>
   </g>
   <g id="line2d_453">
    <path d="M 303.698674 77.887003 
L 292.955968 88.629708 
" clip-path="url(#pc0597b8d16)" style="fill: none; stroke: #0000ff; stroke-linecap: square"/>
   </g>
   <g id="line2d_454">
    <path d="M 99.587268 45.658886 
L 88.844562 56.401592 
" clip-path="url(#pc0597b8d16)" style="fill: none; stroke: #0000ff; stroke-linecap: square"/>
   </g>
   <g id="line2d_455">
    <path d="M 67.359151 120.857825 
L 56.616446 131.600531 
" clip-path="url(#pc0597b8d16)" style="fill: none; stroke: #0000ff; stroke-linecap: square"/>
   </g>
   <g id="line2d_456">
    <path d="M 131.815385 163.828647 
L 142.55809 174.571353 
" clip-path="url(#pc0597b8d16)" style="fill: none; stroke: #0000ff; stroke-linecap: square"/>
   </g>
   <g id="line2d_457">
    <path d="M 228.499735 196.056764 
L 239.24244 206.799469 
" clip-path="url(#pc0597b8d16)" style="fill: none; stroke: #0000ff; stroke-linecap: square"/>
   </g>
   <g id="line2d_458">
    <path d="M 207.014324 239.027586 
L 217.757029 249.770292 
" clip-path="url(#pc0597b8d16)" style="fill: none; stroke: #0000ff; stroke-linecap: square"/>
   </g>
   <g id="line2d_459">
    <path d="M 292.955968 110.115119 
L 303.698674 120.857825 
" clip-path="url(#pc0597b8d16)" style="fill: none; stroke: #0000ff; stroke-linecap: square"/>
   </g>
   <g id="line2d_460">
    <path d="M 45.87374 120.857825 
L 56.616446 131.600531 
" clip-path="url(#pc0597b8d16)" style="fill: none; stroke: #0000ff; stroke-linecap: square"/>
   </g>
   <g id="line2d_461">
    <path d="M 282.213263 77.887003 
L 271.470557 88.629708 
" clip-path="url(#pc0597b8d16)" style="fill: none; stroke: #0000ff; stroke-linecap: square"/>
   </g>
   <g id="line2d_462">
    <path d="M 121.072679 260.512997 
L 110.329973 271.255703 
" clip-path="url(#pc0597b8d16)" style="fill: none; stroke: #0000ff; stroke-linecap: square"/>
   </g>
   <g id="line2d_463">
    <path d="M 164.043501 67.144297 
L 174.786207 77.887003 
" clip-path="url(#pc0597b8d16)" style="fill: none; stroke: #0000ff; stroke-linecap: square"/>
   </g>
   <g id="line2d_464">
    <path d="M 174.786207 185.314058 
L 164.043501 196.056764 
" clip-path="url(#pc0597b8d16)" style="fill: none; stroke: #0000ff; stroke-linecap: square"/>
   </g>
   <g id="line2d_465">
    <path d="M 164.043501 131.600531 
L 174.786207 142.343236 
" clip-path="url(#pc0597b8d16)" style="fill: none; stroke: #0000ff; stroke-linecap: square"/>
   </g>
   <g id="line2d_466">
    <path d="M 196.271618 34.91618 
L 207.014324 45.658886 
" clip-path="url(#pc0597b8d16)" style="fill: none; stroke: #0000ff; stroke-linecap: square"/>
   </g>
   <g id="line2d_467">
    <path d="M 99.587268 239.027586 
L 88.844562 249.770292 
" clip-path="url(#pc0597b8d16)" style="fill: none; stroke: #0000ff; stroke-linecap: square"/>
   </g>
   <g id="line2d_468">
    <path d="M 325.184085 99.372414 
L 314.441379 110.115119 
" clip-path="url(#pc0597b8d16)" style="fill: none; stroke: #0000ff; stroke-linecap: square"/>
   </g>
   <g id="line2d_469">
    <path d="M 314.441379 24.173475 
L 325.184085 34.91618 
" clip-path="url(#pc0597b8d16)" style="fill: none; stroke: #0000ff; stroke-linecap: square"/>
   </g>
   <g id="line2d_470">
    <path d="M 282.213263 13.430769 
L 292.955968 24.173475 
" clip-path="url(#pc0597b8d16)" style="fill: none; stroke: #0000ff; stroke-linecap: square"/>
   </g>
   <g id="line2d_471">
    <path d="M 303.698674 34.91618 
L 314.441379 45.658886 
" clip-path="url(#pc0597b8d16)" style="fill: none; stroke: #0000ff; stroke-linecap: square"/>
   </g>
   <g id="line2d_472">
    <path d="M 303.698674 120.857825 
L 292.955968 131.600531 
" clip-path="url(#pc0597b8d16)" style="fill: none; stroke: #0000ff; stroke-linecap: square"/>
   </g>
   <g id="line2d_473">
    <path d="M 217.757029 163.828647 
L 207.014324 174.571353 
" clip-path="url(#pc0597b8d16)" style="fill: none; stroke: #0000ff; stroke-linecap: square"/>
   </g>
   <g id="line2d_474">
    <path d="M 196.271618 99.372414 
L 185.528912 110.115119 
" clip-path="url(#pc0597b8d16)" style="fill: none; stroke: #0000ff; stroke-linecap: square"/>
   </g>
   <g id="line2d_475">
    <path d="M 228.499735 45.658886 
L 239.24244 56.401592 
" clip-path="url(#pc0597b8d16)" style="fill: none; stroke: #0000ff; stroke-linecap: square"/>
   </g>
   <g id="line2d_476">
    <path d="M 260.727851 56.401592 
L 249.985146 67.144297 
" clip-path="url(#pc0597b8d16)" style="fill: none; stroke: #0000ff; stroke-linecap: square"/>
   </g>
   <g id="line2d_477">
    <path d="M 142.55809 303.48382 
L 131.815385 314.226525 
" clip-path="url(#pc0597b8d16)" style="fill: none; stroke: #0000ff; stroke-linecap: square"/>
   </g>
   <g id="line2d_478">
    <path d="M 88.844562 163.828647 
L 99.587268 174.571353 
" clip-path="url(#pc0597b8d16)" style="fill: none; stroke: #0000ff; stroke-linecap: square"/>
   </g>
   <g id="line2d_479">
    <path d="M 314.441379 110.115119 
L 325.184085 120.857825 
" clip-path="url(#pc0597b8d16)" style="fill: none; stroke: #0000ff; stroke-linecap: square"/>
   </g>
   <g id="line2d_480">
    <path d="M 196.271618 13.430769 
L 185.528912 24.173475 
" clip-path="url(#pc0597b8d16)" style="fill: none; stroke: #0000ff; stroke-linecap: square"/>
   </g>
   <g id="line2d_481">
    <path d="M 239.24244 142.343236 
L 249.985146 153.085942 
" clip-path="url(#pc0597b8d16)" style="fill: none; stroke: #0000ff; stroke-linecap: square"/>
   </g>
   <g id="line2d_482">
    <path d="M 121.072679 110.115119 
L 110.329973 120.857825 
" clip-path="url(#pc0597b8d16)" style="fill: none; stroke: #0000ff; stroke-linecap: square"/>
   </g>
   <g id="line2d_483">
    <path d="M 260.727851 185.314058 
L 249.985146 196.056764 
" clip-path="url(#pc0597b8d16)" style="fill: none; stroke: #0000ff; stroke-linecap: square"/>
   </g>
   <g id="line2d_484">
    <path d="M 131.815385 56.401592 
L 142.55809 67.144297 
" clip-path="url(#pc0597b8d16)" style="fill: none; stroke: #0000ff; stroke-linecap: square"/>
   </g>
   <g id="line2d_485">
    <path d="M 142.55809 88.629708 
L 153.300796 99.372414 
" clip-path="url(#pc0597b8d16)" style="fill: none; stroke: #0000ff; stroke-linecap: square"/>
   </g>
   <g id="line2d_486">
    <path d="M 67.359151 185.314058 
L 78.101857 196.056764 
" clip-path="url(#pc0597b8d16)" style="fill: none; stroke: #0000ff; stroke-linecap: square"/>
   </g>
   <g id="line2d_487">
    <path d="M 207.014324 24.173475 
L 217.757029 34.91618 
" clip-path="url(#pc0597b8d16)" style="fill: none; stroke: #0000ff; stroke-linecap: square"/>
   </g>
   <g id="line2d_488">
    <path d="M 217.757029 142.343236 
L 207.014324 153.085942 
" clip-path="url(#pc0597b8d16)" style="fill: none; stroke: #0000ff; stroke-linecap: square"/>
   </g>
   <g id="line2d_489">
    <path d="M 88.844562 206.799469 
L 99.587268 217.542175 
" clip-path="url(#pc0597b8d16)" style="fill: none; stroke: #0000ff; stroke-linecap: square"/>
   </g>
   <g id="line2d_490">
    <path d="M 110.329973 271.255703 
L 99.587268 281.998408 
" clip-path="url(#pc0597b8d16)" style="fill: none; stroke: #0000ff; stroke-linecap: square"/>
   </g>
   <g id="line2d_491">
    <path d="M 88.844562 99.372414 
L 78.101857 110.115119 
" clip-path="url(#pc0597b8d16)" style="fill: none; stroke: #0000ff; stroke-linecap: square"/>
   </g>
   <g id="line2d_492">
    <path d="M 153.300796 34.91618 
L 142.55809 45.658886 
" clip-path="url(#pc0597b8d16)" style="fill: none; stroke: #0000ff; stroke-linecap: square"/>
   </g>
  </g>
 </g>
 <defs>
  <clipPath id="pc0597b8d16">
   <rect x="7.2" y="7.2" width="335.172414" height="324"/>
  </clipPath>
 </defs>
</svg>
