<?xml version="1.0" encoding="utf-8" standalone="no"?>
<!DOCTYPE svg PUBLIC "-//W3C//DTD SVG 1.1//EN"
  "http://www.w3.org/Graphics/SVG/1.1/DTD/svg11.dtd">
<svg xmlns:xlink="http://www.w3.org/1999/xlink" width="367.854545pt" height="338.4pt" viewBox="0 0 367.854545 338.4" xmlns="http://www.w3.org/2000/svg" version="1.1">
 <metadata>
  <rdf:RDF xmlns:dc="http://purl.org/dc/elements/1.1/" xmlns:cc="http://creativecommons.org/ns#" xmlns:rdf="http://www.w3.org/1999/02/22-rdf-syntax-ns#">
   <cc:Work>
    <dc:type rdf:resource="http://purl.org/dc/dcmitype/StillImage"/>
    <dc:date>2023-10-31T15:56:11.574782</dc:date>
    <dc:format>image/svg+xml</dc:format>
    <dc:creator>
     <cc:Agent>
      <dc:title>Matplotlib v3.7.2, https://matplotlib.org/</dc:title>
     </cc:Agent>
    </dc:creator>
   </cc:Work>
  </rdf:RDF>
 </metadata>
 <defs>
  <style type="text/css">*{stroke-linejoin: round; stroke-linecap: butt}</style>
 </defs>
 <g id="figure_1">
  <g id="patch_1">
   <path d="M 0 338.4 
L 367.854545 338.4 
L 367.854545 0 
L 0 0 
z
" style="fill: #ffffff"/>
  </g>
  <g id="axes_1">
   <g id="patch_2">
    <path d="M 7.2 331.2 
L 360.654545 331.2 
L 360.654545 7.2 
L 7.2 7.2 
z
" style="fill: #ffffff"/>
   </g>
   <g id="matplotlib.axis_1"/>
   <g id="matplotlib.axis_2"/>
   <g id="line2d_1">
    <path d="M 183.927273 41.752448 
L 212.248951 70.074126 
" clip-path="url(#p9521ef41b3)" style="fill: none; stroke: #0000ff; stroke-linecap: square"/>
   </g>
   <g id="line2d_2">
    <path d="M 127.283916 98.395804 
L 98.962238 126.717483 
" clip-path="url(#p9521ef41b3)" style="fill: none; stroke: #0000ff; stroke-linecap: square"/>
   </g>
   <g id="line2d_3">
    <path d="M 98.962238 296.647552 
L 127.283916 324.969231 
" clip-path="url(#p9521ef41b3)" style="fill: none; stroke: #0000ff; stroke-linecap: square"/>
   </g>
   <g id="line2d_4">
    <path d="M 42.318881 183.360839 
L 13.997203 211.682517 
" clip-path="url(#p9521ef41b3)" style="fill: none; stroke: #0000ff; stroke-linecap: square"/>
   </g>
   <g id="line2d_5">
    <path d="M 240.570629 98.395804 
L 268.892308 126.717483 
" clip-path="url(#p9521ef41b3)" style="fill: none; stroke: #0000ff; stroke-linecap: square"/>
   </g>
   <g id="line2d_6">
    <path d="M 155.605594 13.430769 
L 183.927273 41.752448 
" clip-path="url(#p9521ef41b3)" style="fill: none; stroke: #0000ff; stroke-linecap: square"/>
   </g>
   <g id="line2d_7">
    <path d="M 240.570629 155.039161 
L 268.892308 183.360839 
" clip-path="url(#p9521ef41b3)" style="fill: none; stroke: #0000ff; stroke-linecap: square"/>
   </g>
   <g id="line2d_8">
    <path d="M 42.318881 240.004196 
L 70.640559 268.325874 
" clip-path="url(#p9521ef41b3)" style="fill: none; stroke: #0000ff; stroke-linecap: square"/>
   </g>
   <g id="line2d_9">
    <path d="M 98.962238 70.074126 
L 127.283916 98.395804 
" clip-path="url(#p9521ef41b3)" style="fill: none; stroke: #0000ff; stroke-linecap: square"/>
   </g>
   <g id="line2d_10">
    <path d="M 183.927273 155.039161 
L 212.248951 183.360839 
" clip-path="url(#p9521ef41b3)" style="fill: none; stroke: #0000ff; stroke-linecap: square"/>
   </g>
   <g id="line2d_11">
    <path d="M 98.962238 70.074126 
L 70.640559 98.395804 
" clip-path="url(#p9521ef41b3)" style="fill: none; stroke: #0000ff; stroke-linecap: square"/>
   </g>
   <g id="line2d_12">
    <path d="M 98.962238 13.430769 
L 70.640559 41.752448 
" clip-path="url(#p9521ef41b3)" style="fill: none; stroke: #0000ff; stroke-linecap: square"/>
   </g>
   <g id="line2d_13">
    <path d="M 42.318881 126.717483 
L 13.997203 155.039161 
" clip-path="url(#p9521ef41b3)" style="fill: none; stroke: #0000ff; stroke-linecap: square"/>
   </g>
   <g id="line2d_14">
    <path d="M 183.927273 98.395804 
L 212.248951 126.717483 
" clip-path="url(#p9521ef41b3)" style="fill: none; stroke: #0000ff; stroke-linecap: square"/>
   </g>
   <g id="line2d_15">
    <path d="M 70.640559 41.752448 
L 42.318881 70.074126 
" clip-path="url(#p9521ef41b3)" style="fill: none; stroke: #0000ff; stroke-linecap: square"/>
   </g>
   <g id="line2d_16">
    <path d="M 42.318881 13.430769 
L 70.640559 41.752448 
" clip-path="url(#p9521ef41b3)" style="fill: none; stroke: #0000ff; stroke-linecap: square"/>
   </g>
   <g id="line2d_17">
    <path d="M 70.640559 98.395804 
L 42.318881 126.717483 
" clip-path="url(#p9521ef41b3)" style="fill: none; stroke: #0000ff; stroke-linecap: square"/>
   </g>
   <g id="line2d_18">
    <path d="M 155.605594 240.004196 
L 183.927273 268.325874 
" clip-path="url(#p9521ef41b3)" style="fill: none; stroke: #0000ff; stroke-linecap: square"/>
   </g>
   <g id="line2d_19">
    <path d="M 155.605594 240.004196 
L 127.283916 268.325874 
" clip-path="url(#p9521ef41b3)" style="fill: none; stroke: #0000ff; stroke-linecap: square"/>
   </g>
   <g id="line2d_20">
    <path d="M 42.318881 70.074126 
L 13.997203 98.395804 
" clip-path="url(#p9521ef41b3)" style="fill: none; stroke: #0000ff; stroke-linecap: square"/>
   </g>
   <g id="line2d_21">
    <path d="M 127.283916 268.325874 
L 98.962238 296.647552 
" clip-path="url(#p9521ef41b3)" style="fill: none; stroke: #0000ff; stroke-linecap: square"/>
   </g>
   <g id="line2d_22">
    <path d="M 212.248951 70.074126 
L 183.927273 98.395804 
" clip-path="url(#p9521ef41b3)" style="fill: none; stroke: #0000ff; stroke-linecap: square"/>
   </g>
   <g id="line2d_23">
    <path d="M 212.248951 183.360839 
L 183.927273 211.682517 
" clip-path="url(#p9521ef41b3)" style="fill: none; stroke: #0000ff; stroke-linecap: square"/>
   </g>
   <g id="line2d_24">
    <path d="M 127.283916 155.039161 
L 155.605594 183.360839 
" clip-path="url(#p9521ef41b3)" style="fill: none; stroke: #0000ff; stroke-linecap: square"/>
   </g>
   <g id="line2d_25">
    <path d="M 98.962238 183.360839 
L 70.640559 211.682517 
" clip-path="url(#p9521ef41b3)" style="fill: none; stroke: #0000ff; stroke-linecap: square"/>
   </g>
   <g id="line2d_26">
    <path d="M 212.248951 183.360839 
L 240.570629 211.682517 
" clip-path="url(#p9521ef41b3)" style="fill: none; stroke: #0000ff; stroke-linecap: square"/>
   </g>
   <g id="line2d_27">
    <path d="M 155.605594 183.360839 
L 127.283916 211.682517 
" clip-path="url(#p9521ef41b3)" style="fill: none; stroke: #0000ff; stroke-linecap: square"/>
   </g>
   <g id="line2d_28">
    <path d="M 212.248951 70.074126 
L 240.570629 98.395804 
" clip-path="url(#p9521ef41b3)" style="fill: none; stroke: #0000ff; stroke-linecap: square"/>
   </g>
   <g id="line2d_29">
    <path d="M 268.892308 183.360839 
L 240.570629 211.682517 
" clip-path="url(#p9521ef41b3)" style="fill: none; stroke: #0000ff; stroke-linecap: square"/>
   </g>
   <g id="line2d_30">
    <path d="M 98.962238 183.360839 
L 127.283916 211.682517 
" clip-path="url(#p9521ef41b3)" style="fill: none; stroke: #0000ff; stroke-linecap: square"/>
   </g>
   <g id="line2d_31">
    <path d="M 42.318881 126.717483 
L 70.640559 155.039161 
" clip-path="url(#p9521ef41b3)" style="fill: none; stroke: #0000ff; stroke-linecap: square"/>
   </g>
   <g id="line2d_32">
    <path d="M 98.962238 240.004196 
L 70.640559 268.325874 
" clip-path="url(#p9521ef41b3)" style="fill: none; stroke: #0000ff; stroke-linecap: square"/>
   </g>
   <g id="line2d_33">
    <path d="M 98.962238 240.004196 
L 127.283916 268.325874 
" clip-path="url(#p9521ef41b3)" style="fill: none; stroke: #0000ff; stroke-linecap: square"/>
   </g>
   <g id="line2d_34">
    <path d="M 325.535664 126.717483 
L 297.213986 155.039161 
" clip-path="url(#p9521ef41b3)" style="fill: none; stroke: #0000ff; stroke-linecap: square"/>
   </g>
   <g id="line2d_35">
    <path d="M 127.283916 155.039161 
L 98.962238 183.360839 
" clip-path="url(#p9521ef41b3)" style="fill: none; stroke: #0000ff; stroke-linecap: square"/>
   </g>
   <g id="line2d_36">
    <path d="M 268.892308 70.074126 
L 240.570629 98.395804 
" clip-path="url(#p9521ef41b3)" style="fill: none; stroke: #0000ff; stroke-linecap: square"/>
   </g>
   <g id="line2d_37">
    <path d="M 127.283916 268.325874 
L 155.605594 296.647552 
" clip-path="url(#p9521ef41b3)" style="fill: none; stroke: #0000ff; stroke-linecap: square"/>
   </g>
   <g id="line2d_38">
    <path d="M 212.248951 126.717483 
L 183.927273 155.039161 
" clip-path="url(#p9521ef41b3)" style="fill: none; stroke: #0000ff; stroke-linecap: square"/>
   </g>
   <g id="line2d_39">
    <path d="M 268.892308 70.074126 
L 297.213986 98.395804 
" clip-path="url(#p9521ef41b3)" style="fill: none; stroke: #0000ff; stroke-linecap: square"/>
   </g>
   <g id="line2d_40">
    <path d="M 155.605594 70.074126 
L 183.927273 98.395804 
" clip-path="url(#p9521ef41b3)" style="fill: none; stroke: #0000ff; stroke-linecap: square"/>
   </g>
   <g id="line2d_41">
    <path d="M 42.318881 70.074126 
L 70.640559 98.395804 
" clip-path="url(#p9521ef41b3)" style="fill: none; stroke: #0000ff; stroke-linecap: square"/>
   </g>
   <g id="line2d_42">
    <path d="M 212.248951 126.717483 
L 240.570629 155.039161 
" clip-path="url(#p9521ef41b3)" style="fill: none; stroke: #0000ff; stroke-linecap: square"/>
   </g>
   <g id="line2d_43">
    <path d="M 155.605594 183.360839 
L 183.927273 211.682517 
" clip-path="url(#p9521ef41b3)" style="fill: none; stroke: #0000ff; stroke-linecap: square"/>
   </g>
   <g id="line2d_44">
    <path d="M 127.283916 211.682517 
L 155.605594 240.004196 
" clip-path="url(#p9521ef41b3)" style="fill: none; stroke: #0000ff; stroke-linecap: square"/>
   </g>
   <g id="line2d_45">
    <path d="M 240.570629 41.752448 
L 268.892308 70.074126 
" clip-path="url(#p9521ef41b3)" style="fill: none; stroke: #0000ff; stroke-linecap: square"/>
   </g>
   <g id="line2d_46">
    <path d="M 297.213986 98.395804 
L 325.535664 126.717483 
" clip-path="url(#p9521ef41b3)" style="fill: none; stroke: #0000ff; stroke-linecap: square"/>
   </g>
   <g id="line2d_47">
    <path d="M 155.605594 296.647552 
L 127.283916 324.969231 
" clip-path="url(#p9521ef41b3)" style="fill: none; stroke: #0000ff; stroke-linecap: square"/>
   </g>
   <g id="line2d_48">
    <path d="M 268.892308 126.717483 
L 240.570629 155.039161 
" clip-path="url(#p9521ef41b3)" style="fill: none; stroke: #0000ff; stroke-linecap: square"/>
   </g>
   <g id="line2d_49">
    <path d="M 268.892308 13.430769 
L 240.570629 41.752448 
" clip-path="url(#p9521ef41b3)" style="fill: none; stroke: #0000ff; stroke-linecap: square"/>
   </g>
   <g id="line2d_50">
    <path d="M 70.640559 155.039161 
L 42.318881 183.360839 
" clip-path="url(#p9521ef41b3)" style="fill: none; stroke: #0000ff; stroke-linecap: square"/>
   </g>
   <g id="line2d_51">
    <path d="M 127.283916 41.752448 
L 98.962238 70.074126 
" clip-path="url(#p9521ef41b3)" style="fill: none; stroke: #0000ff; stroke-linecap: square"/>
   </g>
   <g id="line2d_52">
    <path d="M 98.962238 126.717483 
L 70.640559 155.039161 
" clip-path="url(#p9521ef41b3)" style="fill: none; stroke: #0000ff; stroke-linecap: square"/>
   </g>
   <g id="line2d_53">
    <path d="M 325.535664 13.430769 
L 297.213986 41.752448 
" clip-path="url(#p9521ef41b3)" style="fill: none; stroke: #0000ff; stroke-linecap: square"/>
   </g>
   <g id="line2d_54">
    <path d="M 183.927273 211.682517 
L 212.248951 240.004196 
" clip-path="url(#p9521ef41b3)" style="fill: none; stroke: #0000ff; stroke-linecap: square"/>
   </g>
   <g id="line2d_55">
    <path d="M 155.605594 70.074126 
L 127.283916 98.395804 
" clip-path="url(#p9521ef41b3)" style="fill: none; stroke: #0000ff; stroke-linecap: square"/>
   </g>
   <g id="line2d_56">
    <path d="M 268.892308 126.717483 
L 297.213986 155.039161 
" clip-path="url(#p9521ef41b3)" style="fill: none; stroke: #0000ff; stroke-linecap: square"/>
   </g>
   <g id="line2d_57">
    <path d="M 127.283916 211.682517 
L 98.962238 240.004196 
" clip-path="url(#p9521ef41b3)" style="fill: none; stroke: #0000ff; stroke-linecap: square"/>
   </g>
   <g id="line2d_58">
    <path d="M 325.535664 70.074126 
L 353.857343 98.395804 
" clip-path="url(#p9521ef41b3)" style="fill: none; stroke: #0000ff; stroke-linecap: square"/>
   </g>
   <g id="line2d_59">
    <path d="M 98.962238 126.717483 
L 127.283916 155.039161 
" clip-path="url(#p9521ef41b3)" style="fill: none; stroke: #0000ff; stroke-linecap: square"/>
   </g>
   <g id="line2d_60">
    <path d="M 155.605594 126.717483 
L 183.927273 155.039161 
" clip-path="url(#p9521ef41b3)" style="fill: none; stroke: #0000ff; stroke-linecap: square"/>
   </g>
   <g id="line2d_61">
    <path d="M 212.248951 13.430769 
L 183.927273 41.752448 
" clip-path="url(#p9521ef41b3)" style="fill: none; stroke: #0000ff; stroke-linecap: square"/>
   </g>
   <g id="line2d_62">
    <path d="M 268.892308 13.430769 
L 297.213986 41.752448 
" clip-path="url(#p9521ef41b3)" style="fill: none; stroke: #0000ff; stroke-linecap: square"/>
   </g>
   <g id="line2d_63">
    <path d="M 155.605594 13.430769 
L 127.283916 41.752448 
" clip-path="url(#p9521ef41b3)" style="fill: none; stroke: #0000ff; stroke-linecap: square"/>
   </g>
   <g id="line2d_64">
    <path d="M 212.248951 13.430769 
L 240.570629 41.752448 
" clip-path="url(#p9521ef41b3)" style="fill: none; stroke: #0000ff; stroke-linecap: square"/>
   </g>
   <g id="line2d_65">
    <path d="M 42.318881 13.430769 
L 13.997203 41.752448 
" clip-path="url(#p9521ef41b3)" style="fill: none; stroke: #0000ff; stroke-linecap: square"/>
   </g>
   <g id="line2d_66">
    <path d="M 127.283916 41.752448 
L 155.605594 70.074126 
" clip-path="url(#p9521ef41b3)" style="fill: none; stroke: #0000ff; stroke-linecap: square"/>
   </g>
   <g id="line2d_67">
    <path d="M 98.962238 13.430769 
L 127.283916 41.752448 
" clip-path="url(#p9521ef41b3)" style="fill: none; stroke: #0000ff; stroke-linecap: square"/>
   </g>
   <g id="line2d_68">
    <path d="M 127.283916 98.395804 
L 155.605594 126.717483 
" clip-path="url(#p9521ef41b3)" style="fill: none; stroke: #0000ff; stroke-linecap: square"/>
   </g>
   <g id="line2d_69">
    <path d="M 325.535664 13.430769 
L 353.857343 41.752448 
" clip-path="url(#p9521ef41b3)" style="fill: none; stroke: #0000ff; stroke-linecap: square"/>
   </g>
   <g id="line2d_70">
    <path d="M 155.605594 126.717483 
L 127.283916 155.039161 
" clip-path="url(#p9521ef41b3)" style="fill: none; stroke: #0000ff; stroke-linecap: square"/>
   </g>
   <g id="line2d_71">
    <path d="M 325.535664 70.074126 
L 297.213986 98.395804 
" clip-path="url(#p9521ef41b3)" style="fill: none; stroke: #0000ff; stroke-linecap: square"/>
   </g>
   <g id="line2d_72">
    <path d="M 70.640559 211.682517 
L 42.318881 240.004196 
" clip-path="url(#p9521ef41b3)" style="fill: none; stroke: #0000ff; stroke-linecap: square"/>
   </g>
   <g id="line2d_73">
    <path d="M 212.248951 240.004196 
L 183.927273 268.325874 
" clip-path="url(#p9521ef41b3)" style="fill: none; stroke: #0000ff; stroke-linecap: square"/>
   </g>
   <g id="line2d_74">
    <path d="M 42.318881 183.360839 
L 70.640559 211.682517 
" clip-path="url(#p9521ef41b3)" style="fill: none; stroke: #0000ff; stroke-linecap: square"/>
   </g>
   <g id="line2d_75">
    <path d="M 297.213986 41.752448 
L 325.535664 70.074126 
" clip-path="url(#p9521ef41b3)" style="fill: none; stroke: #0000ff; stroke-linecap: square"/>
   </g>
  </g>
 </g>
 <defs>
  <clipPath id="p9521ef41b3">
   <rect x="7.2" y="7.2" width="353.454545" height="324"/>
  </clipPath>
 </defs>
</svg>
