<?xml version="1.0" encoding="utf-8" standalone="no"?>
<!DOCTYPE svg PUBLIC "-//W3C//DTD SVG 1.1//EN"
  "http://www.w3.org/Graphics/SVG/1.1/DTD/svg11.dtd">
<svg xmlns:xlink="http://www.w3.org/1999/xlink" width="453.6pt" height="299.88pt" viewBox="0 0 453.6 299.88" xmlns="http://www.w3.org/2000/svg" version="1.1">
 <metadata>
  <rdf:RDF xmlns:dc="http://purl.org/dc/elements/1.1/" xmlns:cc="http://creativecommons.org/ns#" xmlns:rdf="http://www.w3.org/1999/02/22-rdf-syntax-ns#">
   <cc:Work>
    <dc:type rdf:resource="http://purl.org/dc/dcmitype/StillImage"/>
    <dc:date>2023-10-30T14:10:32.740668</dc:date>
    <dc:format>image/svg+xml</dc:format>
    <dc:creator>
     <cc:Agent>
      <dc:title>Matplotlib v3.7.2, https://matplotlib.org/</dc:title>
     </cc:Agent>
    </dc:creator>
   </cc:Work>
  </rdf:RDF>
 </metadata>
 <defs>
  <style type="text/css">*{stroke-linejoin: round; stroke-linecap: butt}</style>
 </defs>
 <g id="figure_1">
  <g id="patch_1">
   <path d="M 0 299.88 
L 453.6 299.88 
L 453.6 0 
L 0 0 
z
" style="fill: #ffffff"/>
  </g>
  <g id="axes_1">
   <g id="patch_2">
    <path d="M 7.2 292.68 
L 446.4 292.68 
L 446.4 7.2 
L 7.2 7.2 
z
" style="fill: #ffffff"/>
   </g>
   <g id="PathCollection_1">
    <defs>
     <path id="C0_0_216debf3fe" d="M 0 1.581139 
C 0.419323 1.581139 0.821528 1.41454 1.118034 1.118034 
C 1.41454 0.821528 1.581139 0.419323 1.581139 -0 
C 1.581139 -0.419323 1.41454 -0.821528 1.118034 -1.118034 
C 0.821528 -1.41454 0.419323 -1.581139 0 -1.581139 
C -0.419323 -1.581139 -0.821528 -1.41454 -1.118034 -1.118034 
C -1.41454 -0.821528 -1.581139 -0.419323 -1.581139 0 
C -1.581139 0.419323 -1.41454 0.821528 -1.118034 1.118034 
C -0.821528 1.41454 -0.419323 1.581139 0 1.581139 
z
"/>
    </defs>
    <g clip-path="url(#p9a1272ebaa)">
     <use xlink:href="#C0_0_216debf3fe" x="374.607692" y="139.382308" style="fill: #0000ff"/>
    </g>
    <g clip-path="url(#p9a1272ebaa)">
     <use xlink:href="#C0_0_216debf3fe" x="247.915385" y="139.382308" style="fill: #0000ff"/>
    </g>
    <g clip-path="url(#p9a1272ebaa)">
     <use xlink:href="#C0_0_216debf3fe" x="332.376923" y="139.382308" style="fill: #0000ff"/>
    </g>
    <g clip-path="url(#p9a1272ebaa)">
     <use xlink:href="#C0_0_216debf3fe" x="269.030769" y="118.266923" style="fill: #0000ff"/>
    </g>
    <g clip-path="url(#p9a1272ebaa)">
     <use xlink:href="#C0_0_216debf3fe" x="416.838462" y="139.382308" style="fill: #0000ff"/>
    </g>
    <g clip-path="url(#p9a1272ebaa)">
     <use xlink:href="#C0_0_216debf3fe" x="395.723077" y="202.728462" style="fill: #0000ff"/>
    </g>
    <g clip-path="url(#p9a1272ebaa)">
     <use xlink:href="#C0_0_216debf3fe" x="142.338462" y="33.805385" style="fill: #0000ff"/>
    </g>
    <g clip-path="url(#p9a1272ebaa)">
     <use xlink:href="#C0_0_216debf3fe" x="100.107692" y="244.959231" style="fill: #0000ff"/>
    </g>
    <g clip-path="url(#p9a1272ebaa)">
     <use xlink:href="#C0_0_216debf3fe" x="36.761538" y="97.151538" style="fill: #0000ff"/>
    </g>
    <g clip-path="url(#p9a1272ebaa)">
     <use xlink:href="#C0_0_216debf3fe" x="163.453846" y="223.843846" style="fill: #0000ff"/>
    </g>
    <g clip-path="url(#p9a1272ebaa)">
     <use xlink:href="#C0_0_216debf3fe" x="78.992308" y="223.843846" style="fill: #0000ff"/>
    </g>
    <g clip-path="url(#p9a1272ebaa)">
     <use xlink:href="#C0_0_216debf3fe" x="184.569231" y="244.959231" style="fill: #0000ff"/>
    </g>
    <g clip-path="url(#p9a1272ebaa)">
     <use xlink:href="#C0_0_216debf3fe" x="142.338462" y="244.959231" style="fill: #0000ff"/>
    </g>
    <g clip-path="url(#p9a1272ebaa)">
     <use xlink:href="#C0_0_216debf3fe" x="269.030769" y="76.036154" style="fill: #0000ff"/>
    </g>
    <g clip-path="url(#p9a1272ebaa)">
     <use xlink:href="#C0_0_216debf3fe" x="247.915385" y="223.843846" style="fill: #0000ff"/>
    </g>
    <g clip-path="url(#p9a1272ebaa)">
     <use xlink:href="#C0_0_216debf3fe" x="269.030769" y="160.497692" style="fill: #0000ff"/>
    </g>
    <g clip-path="url(#p9a1272ebaa)">
     <use xlink:href="#C0_0_216debf3fe" x="100.107692" y="160.497692" style="fill: #0000ff"/>
    </g>
    <g clip-path="url(#p9a1272ebaa)">
     <use xlink:href="#C0_0_216debf3fe" x="226.8" y="244.959231" style="fill: #0000ff"/>
    </g>
    <g clip-path="url(#p9a1272ebaa)">
     <use xlink:href="#C0_0_216debf3fe" x="311.261538" y="76.036154" style="fill: #0000ff"/>
    </g>
    <g clip-path="url(#p9a1272ebaa)">
     <use xlink:href="#C0_0_216debf3fe" x="226.8" y="76.036154" style="fill: #0000ff"/>
    </g>
    <g clip-path="url(#p9a1272ebaa)">
     <use xlink:href="#C0_0_216debf3fe" x="184.569231" y="76.036154" style="fill: #0000ff"/>
    </g>
    <g clip-path="url(#p9a1272ebaa)">
     <use xlink:href="#C0_0_216debf3fe" x="57.876923" y="76.036154" style="fill: #0000ff"/>
    </g>
    <g clip-path="url(#p9a1272ebaa)">
     <use xlink:href="#C0_0_216debf3fe" x="205.684615" y="181.613077" style="fill: #0000ff"/>
    </g>
    <g clip-path="url(#p9a1272ebaa)">
     <use xlink:href="#C0_0_216debf3fe" x="121.223077" y="181.613077" style="fill: #0000ff"/>
    </g>
    <g clip-path="url(#p9a1272ebaa)">
     <use xlink:href="#C0_0_216debf3fe" x="78.992308" y="139.382308" style="fill: #0000ff"/>
    </g>
    <g clip-path="url(#p9a1272ebaa)">
     <use xlink:href="#C0_0_216debf3fe" x="36.761538" y="139.382308" style="fill: #0000ff"/>
    </g>
    <g clip-path="url(#p9a1272ebaa)">
     <use xlink:href="#C0_0_216debf3fe" x="247.915385" y="181.613077" style="fill: #0000ff"/>
    </g>
    <g clip-path="url(#p9a1272ebaa)">
     <use xlink:href="#C0_0_216debf3fe" x="163.453846" y="54.920769" style="fill: #0000ff"/>
    </g>
    <g clip-path="url(#p9a1272ebaa)">
     <use xlink:href="#C0_0_216debf3fe" x="184.569231" y="118.266923" style="fill: #0000ff"/>
    </g>
    <g clip-path="url(#p9a1272ebaa)">
     <use xlink:href="#C0_0_216debf3fe" x="311.261538" y="202.728462" style="fill: #0000ff"/>
    </g>
    <g clip-path="url(#p9a1272ebaa)">
     <use xlink:href="#C0_0_216debf3fe" x="332.376923" y="181.613077" style="fill: #0000ff"/>
    </g>
    <g clip-path="url(#p9a1272ebaa)">
     <use xlink:href="#C0_0_216debf3fe" x="121.223077" y="266.074615" style="fill: #0000ff"/>
    </g>
    <g clip-path="url(#p9a1272ebaa)">
     <use xlink:href="#C0_0_216debf3fe" x="353.492308" y="118.266923" style="fill: #0000ff"/>
    </g>
    <g clip-path="url(#p9a1272ebaa)">
     <use xlink:href="#C0_0_216debf3fe" x="226.8" y="118.266923" style="fill: #0000ff"/>
    </g>
    <g clip-path="url(#p9a1272ebaa)">
     <use xlink:href="#C0_0_216debf3fe" x="247.915385" y="54.920769" style="fill: #0000ff"/>
    </g>
    <g clip-path="url(#p9a1272ebaa)">
     <use xlink:href="#C0_0_216debf3fe" x="57.876923" y="244.959231" style="fill: #0000ff"/>
    </g>
    <g clip-path="url(#p9a1272ebaa)">
     <use xlink:href="#C0_0_216debf3fe" x="184.569231" y="202.728462" style="fill: #0000ff"/>
    </g>
    <g clip-path="url(#p9a1272ebaa)">
     <use xlink:href="#C0_0_216debf3fe" x="57.876923" y="160.497692" style="fill: #0000ff"/>
    </g>
    <g clip-path="url(#p9a1272ebaa)">
     <use xlink:href="#C0_0_216debf3fe" x="395.723077" y="118.266923" style="fill: #0000ff"/>
    </g>
    <g clip-path="url(#p9a1272ebaa)">
     <use xlink:href="#C0_0_216debf3fe" x="100.107692" y="118.266923" style="fill: #0000ff"/>
    </g>
    <g clip-path="url(#p9a1272ebaa)">
     <use xlink:href="#C0_0_216debf3fe" x="121.223077" y="97.151538" style="fill: #0000ff"/>
    </g>
    <g clip-path="url(#p9a1272ebaa)">
     <use xlink:href="#C0_0_216debf3fe" x="78.992308" y="97.151538" style="fill: #0000ff"/>
    </g>
    <g clip-path="url(#p9a1272ebaa)">
     <use xlink:href="#C0_0_216debf3fe" x="269.030769" y="244.959231" style="fill: #0000ff"/>
    </g>
    <g clip-path="url(#p9a1272ebaa)">
     <use xlink:href="#C0_0_216debf3fe" x="163.453846" y="97.151538" style="fill: #0000ff"/>
    </g>
    <g clip-path="url(#p9a1272ebaa)">
     <use xlink:href="#C0_0_216debf3fe" x="184.569231" y="33.805385" style="fill: #0000ff"/>
    </g>
    <g clip-path="url(#p9a1272ebaa)">
     <use xlink:href="#C0_0_216debf3fe" x="184.569231" y="160.497692" style="fill: #0000ff"/>
    </g>
    <g clip-path="url(#p9a1272ebaa)">
     <use xlink:href="#C0_0_216debf3fe" x="226.8" y="160.497692" style="fill: #0000ff"/>
    </g>
    <g clip-path="url(#p9a1272ebaa)">
     <use xlink:href="#C0_0_216debf3fe" x="142.338462" y="160.497692" style="fill: #0000ff"/>
    </g>
    <g clip-path="url(#p9a1272ebaa)">
     <use xlink:href="#C0_0_216debf3fe" x="57.876923" y="202.728462" style="fill: #0000ff"/>
    </g>
    <g clip-path="url(#p9a1272ebaa)">
     <use xlink:href="#C0_0_216debf3fe" x="121.223077" y="223.843846" style="fill: #0000ff"/>
    </g>
    <g clip-path="url(#p9a1272ebaa)">
     <use xlink:href="#C0_0_216debf3fe" x="142.338462" y="76.036154" style="fill: #0000ff"/>
    </g>
    <g clip-path="url(#p9a1272ebaa)">
     <use xlink:href="#C0_0_216debf3fe" x="311.261538" y="160.497692" style="fill: #0000ff"/>
    </g>
    <g clip-path="url(#p9a1272ebaa)">
     <use xlink:href="#C0_0_216debf3fe" x="290.146154" y="97.151538" style="fill: #0000ff"/>
    </g>
    <g clip-path="url(#p9a1272ebaa)">
     <use xlink:href="#C0_0_216debf3fe" x="142.338462" y="202.728462" style="fill: #0000ff"/>
    </g>
    <g clip-path="url(#p9a1272ebaa)">
     <use xlink:href="#C0_0_216debf3fe" x="121.223077" y="139.382308" style="fill: #0000ff"/>
    </g>
    <g clip-path="url(#p9a1272ebaa)">
     <use xlink:href="#C0_0_216debf3fe" x="163.453846" y="266.074615" style="fill: #0000ff"/>
    </g>
    <g clip-path="url(#p9a1272ebaa)">
     <use xlink:href="#C0_0_216debf3fe" x="374.607692" y="97.151538" style="fill: #0000ff"/>
    </g>
    <g clip-path="url(#p9a1272ebaa)">
     <use xlink:href="#C0_0_216debf3fe" x="57.876923" y="118.266923" style="fill: #0000ff"/>
    </g>
    <g clip-path="url(#p9a1272ebaa)">
     <use xlink:href="#C0_0_216debf3fe" x="78.992308" y="54.920769" style="fill: #0000ff"/>
    </g>
    <g clip-path="url(#p9a1272ebaa)">
     <use xlink:href="#C0_0_216debf3fe" x="205.684615" y="139.382308" style="fill: #0000ff"/>
    </g>
    <g clip-path="url(#p9a1272ebaa)">
     <use xlink:href="#C0_0_216debf3fe" x="416.838462" y="181.613077" style="fill: #0000ff"/>
    </g>
    <g clip-path="url(#p9a1272ebaa)">
     <use xlink:href="#C0_0_216debf3fe" x="290.146154" y="181.613077" style="fill: #0000ff"/>
    </g>
    <g clip-path="url(#p9a1272ebaa)">
     <use xlink:href="#C0_0_216debf3fe" x="205.684615" y="266.074615" style="fill: #0000ff"/>
    </g>
    <g clip-path="url(#p9a1272ebaa)">
     <use xlink:href="#C0_0_216debf3fe" x="374.607692" y="181.613077" style="fill: #0000ff"/>
    </g>
    <g clip-path="url(#p9a1272ebaa)">
     <use xlink:href="#C0_0_216debf3fe" x="142.338462" y="118.266923" style="fill: #0000ff"/>
    </g>
    <g clip-path="url(#p9a1272ebaa)">
     <use xlink:href="#C0_0_216debf3fe" x="121.223077" y="54.920769" style="fill: #0000ff"/>
    </g>
    <g clip-path="url(#p9a1272ebaa)">
     <use xlink:href="#C0_0_216debf3fe" x="290.146154" y="139.382308" style="fill: #0000ff"/>
    </g>
    <g clip-path="url(#p9a1272ebaa)">
     <use xlink:href="#C0_0_216debf3fe" x="269.030769" y="202.728462" style="fill: #0000ff"/>
    </g>
    <g clip-path="url(#p9a1272ebaa)">
     <use xlink:href="#C0_0_216debf3fe" x="205.684615" y="54.920769" style="fill: #0000ff"/>
    </g>
    <g clip-path="url(#p9a1272ebaa)">
     <use xlink:href="#C0_0_216debf3fe" x="205.684615" y="97.151538" style="fill: #0000ff"/>
    </g>
    <g clip-path="url(#p9a1272ebaa)">
     <use xlink:href="#C0_0_216debf3fe" x="353.492308" y="202.728462" style="fill: #0000ff"/>
    </g>
    <g clip-path="url(#p9a1272ebaa)">
     <use xlink:href="#C0_0_216debf3fe" x="36.761538" y="223.843846" style="fill: #0000ff"/>
    </g>
    <g clip-path="url(#p9a1272ebaa)">
     <use xlink:href="#C0_0_216debf3fe" x="100.107692" y="76.036154" style="fill: #0000ff"/>
    </g>
    <g clip-path="url(#p9a1272ebaa)">
     <use xlink:href="#C0_0_216debf3fe" x="247.915385" y="97.151538" style="fill: #0000ff"/>
    </g>
    <g clip-path="url(#p9a1272ebaa)">
     <use xlink:href="#C0_0_216debf3fe" x="311.261538" y="118.266923" style="fill: #0000ff"/>
    </g>
    <g clip-path="url(#p9a1272ebaa)">
     <use xlink:href="#C0_0_216debf3fe" x="332.376923" y="97.151538" style="fill: #0000ff"/>
    </g>
    <g clip-path="url(#p9a1272ebaa)">
     <use xlink:href="#C0_0_216debf3fe" x="332.376923" y="223.843846" style="fill: #0000ff"/>
    </g>
    <g clip-path="url(#p9a1272ebaa)">
     <use xlink:href="#C0_0_216debf3fe" x="36.761538" y="181.613077" style="fill: #0000ff"/>
    </g>
    <g clip-path="url(#p9a1272ebaa)">
     <use xlink:href="#C0_0_216debf3fe" x="205.684615" y="223.843846" style="fill: #0000ff"/>
    </g>
    <g clip-path="url(#p9a1272ebaa)">
     <use xlink:href="#C0_0_216debf3fe" x="395.723077" y="160.497692" style="fill: #0000ff"/>
    </g>
    <g clip-path="url(#p9a1272ebaa)">
     <use xlink:href="#C0_0_216debf3fe" x="353.492308" y="160.497692" style="fill: #0000ff"/>
    </g>
    <g clip-path="url(#p9a1272ebaa)">
     <use xlink:href="#C0_0_216debf3fe" x="226.8" y="202.728462" style="fill: #0000ff"/>
    </g>
    <g clip-path="url(#p9a1272ebaa)">
     <use xlink:href="#C0_0_216debf3fe" x="100.107692" y="202.728462" style="fill: #0000ff"/>
    </g>
    <g clip-path="url(#p9a1272ebaa)">
     <use xlink:href="#C0_0_216debf3fe" x="78.992308" y="181.613077" style="fill: #0000ff"/>
    </g>
    <g clip-path="url(#p9a1272ebaa)">
     <use xlink:href="#C0_0_216debf3fe" x="290.146154" y="223.843846" style="fill: #0000ff"/>
    </g>
    <g clip-path="url(#p9a1272ebaa)">
     <use xlink:href="#C0_0_216debf3fe" x="163.453846" y="181.613077" style="fill: #0000ff"/>
    </g>
    <g clip-path="url(#p9a1272ebaa)">
     <use xlink:href="#C0_0_216debf3fe" x="163.453846" y="139.382308" style="fill: #0000ff"/>
    </g>
   </g>
   <g id="patch_3">
    <path d="M 395.723077 139.382308 
L 374.607692 118.266923 
L 353.492308 139.382308 
L 374.607692 160.497692 
L 395.723077 139.382308 
z
" clip-path="url(#p9a1272ebaa)" style="fill: none; stroke: #0000ff; stroke-linejoin: miter"/>
   </g>
   <g id="patch_4">
    <path d="M 269.030769 139.382308 
L 247.915385 118.266923 
L 226.8 139.382308 
L 247.915385 160.497692 
L 269.030769 139.382308 
z
" clip-path="url(#p9a1272ebaa)" style="fill: none; stroke: #0000ff; stroke-linejoin: miter"/>
   </g>
   <g id="patch_5">
    <path d="M 353.492308 139.382308 
L 332.376923 118.266923 
L 311.261538 139.382308 
L 332.376923 160.497692 
L 353.492308 139.382308 
z
" clip-path="url(#p9a1272ebaa)" style="fill: none; stroke: #0000ff; stroke-linejoin: miter"/>
   </g>
   <g id="patch_6">
    <path d="M 290.146154 118.266923 
L 269.030769 97.151538 
L 247.915385 118.266923 
L 269.030769 139.382308 
L 290.146154 118.266923 
z
" clip-path="url(#p9a1272ebaa)" style="fill: none; stroke: #0000ff; stroke-linejoin: miter"/>
   </g>
   <g id="patch_7">
    <path d="M 437.953846 139.382308 
L 416.838462 118.266923 
L 395.723077 139.382308 
L 416.838462 160.497692 
L 437.953846 139.382308 
z
" clip-path="url(#p9a1272ebaa)" style="fill: none; stroke: #0000ff; stroke-linejoin: miter"/>
   </g>
   <g id="patch_8">
    <path d="M 416.838462 202.728462 
L 395.723077 181.613077 
L 374.607692 202.728462 
L 395.723077 223.843846 
L 416.838462 202.728462 
z
" clip-path="url(#p9a1272ebaa)" style="fill: none; stroke: #0000ff; stroke-linejoin: miter"/>
   </g>
   <g id="patch_9">
    <path d="M 163.453846 33.805385 
L 142.338462 12.69 
L 121.223077 33.805385 
L 142.338462 54.920769 
L 163.453846 33.805385 
z
" clip-path="url(#p9a1272ebaa)" style="fill: none; stroke: #0000ff; stroke-linejoin: miter"/>
   </g>
   <g id="patch_10">
    <path d="M 121.223077 244.959231 
L 100.107692 223.843846 
L 78.992308 244.959231 
L 100.107692 266.074615 
L 121.223077 244.959231 
z
" clip-path="url(#p9a1272ebaa)" style="fill: none; stroke: #0000ff; stroke-linejoin: miter"/>
   </g>
   <g id="patch_11">
    <path d="M 57.876923 97.151538 
L 36.761538 76.036154 
L 15.646154 97.151538 
L 36.761538 118.266923 
L 57.876923 97.151538 
z
" clip-path="url(#p9a1272ebaa)" style="fill: none; stroke: #0000ff; stroke-linejoin: miter"/>
   </g>
   <g id="patch_12">
    <path d="M 184.569231 223.843846 
L 163.453846 202.728462 
L 142.338462 223.843846 
L 163.453846 244.959231 
L 184.569231 223.843846 
z
" clip-path="url(#p9a1272ebaa)" style="fill: none; stroke: #0000ff; stroke-linejoin: miter"/>
   </g>
   <g id="patch_13">
    <path d="M 100.107692 223.843846 
L 78.992308 202.728462 
L 57.876923 223.843846 
L 78.992308 244.959231 
L 100.107692 223.843846 
z
" clip-path="url(#p9a1272ebaa)" style="fill: none; stroke: #0000ff; stroke-linejoin: miter"/>
   </g>
   <g id="patch_14">
    <path d="M 205.684615 244.959231 
L 184.569231 223.843846 
L 163.453846 244.959231 
L 184.569231 266.074615 
L 205.684615 244.959231 
z
" clip-path="url(#p9a1272ebaa)" style="fill: none; stroke: #0000ff; stroke-linejoin: miter"/>
   </g>
   <g id="patch_15">
    <path d="M 163.453846 244.959231 
L 142.338462 223.843846 
L 121.223077 244.959231 
L 142.338462 266.074615 
L 163.453846 244.959231 
z
" clip-path="url(#p9a1272ebaa)" style="fill: none; stroke: #0000ff; stroke-linejoin: miter"/>
   </g>
   <g id="patch_16">
    <path d="M 290.146154 76.036154 
L 269.030769 54.920769 
L 247.915385 76.036154 
L 269.030769 97.151538 
L 290.146154 76.036154 
z
" clip-path="url(#p9a1272ebaa)" style="fill: none; stroke: #0000ff; stroke-linejoin: miter"/>
   </g>
   <g id="patch_17">
    <path d="M 269.030769 223.843846 
L 247.915385 202.728462 
L 226.8 223.843846 
L 247.915385 244.959231 
L 269.030769 223.843846 
z
" clip-path="url(#p9a1272ebaa)" style="fill: none; stroke: #0000ff; stroke-linejoin: miter"/>
   </g>
   <g id="patch_18">
    <path d="M 290.146154 160.497692 
L 269.030769 139.382308 
L 247.915385 160.497692 
L 269.030769 181.613077 
L 290.146154 160.497692 
z
" clip-path="url(#p9a1272ebaa)" style="fill: none; stroke: #0000ff; stroke-linejoin: miter"/>
   </g>
   <g id="patch_19">
    <path d="M 121.223077 160.497692 
L 100.107692 139.382308 
L 78.992308 160.497692 
L 100.107692 181.613077 
L 121.223077 160.497692 
z
" clip-path="url(#p9a1272ebaa)" style="fill: none; stroke: #0000ff; stroke-linejoin: miter"/>
   </g>
   <g id="patch_20">
    <path d="M 247.915385 244.959231 
L 226.8 223.843846 
L 205.684615 244.959231 
L 226.8 266.074615 
L 247.915385 244.959231 
z
" clip-path="url(#p9a1272ebaa)" style="fill: none; stroke: #0000ff; stroke-linejoin: miter"/>
   </g>
   <g id="patch_21">
    <path d="M 332.376923 76.036154 
L 311.261538 54.920769 
L 290.146154 76.036154 
L 311.261538 97.151538 
L 332.376923 76.036154 
z
" clip-path="url(#p9a1272ebaa)" style="fill: none; stroke: #0000ff; stroke-linejoin: miter"/>
   </g>
   <g id="patch_22">
    <path d="M 247.915385 76.036154 
L 226.8 54.920769 
L 205.684615 76.036154 
L 226.8 97.151538 
L 247.915385 76.036154 
z
" clip-path="url(#p9a1272ebaa)" style="fill: none; stroke: #0000ff; stroke-linejoin: miter"/>
   </g>
   <g id="patch_23">
    <path d="M 205.684615 76.036154 
L 184.569231 54.920769 
L 163.453846 76.036154 
L 184.569231 97.151538 
L 205.684615 76.036154 
z
" clip-path="url(#p9a1272ebaa)" style="fill: none; stroke: #0000ff; stroke-linejoin: miter"/>
   </g>
   <g id="patch_24">
    <path d="M 78.992308 76.036154 
L 57.876923 54.920769 
L 36.761538 76.036154 
L 57.876923 97.151538 
L 78.992308 76.036154 
z
" clip-path="url(#p9a1272ebaa)" style="fill: none; stroke: #0000ff; stroke-linejoin: miter"/>
   </g>
   <g id="patch_25">
    <path d="M 226.8 181.613077 
L 205.684615 160.497692 
L 184.569231 181.613077 
L 205.684615 202.728462 
L 226.8 181.613077 
z
" clip-path="url(#p9a1272ebaa)" style="fill: none; stroke: #0000ff; stroke-linejoin: miter"/>
   </g>
   <g id="patch_26">
    <path d="M 142.338462 181.613077 
L 121.223077 160.497692 
L 100.107692 181.613077 
L 121.223077 202.728462 
L 142.338462 181.613077 
z
" clip-path="url(#p9a1272ebaa)" style="fill: none; stroke: #0000ff; stroke-linejoin: miter"/>
   </g>
   <g id="patch_27">
    <path d="M 100.107692 139.382308 
L 78.992308 118.266923 
L 57.876923 139.382308 
L 78.992308 160.497692 
L 100.107692 139.382308 
z
" clip-path="url(#p9a1272ebaa)" style="fill: none; stroke: #0000ff; stroke-linejoin: miter"/>
   </g>
   <g id="patch_28">
    <path d="M 57.876923 139.382308 
L 36.761538 118.266923 
L 15.646154 139.382308 
L 36.761538 160.497692 
L 57.876923 139.382308 
z
" clip-path="url(#p9a1272ebaa)" style="fill: none; stroke: #0000ff; stroke-linejoin: miter"/>
   </g>
   <g id="patch_29">
    <path d="M 269.030769 181.613077 
L 247.915385 160.497692 
L 226.8 181.613077 
L 247.915385 202.728462 
L 269.030769 181.613077 
z
" clip-path="url(#p9a1272ebaa)" style="fill: none; stroke: #0000ff; stroke-linejoin: miter"/>
   </g>
   <g id="patch_30">
    <path d="M 184.569231 54.920769 
L 163.453846 33.805385 
L 142.338462 54.920769 
L 163.453846 76.036154 
L 184.569231 54.920769 
z
" clip-path="url(#p9a1272ebaa)" style="fill: none; stroke: #0000ff; stroke-linejoin: miter"/>
   </g>
   <g id="patch_31">
    <path d="M 205.684615 118.266923 
L 184.569231 97.151538 
L 163.453846 118.266923 
L 184.569231 139.382308 
L 205.684615 118.266923 
z
" clip-path="url(#p9a1272ebaa)" style="fill: none; stroke: #0000ff; stroke-linejoin: miter"/>
   </g>
   <g id="patch_32">
    <path d="M 332.376923 202.728462 
L 311.261538 181.613077 
L 290.146154 202.728462 
L 311.261538 223.843846 
L 332.376923 202.728462 
z
" clip-path="url(#p9a1272ebaa)" style="fill: none; stroke: #0000ff; stroke-linejoin: miter"/>
   </g>
   <g id="patch_33">
    <path d="M 353.492308 181.613077 
L 332.376923 160.497692 
L 311.261538 181.613077 
L 332.376923 202.728462 
L 353.492308 181.613077 
z
" clip-path="url(#p9a1272ebaa)" style="fill: none; stroke: #0000ff; stroke-linejoin: miter"/>
   </g>
   <g id="patch_34">
    <path d="M 142.338462 266.074615 
L 121.223077 244.959231 
L 100.107692 266.074615 
L 121.223077 287.19 
L 142.338462 266.074615 
z
" clip-path="url(#p9a1272ebaa)" style="fill: none; stroke: #0000ff; stroke-linejoin: miter"/>
   </g>
   <g id="patch_35">
    <path d="M 374.607692 118.266923 
L 353.492308 97.151538 
L 332.376923 118.266923 
L 353.492308 139.382308 
L 374.607692 118.266923 
z
" clip-path="url(#p9a1272ebaa)" style="fill: none; stroke: #0000ff; stroke-linejoin: miter"/>
   </g>
   <g id="patch_36">
    <path d="M 247.915385 118.266923 
L 226.8 97.151538 
L 205.684615 118.266923 
L 226.8 139.382308 
L 247.915385 118.266923 
z
" clip-path="url(#p9a1272ebaa)" style="fill: none; stroke: #0000ff; stroke-linejoin: miter"/>
   </g>
   <g id="patch_37">
    <path d="M 269.030769 54.920769 
L 247.915385 33.805385 
L 226.8 54.920769 
L 247.915385 76.036154 
L 269.030769 54.920769 
z
" clip-path="url(#p9a1272ebaa)" style="fill: none; stroke: #0000ff; stroke-linejoin: miter"/>
   </g>
   <g id="patch_38">
    <path d="M 78.992308 244.959231 
L 57.876923 223.843846 
L 36.761538 244.959231 
L 57.876923 266.074615 
L 78.992308 244.959231 
z
" clip-path="url(#p9a1272ebaa)" style="fill: none; stroke: #0000ff; stroke-linejoin: miter"/>
   </g>
   <g id="patch_39">
    <path d="M 205.684615 202.728462 
L 184.569231 181.613077 
L 163.453846 202.728462 
L 184.569231 223.843846 
L 205.684615 202.728462 
z
" clip-path="url(#p9a1272ebaa)" style="fill: none; stroke: #0000ff; stroke-linejoin: miter"/>
   </g>
   <g id="patch_40">
    <path d="M 78.992308 160.497692 
L 57.876923 139.382308 
L 36.761538 160.497692 
L 57.876923 181.613077 
L 78.992308 160.497692 
z
" clip-path="url(#p9a1272ebaa)" style="fill: none; stroke: #0000ff; stroke-linejoin: miter"/>
   </g>
   <g id="patch_41">
    <path d="M 416.838462 118.266923 
L 395.723077 97.151538 
L 374.607692 118.266923 
L 395.723077 139.382308 
L 416.838462 118.266923 
z
" clip-path="url(#p9a1272ebaa)" style="fill: none; stroke: #0000ff; stroke-linejoin: miter"/>
   </g>
   <g id="patch_42">
    <path d="M 121.223077 118.266923 
L 100.107692 97.151538 
L 78.992308 118.266923 
L 100.107692 139.382308 
L 121.223077 118.266923 
z
" clip-path="url(#p9a1272ebaa)" style="fill: none; stroke: #0000ff; stroke-linejoin: miter"/>
   </g>
   <g id="patch_43">
    <path d="M 142.338462 97.151538 
L 121.223077 76.036154 
L 100.107692 97.151538 
L 121.223077 118.266923 
L 142.338462 97.151538 
z
" clip-path="url(#p9a1272ebaa)" style="fill: none; stroke: #0000ff; stroke-linejoin: miter"/>
   </g>
   <g id="patch_44">
    <path d="M 100.107692 97.151538 
L 78.992308 76.036154 
L 57.876923 97.151538 
L 78.992308 118.266923 
L 100.107692 97.151538 
z
" clip-path="url(#p9a1272ebaa)" style="fill: none; stroke: #0000ff; stroke-linejoin: miter"/>
   </g>
   <g id="patch_45">
    <path d="M 290.146154 244.959231 
L 269.030769 223.843846 
L 247.915385 244.959231 
L 269.030769 266.074615 
L 290.146154 244.959231 
z
" clip-path="url(#p9a1272ebaa)" style="fill: none; stroke: #0000ff; stroke-linejoin: miter"/>
   </g>
   <g id="patch_46">
    <path d="M 184.569231 97.151538 
L 163.453846 76.036154 
L 142.338462 97.151538 
L 163.453846 118.266923 
L 184.569231 97.151538 
z
" clip-path="url(#p9a1272ebaa)" style="fill: none; stroke: #0000ff; stroke-linejoin: miter"/>
   </g>
   <g id="patch_47">
    <path d="M 205.684615 33.805385 
L 184.569231 12.69 
L 163.453846 33.805385 
L 184.569231 54.920769 
L 205.684615 33.805385 
z
" clip-path="url(#p9a1272ebaa)" style="fill: none; stroke: #0000ff; stroke-linejoin: miter"/>
   </g>
   <g id="patch_48">
    <path d="M 205.684615 160.497692 
L 184.569231 139.382308 
L 163.453846 160.497692 
L 184.569231 181.613077 
L 205.684615 160.497692 
z
" clip-path="url(#p9a1272ebaa)" style="fill: none; stroke: #0000ff; stroke-linejoin: miter"/>
   </g>
   <g id="patch_49">
    <path d="M 247.915385 160.497692 
L 226.8 139.382308 
L 205.684615 160.497692 
L 226.8 181.613077 
L 247.915385 160.497692 
z
" clip-path="url(#p9a1272ebaa)" style="fill: none; stroke: #0000ff; stroke-linejoin: miter"/>
   </g>
   <g id="patch_50">
    <path d="M 163.453846 160.497692 
L 142.338462 139.382308 
L 121.223077 160.497692 
L 142.338462 181.613077 
L 163.453846 160.497692 
z
" clip-path="url(#p9a1272ebaa)" style="fill: none; stroke: #0000ff; stroke-linejoin: miter"/>
   </g>
   <g id="patch_51">
    <path d="M 78.992308 202.728462 
L 57.876923 181.613077 
L 36.761538 202.728462 
L 57.876923 223.843846 
L 78.992308 202.728462 
z
" clip-path="url(#p9a1272ebaa)" style="fill: none; stroke: #0000ff; stroke-linejoin: miter"/>
   </g>
   <g id="patch_52">
    <path d="M 142.338462 223.843846 
L 121.223077 202.728462 
L 100.107692 223.843846 
L 121.223077 244.959231 
L 142.338462 223.843846 
z
" clip-path="url(#p9a1272ebaa)" style="fill: none; stroke: #0000ff; stroke-linejoin: miter"/>
   </g>
   <g id="patch_53">
    <path d="M 163.453846 76.036154 
L 142.338462 54.920769 
L 121.223077 76.036154 
L 142.338462 97.151538 
L 163.453846 76.036154 
z
" clip-path="url(#p9a1272ebaa)" style="fill: none; stroke: #0000ff; stroke-linejoin: miter"/>
   </g>
   <g id="patch_54">
    <path d="M 332.376923 160.497692 
L 311.261538 139.382308 
L 290.146154 160.497692 
L 311.261538 181.613077 
L 332.376923 160.497692 
z
" clip-path="url(#p9a1272ebaa)" style="fill: none; stroke: #0000ff; stroke-linejoin: miter"/>
   </g>
   <g id="patch_55">
    <path d="M 311.261538 97.151538 
L 290.146154 76.036154 
L 269.030769 97.151538 
L 290.146154 118.266923 
L 311.261538 97.151538 
z
" clip-path="url(#p9a1272ebaa)" style="fill: none; stroke: #0000ff; stroke-linejoin: miter"/>
   </g>
   <g id="patch_56">
    <path d="M 163.453846 202.728462 
L 142.338462 181.613077 
L 121.223077 202.728462 
L 142.338462 223.843846 
L 163.453846 202.728462 
z
" clip-path="url(#p9a1272ebaa)" style="fill: none; stroke: #0000ff; stroke-linejoin: miter"/>
   </g>
   <g id="patch_57">
    <path d="M 142.338462 139.382308 
L 121.223077 118.266923 
L 100.107692 139.382308 
L 121.223077 160.497692 
L 142.338462 139.382308 
z
" clip-path="url(#p9a1272ebaa)" style="fill: none; stroke: #0000ff; stroke-linejoin: miter"/>
   </g>
   <g id="patch_58">
    <path d="M 184.569231 266.074615 
L 163.453846 244.959231 
L 142.338462 266.074615 
L 163.453846 287.19 
L 184.569231 266.074615 
z
" clip-path="url(#p9a1272ebaa)" style="fill: none; stroke: #0000ff; stroke-linejoin: miter"/>
   </g>
   <g id="patch_59">
    <path d="M 395.723077 97.151538 
L 374.607692 76.036154 
L 353.492308 97.151538 
L 374.607692 118.266923 
L 395.723077 97.151538 
z
" clip-path="url(#p9a1272ebaa)" style="fill: none; stroke: #0000ff; stroke-linejoin: miter"/>
   </g>
   <g id="patch_60">
    <path d="M 78.992308 118.266923 
L 57.876923 97.151538 
L 36.761538 118.266923 
L 57.876923 139.382308 
L 78.992308 118.266923 
z
" clip-path="url(#p9a1272ebaa)" style="fill: none; stroke: #0000ff; stroke-linejoin: miter"/>
   </g>
   <g id="patch_61">
    <path d="M 100.107692 54.920769 
L 78.992308 33.805385 
L 57.876923 54.920769 
L 78.992308 76.036154 
L 100.107692 54.920769 
z
" clip-path="url(#p9a1272ebaa)" style="fill: none; stroke: #0000ff; stroke-linejoin: miter"/>
   </g>
   <g id="patch_62">
    <path d="M 226.8 139.382308 
L 205.684615 118.266923 
L 184.569231 139.382308 
L 205.684615 160.497692 
L 226.8 139.382308 
z
" clip-path="url(#p9a1272ebaa)" style="fill: none; stroke: #0000ff; stroke-linejoin: miter"/>
   </g>
   <g id="patch_63">
    <path d="M 437.953846 181.613077 
L 416.838462 160.497692 
L 395.723077 181.613077 
L 416.838462 202.728462 
L 437.953846 181.613077 
z
" clip-path="url(#p9a1272ebaa)" style="fill: none; stroke: #0000ff; stroke-linejoin: miter"/>
   </g>
   <g id="patch_64">
    <path d="M 311.261538 181.613077 
L 290.146154 160.497692 
L 269.030769 181.613077 
L 290.146154 202.728462 
L 311.261538 181.613077 
z
" clip-path="url(#p9a1272ebaa)" style="fill: none; stroke: #0000ff; stroke-linejoin: miter"/>
   </g>
   <g id="patch_65">
    <path d="M 226.8 266.074615 
L 205.684615 244.959231 
L 184.569231 266.074615 
L 205.684615 287.19 
L 226.8 266.074615 
z
" clip-path="url(#p9a1272ebaa)" style="fill: none; stroke: #0000ff; stroke-linejoin: miter"/>
   </g>
   <g id="patch_66">
    <path d="M 395.723077 181.613077 
L 374.607692 160.497692 
L 353.492308 181.613077 
L 374.607692 202.728462 
L 395.723077 181.613077 
z
" clip-path="url(#p9a1272ebaa)" style="fill: none; stroke: #0000ff; stroke-linejoin: miter"/>
   </g>
   <g id="patch_67">
    <path d="M 163.453846 118.266923 
L 142.338462 97.151538 
L 121.223077 118.266923 
L 142.338462 139.382308 
L 163.453846 118.266923 
z
" clip-path="url(#p9a1272ebaa)" style="fill: none; stroke: #0000ff; stroke-linejoin: miter"/>
   </g>
   <g id="patch_68">
    <path d="M 142.338462 54.920769 
L 121.223077 33.805385 
L 100.107692 54.920769 
L 121.223077 76.036154 
L 142.338462 54.920769 
z
" clip-path="url(#p9a1272ebaa)" style="fill: none; stroke: #0000ff; stroke-linejoin: miter"/>
   </g>
   <g id="patch_69">
    <path d="M 311.261538 139.382308 
L 290.146154 118.266923 
L 269.030769 139.382308 
L 290.146154 160.497692 
L 311.261538 139.382308 
z
" clip-path="url(#p9a1272ebaa)" style="fill: none; stroke: #0000ff; stroke-linejoin: miter"/>
   </g>
   <g id="patch_70">
    <path d="M 290.146154 202.728462 
L 269.030769 181.613077 
L 247.915385 202.728462 
L 269.030769 223.843846 
L 290.146154 202.728462 
z
" clip-path="url(#p9a1272ebaa)" style="fill: none; stroke: #0000ff; stroke-linejoin: miter"/>
   </g>
   <g id="patch_71">
    <path d="M 226.8 54.920769 
L 205.684615 33.805385 
L 184.569231 54.920769 
L 205.684615 76.036154 
L 226.8 54.920769 
z
" clip-path="url(#p9a1272ebaa)" style="fill: none; stroke: #0000ff; stroke-linejoin: miter"/>
   </g>
   <g id="patch_72">
    <path d="M 226.8 97.151538 
L 205.684615 76.036154 
L 184.569231 97.151538 
L 205.684615 118.266923 
L 226.8 97.151538 
z
" clip-path="url(#p9a1272ebaa)" style="fill: none; stroke: #0000ff; stroke-linejoin: miter"/>
   </g>
   <g id="patch_73">
    <path d="M 374.607692 202.728462 
L 353.492308 181.613077 
L 332.376923 202.728462 
L 353.492308 223.843846 
L 374.607692 202.728462 
z
" clip-path="url(#p9a1272ebaa)" style="fill: none; stroke: #0000ff; stroke-linejoin: miter"/>
   </g>
   <g id="patch_74">
    <path d="M 57.876923 223.843846 
L 36.761538 202.728462 
L 15.646154 223.843846 
L 36.761538 244.959231 
L 57.876923 223.843846 
z
" clip-path="url(#p9a1272ebaa)" style="fill: none; stroke: #0000ff; stroke-linejoin: miter"/>
   </g>
   <g id="patch_75">
    <path d="M 121.223077 76.036154 
L 100.107692 54.920769 
L 78.992308 76.036154 
L 100.107692 97.151538 
L 121.223077 76.036154 
z
" clip-path="url(#p9a1272ebaa)" style="fill: none; stroke: #0000ff; stroke-linejoin: miter"/>
   </g>
   <g id="patch_76">
    <path d="M 269.030769 97.151538 
L 247.915385 76.036154 
L 226.8 97.151538 
L 247.915385 118.266923 
L 269.030769 97.151538 
z
" clip-path="url(#p9a1272ebaa)" style="fill: none; stroke: #0000ff; stroke-linejoin: miter"/>
   </g>
   <g id="patch_77">
    <path d="M 332.376923 118.266923 
L 311.261538 97.151538 
L 290.146154 118.266923 
L 311.261538 139.382308 
L 332.376923 118.266923 
z
" clip-path="url(#p9a1272ebaa)" style="fill: none; stroke: #0000ff; stroke-linejoin: miter"/>
   </g>
   <g id="patch_78">
    <path d="M 353.492308 97.151538 
L 332.376923 76.036154 
L 311.261538 97.151538 
L 332.376923 118.266923 
L 353.492308 97.151538 
z
" clip-path="url(#p9a1272ebaa)" style="fill: none; stroke: #0000ff; stroke-linejoin: miter"/>
   </g>
   <g id="patch_79">
    <path d="M 353.492308 223.843846 
L 332.376923 202.728462 
L 311.261538 223.843846 
L 332.376923 244.959231 
L 353.492308 223.843846 
z
" clip-path="url(#p9a1272ebaa)" style="fill: none; stroke: #0000ff; stroke-linejoin: miter"/>
   </g>
   <g id="patch_80">
    <path d="M 57.876923 181.613077 
L 36.761538 160.497692 
L 15.646154 181.613077 
L 36.761538 202.728462 
L 57.876923 181.613077 
z
" clip-path="url(#p9a1272ebaa)" style="fill: none; stroke: #0000ff; stroke-linejoin: miter"/>
   </g>
   <g id="patch_81">
    <path d="M 226.8 223.843846 
L 205.684615 202.728462 
L 184.569231 223.843846 
L 205.684615 244.959231 
L 226.8 223.843846 
z
" clip-path="url(#p9a1272ebaa)" style="fill: none; stroke: #0000ff; stroke-linejoin: miter"/>
   </g>
   <g id="patch_82">
    <path d="M 416.838462 160.497692 
L 395.723077 139.382308 
L 374.607692 160.497692 
L 395.723077 181.613077 
L 416.838462 160.497692 
z
" clip-path="url(#p9a1272ebaa)" style="fill: none; stroke: #0000ff; stroke-linejoin: miter"/>
   </g>
   <g id="patch_83">
    <path d="M 374.607692 160.497692 
L 353.492308 139.382308 
L 332.376923 160.497692 
L 353.492308 181.613077 
L 374.607692 160.497692 
z
" clip-path="url(#p9a1272ebaa)" style="fill: none; stroke: #0000ff; stroke-linejoin: miter"/>
   </g>
   <g id="patch_84">
    <path d="M 247.915385 202.728462 
L 226.8 181.613077 
L 205.684615 202.728462 
L 226.8 223.843846 
L 247.915385 202.728462 
z
" clip-path="url(#p9a1272ebaa)" style="fill: none; stroke: #0000ff; stroke-linejoin: miter"/>
   </g>
   <g id="patch_85">
    <path d="M 121.223077 202.728462 
L 100.107692 181.613077 
L 78.992308 202.728462 
L 100.107692 223.843846 
L 121.223077 202.728462 
z
" clip-path="url(#p9a1272ebaa)" style="fill: none; stroke: #0000ff; stroke-linejoin: miter"/>
   </g>
   <g id="patch_86">
    <path d="M 100.107692 181.613077 
L 78.992308 160.497692 
L 57.876923 181.613077 
L 78.992308 202.728462 
L 100.107692 181.613077 
z
" clip-path="url(#p9a1272ebaa)" style="fill: none; stroke: #0000ff; stroke-linejoin: miter"/>
   </g>
   <g id="patch_87">
    <path d="M 311.261538 223.843846 
L 290.146154 202.728462 
L 269.030769 223.843846 
L 290.146154 244.959231 
L 311.261538 223.843846 
z
" clip-path="url(#p9a1272ebaa)" style="fill: none; stroke: #0000ff; stroke-linejoin: miter"/>
   </g>
   <g id="patch_88">
    <path d="M 184.569231 181.613077 
L 163.453846 160.497692 
L 142.338462 181.613077 
L 163.453846 202.728462 
L 184.569231 181.613077 
z
" clip-path="url(#p9a1272ebaa)" style="fill: none; stroke: #0000ff; stroke-linejoin: miter"/>
   </g>
   <g id="patch_89">
    <path d="M 184.569231 139.382308 
L 163.453846 118.266923 
L 142.338462 139.382308 
L 163.453846 160.497692 
L 184.569231 139.382308 
z
" clip-path="url(#p9a1272ebaa)" style="fill: none; stroke: #0000ff; stroke-linejoin: miter"/>
   </g>
   <g id="matplotlib.axis_1"/>
   <g id="matplotlib.axis_2"/>
  </g>
 </g>
 <defs>
  <clipPath id="p9a1272ebaa">
   <rect x="7.2" y="7.2" width="439.2" height="285.48"/>
  </clipPath>
 </defs>
</svg>
